ATT8SCR,NOR,NUMFSM
42.4,950.0,391.0
58.7,1170.0,315.0
42.2,1003.0,431.0
44.8,1308.0,298.0
47.5,1008.0,264.0
63.4,1025.0,132.0
48.4,711.0,208.0
46.3,836.0,234.0
54.6,1073.0,186.0
3.6,34.0,23.0
NE,245.0,134.0
48.1,1114.0,139.0
41.6,1432.0,279.0
45.6,1905.0,320.0
39.9,1216.0,265.0
59.3,624.0,44.0
9.6,33.0,17.0
43.1,933.0,333.0
53.3,1630.0,321.0
47.1,744.0,186.0
43.1,837.0,483.0
48.8,993.0,368.0
1.3,132.0,87.0
NE,143.0,68.0
NE,108.0,71.0
3.8,229.0,112.0
8.6,102.0,39.0
SUPP,68.0,35.0
NE,90.0,68.0
32.8,631.0,278.0
57.4,773.0,277.0
48.2,894.0,276.0
56.6,978.0,259.0
50.4,969.0,297.0
NE,81.0,38.0
NE,124.0,85.0
48.4,617.0,88.0
49.6,466.0,130.0
49.5,933.0,161.0
46.3,802.0,204.0
42.2,541.0,147.0
51.1,1007.0,142.0
56.1,1235.0,127.0
42.1,629.0,170.0
NE,132.0,111.0
1.2,121.0,81.0
2.7,125.0,81.0
37.2,901.0,255.0
51.1,1418.0,188.0
34.9,871.0,226.0
40.1,780.0,197.0
42.8,1251.0,189.0
41.4,1010.0,217.0
43.9,558.0,143.0
43.7,906.0,157.0
56,931.0,93.0
46.2,821.0,141.0
1.7,152.0,72.0
NE,120.0,62.0
55.2,750.0,158.0
53.4,935.0,205.0
48.3,615.0,162.0
NE,144.0,78.0
SUPP,76.0,42.0
42.1,1126.0,392.0
44.5,1009.0,491.0
48.6,1544.0,494.0
54.3,779.0,311.0
54.2,1234.0,602.0
47.7,1165.0,448.0
56,1488.0,586.0
53.9,1392.0,442.0
52,888.0,184.0
39.7,522.0,245.0
SUPP,36.0,23.0
NE,323.0,158.0
NE,92.0,45.0
43.2,1238.0,176.0
1.7,81.0,24.0
NE,62.0,0.0
NE,201.0,74.0
6.3,179.0,77.0
49.7,995.0,287.0
NE,104.0,53.0
NE,77.0,31.0
49.3,2125.0,246.0
34.8,1151.0,269.0
47.9,1943.0,336.0
45.8,1995.0,318.0
53.6,1411.0,146.0
38.2,783.0,177.0
77.6,704.0,20.0
59.8,1195.0,82.0
50.6,1102.0,118.0
NE,78.0,33.0
NE,172.0,56.0
NE,81.0,28.0
44.5,727.0,109.0
NE,296.0,106.0
83,1093.0,14.0
4.8,99.0,26.0
45.5,719.0,70.0
40.1,241.0,57.0
36.9,530.0,167.0
43.2,755.0,160.0
62,1057.0,68.0
48.7,1357.0,140.0
2.3,224.0,101.0
NE,102.0,32.0
3.9,262.0,95.0
NE,121.0,60.0
48.3,1296.0,186.0
56.7,1907.0,133.0
49.2,1476.0,321.0
54.2,1790.0,284.0
54.4,1266.0,236.0
39.7,650.0,152.0
0.8,177.0,75.0
NE,110.0,37.0
NE,111.0,36.0
NE,100.0,35.0
44.2,1625.0,212.0
50.7,1147.0,160.0
43.9,1219.0,224.0
41.1,750.0,124.0
57,1064.0,138.0
79.9,1394.0,42.0
38.2,617.0,101.0
49.8,1014.0,92.0
NE,122.0,58.0
0.7,249.0,94.0
NE,98.0,58.0
NE,125.0,56.0
49.7,805.0,161.0
55.2,1424.0,187.0
57.9,1774.0,96.0
44.4,1229.0,685.0
SUPP,55.0,22.0
8.4,103.0,27.0
0,134.0,66.0
57.4,1676.0,212.0
58.6,790.0,59.0
0.3,171.0,49.0
NE,153.0,43.0
37.9,734.0,124.0
41.2,1157.0,187.0
NE,237.0,82.0
NE,97.0,29.0
54.6,1788.0,323.0
58.5,1209.0,116.0
2.5,238.0,84.0
NE,123.0,36.0
39.7,392.0,76.0
54.8,1324.0,187.0
44,1028.0,250.0
54.9,1325.0,146.0
53.8,1264.0,111.0
59.6,1392.0,122.0
9.5,32.0,18.0
SUPP,146.0,55.0
NE,194.0,70.0
44.9,1402.0,209.0
44.9,747.0,140.0
47.8,1384.0,296.0
53.9,1402.0,224.0
38.1,1026.0,253.0
51.9,1290.0,164.0
51.4,1310.0,152.0
45.4,1062.0,199.0
75.5,1044.0,54.0
53.9,1387.0,150.0
78.8,1098.0,55.0
52.3,1788.0,253.0
60.2,1886.0,221.0
53.8,1256.0,176.0
42.4,1954.0,406.0
59,1712.0,118.0
48.5,1054.0,197.0
0.6,155.0,44.0
SUPP,59.0,29.0
51.8,890.0,96.0
54.6,1113.0,67.0
61.2,1403.0,119.0
NE,114.0,34.0
42.4,1438.0,283.0
45.1,841.0,154.0
45.5,1147.0,216.0
47.9,856.0,170.0
44,816.0,136.0
55.5,887.0,146.0
38.8,838.0,139.0
51.1,1209.0,140.0
54.2,1372.0,229.0
38.9,2217.0,665.0
50.7,750.0,151.0
43,595.0,167.0
49.9,993.0,266.0
51.6,870.0,175.0
47.5,684.0,239.0
42.7,608.0,193.0
38,649.0,202.0
51,647.0,115.0
49.5,1215.0,322.0
38.8,1138.0,551.0
47.5,1806.0,483.0
40.3,1371.0,443.0
40.3,973.0,231.0
36.4,354.0,173.0
59.5,981.0,174.0
47.1,613.0,201.0
42.7,1008.0,275.0
43.4,617.0,272.0
42.3,622.0,237.0
42.6,1168.0,283.0
56.5,1213.0,191.0
49.9,628.0,97.0
38.4,1108.0,274.0
NE,215.0,114.0
NE,196.0,65.0
4,131.0,56.0
1.5,134.0,71.0
6.3,62.0,33.0
1.9,373.0,185.0
13.8,87.0,35.0
5.7,234.0,126.0
0.1,282.0,151.0
NE,102.0,49.0
2.5,115.0,48.0
6.3,117.0,76.0
52.4,983.0,122.0
47,1315.0,192.0
NE,154.0,47.0
NE,100.0,47.0
50.1,1009.0,47.0
43.1,1127.0,151.0
42.3,773.0,146.0
57.2,624.0,6.0
2.8,156.0,75.0
2.5,158.0,48.0
NE,151.0,58.0
2.8,133.0,54.0
SUPP,47.0,33.0
SUPP,106.0,26.0
45.8,1091.0,158.0
37.2,1482.0,315.0
45.1,1167.0,252.0
42.6,880.0,156.0
SUPP,78.0,43.0
53.2,1285.0,85.0
3.6,151.0,40.0
NE,123.0,30.0
0.9,175.0,82.0
NE,113.0,41.0
39.6,692.0,208.0
48,1065.0,89.0
40.1,1512.0,306.0
0.5,158.0,86.0
2.5,157.0,74.0
NE,110.0,51.0
36.8,757.0,254.0
41.1,951.0,273.0
NE,154.0,73.0
NE,120.0,42.0
NE,132.0,59.0
NE,96.0,44.0
NE,200.0,111.0
1.6,146.0,68.0
45.1,815.0,329.0
38,791.0,242.0
36,1547.0,615.0
31.7,1234.0,616.0
42.5,1453.0,269.0
39.6,928.0,346.0
55.9,716.0,25.0
56.7,837.0,114.0
40.2,838.0,289.0
46.8,1010.0,162.0
47.7,1166.0,194.0
43,1315.0,280.0
46.9,906.0,300.0
41.5,1175.0,207.0
54.5,959.0,114.0
4.6,34.0,6.0
SUPP,73.0,4.0
NE,252.0,112.0
4.3,67.0,42.0
1.2,68.0,58.0
NE,123.0,57.0
NE,127.0,58.0
45.1,707.0,140.0
47.7,1511.0,332.0
39.3,585.0,165.0
45.8,1161.0,123.0
39.2,814.0,229.0
8.3,52.0,32.0
43.3,835.0,129.0
35.9,439.0,164.0
43.7,1302.0,121.0
46.8,1270.0,157.0
46.4,884.0,146.0
49,1042.0,129.0
9.6,106.0,40.0
SUPP,101.0,27.0
1.6,138.0,58.0
2.5,90.0,56.0
NE,185.0,74.0
41.7,734.0,253.0
47.6,693.0,99.0
37.5,1076.0,248.0
36.6,1055.0,335.0
41,857.0,171.0
8.5,223.0,102.0
8.2,52.0,31.0
NE,137.0,59.0
SUPP,74.0,43.0
45.1,1193.0,164.0
7.7,75.0,19.0
41.8,1086.0,158.0
47,1540.0,144.0
43.1,877.0,79.0
42.1,901.0,206.0
49.7,1493.0,209.0
13.4,75.0,21.0
1.1,242.0,91.0
NE,52.0,0.0
46.6,1030.0,138.0
46.5,948.0,225.0
42.8,897.0,163.0
40.8,866.0,194.0
48.3,1110.0,103.0
39.9,825.0,219.0
33.1,599.0,207.0
46.5,830.0,71.0
50.4,1124.0,94.0
46,1084.0,103.0
1.5,219.0,75.0
41.7,1812.0,454.0
44.7,1804.0,496.0
42.4,728.0,230.0
44.8,831.0,215.0
39.3,1246.0,401.0
46.8,882.0,194.0
SUPP,121.0,74.0
7.2,89.0,68.0
NE,175.0,79.0
6.7,120.0,83.0
45.8,1373.0,156.0
43.4,1495.0,305.0
35,888.0,258.0
38.5,1238.0,310.0
43.2,807.0,203.0
44.4,1359.0,217.0
43.5,1114.0,170.0
39.4,1074.0,285.0
2.4,77.0,47.0
54.5,922.0,178.0
40.8,1105.0,139.0
51.7,1268.0,71.0
46.8,1197.0,178.0
36.3,1039.0,224.0
50.8,1541.0,123.0
56,1005.0,98.0
54.8,794.0,58.0
46.6,735.0,98.0
41.5,629.0,112.0
SUPP,48.0,0.0
1.5,107.0,38.0
3.4,254.0,85.0
NE,97.0,34.0
50.3,814.0,97.0
39.7,1034.0,218.0
54.6,819.0,87.0
49.3,765.0,84.0
NE,71.0,24.0
NE,144.0,56.0
37.1,361.0,93.0
67.8,837.0,64.0
47.9,884.0,212.0
41.1,512.0,114.0
47.5,777.0,123.0
47.7,1394.0,112.0
NE,113.0,34.0
44.8,960.0,162.0
39.4,975.0,221.0
54.2,905.0,89.0
42.1,908.0,151.0
50,681.0,60.0
40.6,1368.0,225.0
41.2,971.0,163.0
50.5,980.0,44.0
48.5,1549.0,154.0
52.3,1201.0,63.0
SUPP,203.0,55.0
52.5,1636.0,63.0
43.5,1032.0,299.0
SUPP,28.0,14.0
44.7,1785.0,232.0
44.9,648.0,96.0
0.9,130.0,57.0
NE,124.0,45.0
51.3,1757.0,305.0
2,205.0,90.0
NE,173.0,87.0
41.6,1456.0,214.0
39,1479.0,368.0
36.3,903.0,134.0
48.8,1818.0,157.0
34.6,1619.0,379.0
49.9,1184.0,144.0
41.8,795.0,140.0
NE,182.0,54.0
3.6,68.0,52.0
36.9,671.0,256.0
33.2,640.0,261.0
40.8,522.0,177.0
46.2,1284.0,206.0
53.9,1323.0,144.0
40.6,898.0,381.0
39.4,923.0,234.0
42.3,1245.0,287.0
40.6,780.0,204.0
SUPP,25.0,1.0
0.4,113.0,42.0
0.9,191.0,93.0
0.4,137.0,67.0
NE,133.0,55.0
42.3,1138.0,319.0
57.8,1400.0,148.0
43.1,1482.0,269.0
44.2,1255.0,322.0
39.3,990.0,185.0
52.8,2300.0,192.0
48,1196.0,141.0
39.9,971.0,245.0
48,1396.0,95.0
48.2,1325.0,67.0
48.5,619.0,60.0
51.9,908.0,83.0
46.7,941.0,198.0
42.3,935.0,257.0
0.6,235.0,96.0
NE,48.0,15.0
NE,219.0,112.0
0.4,278.0,83.0
49.2,1586.0,140.0
0.4,188.0,80.0
41,743.0,202.0
57.5,1368.0,107.0
3.6,69.0,34.0
35.1,1590.0,499.0
45.9,1774.0,430.0
NE,96.0,27.0
51.8,782.0,57.0
30.4,315.0,124.0
54.6,1640.0,53.0
46.4,1203.0,137.0
44.7,1060.0,192.0
40.7,921.0,194.0
41.2,465.0,75.0
43.4,846.0,180.0
42.8,795.0,157.0
SUPP,105.0,24.0
0.3,115.0,65.0
0.5,161.0,33.0
42.4,895.0,349.0
46.9,664.0,182.0
37.1,648.0,168.0
7.5,196.0,102.0
0.6,158.0,80.0
39.5,564.0,160.0
52.2,1577.0,142.0
45.3,914.0,81.0
47.3,772.0,56.0
55,1706.0,138.0
38.4,268.0,55.0
51.7,964.0,74.0
42.2,724.0,121.0
SUPP,41.0,15.0
7.7,163.0,51.0
NE,74.0,20.0
NE,146.0,63.0
NE,136.0,38.0
2.4,126.0,36.0
1.3,115.0,44.0
SUPP,67.0,11.0
NE,140.0,74.0
47,731.0,78.0
34,995.0,206.0
38.9,1055.0,181.0
41.8,1223.0,214.0
34.9,1072.0,212.0
45.9,1083.0,169.0
NE,186.0,51.0
SUPP,75.0,16.0
NE,218.0,65.0
NE,214.0,50.0
55.9,1083.0,48.0
46.9,863.0,48.0
42.2,1145.0,111.0
50.1,1602.0,136.0
44.5,1063.0,72.0
43.8,1595.0,134.0
37.7,855.0,115.0
37.3,807.0,113.0
72.7,828.0,11.0
53,1215.0,48.0
44.4,815.0,48.0
28.7,233.0,46.0
5.5,85.0,19.0
NE,165.0,54.0
1,269.0,74.0
NE,220.0,45.0
NE,214.0,38.0
4.5,42.0,29.0
NE,182.0,58.0
43.6,1013.0,75.0
42,1326.0,90.0
33.4,899.0,127.0
47.3,753.0,135.0
45.2,1330.0,46.0
46.5,1793.0,238.0
45.8,1190.0,211.0
46,1069.0,71.0
NE,136.0,61.0
0.9,122.0,38.0
NE,215.0,45.0
0.8,176.0,45.0
SUPP,76.0,18.0
NE,66.0,16.0
NE,179.0,53.0
NE,167.0,34.0
NE,203.0,58.0
SUPP,172.0,32.0
39.8,1009.0,138.0
42.4,732.0,110.0
3.9,168.0,59.0
NE,181.0,79.0
NE,113.0,40.0
41.1,526.0,168.0
42.1,674.0,88.0
47.8,1092.0,109.0
44.2,641.0,113.0
45.2,1108.0,116.0
49.5,1522.0,138.0
55.6,1303.0,54.0
43.3,1597.0,197.0
51.8,1165.0,82.0
51.3,1322.0,118.0
54.5,1995.0,156.0
52.5,1246.0,62.0
43,886.0,156.0
49.9,988.0,80.0
41.9,809.0,107.0
47.9,1446.0,367.0
NE,108.0,31.0
NE,187.0,67.0
NE,91.0,29.0
13.6,30.0,29.0
SUPP,7.0,0.0
8.2,66.0,36.0
3,101.0,35.0
2.9,166.0,64.0
NE,124.0,40.0
NE,144.0,35.0
SUPP,80.0,18.0
0.5,130.0,54.0
SUPP,75.0,35.0
11.5,104.0,36.0
16.8,82.0,44.0
43.7,1224.0,169.0
47,529.0,72.0
45.4,1383.0,205.0
41.7,1107.0,241.0
0.8,143.0,64.0
NE,156.0,64.0
44.7,641.0,81.0
44,1141.0,130.0
39.1,689.0,153.0
48,1126.0,153.0
52.5,1440.0,122.0
42.9,763.0,149.0
34.7,110.0,44.0
34.7,121.0,32.0
42.6,103.0,14.0
44.6,443.0,40.0
40,628.0,128.0
46.4,979.0,63.0
47.1,171.0,17.0
52.6,1382.0,68.0
42.8,522.0,71.0
38.8,1398.0,95.0
50.9,1249.0,89.0
44,1070.0,147.0
39.6,525.0,93.0
43.8,729.0,105.0
45.2,693.0,152.0
NE,148.0,51.0
0.7,86.0,18.0
NE,74.0,20.0
46.1,944.0,73.0
42.7,1485.0,251.0
44.2,524.0,67.0
40.2,715.0,99.0
37.5,571.0,170.0
44.4,879.0,131.0
47.7,1190.0,135.0
29.5,1090.0,296.0
52.9,1813.0,130.0
44.1,1065.0,147.0
42.4,335.0,85.0
41.2,761.0,171.0
45.6,422.0,138.0
38.9,846.0,212.0
50.1,753.0,74.0
52.4,1804.0,137.0
47.3,1027.0,115.0
49.8,1203.0,102.0
39.8,915.0,153.0
53.9,1309.0,71.0
NE,83.0,38.0
NE,136.0,73.0
4.1,82.0,37.0
NE,182.0,56.0
SUPP,86.0,44.0
1.9,183.0,80.0
5.9,120.0,66.0
2.9,127.0,47.0
NE,85.0,22.0
NE,99.0,45.0
42.2,691.0,71.0
49.9,736.0,68.0
50.6,613.0,57.0
47.7,1360.0,168.0
43.5,530.0,52.0
46.7,993.0,128.0
42.5,979.0,195.0
64.8,776.0,37.0
33.6,739.0,164.0
42.8,1216.0,171.0
43.4,907.0,128.0
36.8,869.0,189.0
53,1270.0,75.0
NE,196.0,67.0
NE,127.0,39.0
NE,116.0,36.0
7.8,79.0,41.0
NE,121.0,47.0
NE,142.0,50.0
NE,237.0,100.0
NE,119.0,38.0
NE,87.0,20.0
NE,89.0,28.0
4.7,97.0,52.0
2.5,105.0,48.0
1.2,104.0,37.0
NE,102.0,51.0
NE,15.0,5.0
2.5,34.0,11.0
9.8,166.0,55.0
47.4,789.0,96.0
47.4,993.0,141.0
46.9,1454.0,203.0
45.1,617.0,86.0
45,1736.0,173.0
43.6,674.0,89.0
48.2,1003.0,139.0
50.4,1064.0,73.0
44.1,852.0,167.0
54.8,1058.0,67.0
46.2,1639.0,267.0
47.8,1879.0,227.0
SUPP,67.0,22.0
1.9,85.0,23.0
NE,120.0,53.0
NE,165.0,41.0
SUPP,81.0,24.0
NE,208.0,59.0
0.1,323.0,110.0
NE,138.0,42.0
44.6,1044.0,270.0
31.8,223.0,49.0
38.8,675.0,155.0
49.2,573.0,91.0
41.4,759.0,175.0
40.7,928.0,252.0
48.3,757.0,172.0
26.8,319.0,100.0
55.9,1640.0,136.0
46.5,617.0,243.0
48.6,737.0,187.0
54.7,983.0,149.0
52.5,581.0,108.0
9.6,79.0,37.0
1.3,132.0,65.0
SUPP,90.0,44.0
4.2,70.0,39.0
NE,224.0,79.0
54.6,1352.0,176.0
53.7,1673.0,183.0
38.3,888.0,217.0
53.7,1142.0,110.0
54.8,1439.0,89.0
45.4,723.0,70.0
49.9,1677.0,101.0
49,840.0,68.0
45,992.0,82.0
49.2,756.0,57.0
53.7,1128.0,99.0
51.6,1521.0,148.0
43,1514.0,260.0
47.6,1048.0,111.0
51.5,2302.0,176.0
54.2,1021.0,84.0
SUPP,48.0,0.0
4.5,52.0,32.0
NE,218.0,99.0
NE,93.0,7.0
NE,181.0,71.0
NE,111.0,27.0
44.4,743.0,127.0
51.4,1107.0,85.0
52.4,624.0,66.0
49.6,1355.0,88.0
50,861.0,75.0
4.2,152.0,37.0
NE,234.0,83.0
NE,92.0,43.0
NE,218.0,43.0
NE,136.0,36.0
NE,166.0,55.0
44.8,670.0,112.0
43.4,1044.0,106.0
43.7,1146.0,99.0
40.1,733.0,147.0
40.5,580.0,89.0
SUPP,41.0,2.0
0.1,143.0,42.0
NE,124.0,42.0
SUPP,49.0,11.0
6.1,161.0,30.0
37.7,1314.0,193.0
49.3,882.0,67.0
59.7,1498.0,64.0
45.7,872.0,60.0
56.2,1099.0,42.0
48.5,998.0,160.0
38.1,633.0,97.0
52.8,1771.0,75.0
46.7,980.0,57.0
41.1,546.0,57.0
48.6,1262.0,80.0
40.7,542.0,43.0
43.4,962.0,119.0
43,782.0,137.0
43,437.0,58.0
45.1,920.0,118.0
38.1,706.0,139.0
48,1162.0,55.0
58.9,1248.0,62.0
47.5,1334.0,139.0
53.5,920.0,83.0
46.2,720.0,137.0
40.5,678.0,75.0
44.3,678.0,51.0
43.1,1109.0,182.0
41.1,980.0,119.0
39.2,597.0,91.0
47.7,997.0,80.0
40.5,783.0,173.0
39.8,1007.0,328.0
39,394.0,160.0
50.2,1752.0,235.0
41.3,1280.0,194.0
33.6,577.0,181.0
48.2,775.0,83.0
57,1687.0,119.0
47.1,1056.0,247.0
36.6,885.0,249.0
39.8,616.0,79.0
52.1,864.0,46.0
48.1,1078.0,84.0
52.6,861.0,37.0
41,618.0,120.0
50.8,999.0,171.0
42.4,739.0,73.0
53.7,868.0,84.0
0.7,197.0,58.0
8.2,85.0,38.0
SUPP,84.0,36.0
NE,88.0,41.0
SUPP,89.0,26.0
3.7,175.0,64.0
NE,93.0,23.0
SUPP,81.0,31.0
0.6,65.0,39.0
NE,79.0,0.0
4.9,148.0,48.0
5.4,90.0,34.0
9.9,167.0,38.0
7.3,77.0,29.0
43.1,816.0,93.0
40.6,893.0,107.0
35.9,358.0,42.0
41.1,522.0,85.0
46.2,523.0,50.0
46.8,1055.0,53.0
55,745.0,30.0
47.7,1050.0,76.0
NE,134.0,39.0
NE,63.0,15.0
NE,150.0,47.0
SUPP,131.0,29.0
14.3,67.0,10.0
48,1169.0,94.0
52,1157.0,78.0
36.8,420.0,64.0
44,719.0,78.0
42.3,1015.0,138.0
44.7,1473.0,114.0
45,1410.0,242.0
45.2,979.0,123.0
41.8,566.0,134.0
48.2,641.0,79.0
51,1093.0,45.0
56.3,1191.0,22.0
51.7,1337.0,59.0
51.9,1104.0,53.0
52.8,1000.0,34.0
NE,48.0,1.0
0.4,143.0,38.0
0.4,142.0,52.0
0.1,149.0,45.0
NE,123.0,24.0
10,72.0,30.0
4.6,104.0,34.0
SUPP,70.0,21.0
NE,86.0,32.0
SUPP,96.0,22.0
SUPP,90.0,27.0
NE,145.0,35.0
7.8,108.0,33.0
11.9,86.0,42.0
NE,142.0,30.0
54.5,867.0,63.0
44.1,1085.0,118.0
43,704.0,184.0
47.1,497.0,57.0
41.8,1063.0,150.0
47,886.0,160.0
45.1,1322.0,219.0
48.2,792.0,121.0
42.9,971.0,289.0
47.5,725.0,65.0
0.4,128.0,52.0
13,74.0,44.0
NE,125.0,51.0
SUPP,155.0,40.0
2.1,173.0,70.0
0.2,94.0,30.0
SUPP,64.0,14.0
NE,174.0,62.0
41.1,741.0,85.0
43.2,893.0,236.0
73.8,1029.0,17.0
60.9,1261.0,55.0
39.2,575.0,73.0
62.8,890.0,52.0
35.2,1017.0,163.0
65.5,1292.0,29.0
69.7,1208.0,39.0
68.3,1107.0,43.0
76,1223.0,17.0
35.8,839.0,169.0
37.3,719.0,111.0
69.6,1091.0,20.0
36.9,896.0,130.0
37.8,739.0,104.0
35.8,872.0,138.0
41.4,822.0,159.0
39,1437.0,189.0
37.2,966.0,151.0
56.4,797.0,54.0
42.5,1187.0,149.0
9,223.0,44.0
SUPP,38.0,29.0
3.2,71.0,21.0
0.7,102.0,31.0
6,227.0,91.0
1.6,108.0,55.0
NE,237.0,70.0
NE,238.0,71.0
7,150.0,64.0
0.5,372.0,140.0
2.8,113.0,65.0
2.3,144.0,95.0
NE,178.0,42.0
16.2,109.0,32.0
SUPP,166.0,43.0
NE,456.0,116.0
NE,57.0,16.0
7.4,96.0,43.0
NE,268.0,91.0
15.1,63.0,13.0
40,716.0,160.0
45,847.0,131.0
47.9,1235.0,92.0
33.8,588.0,155.0
43.8,839.0,93.0
39.5,315.0,75.0
48.2,1413.0,157.0
41.5,765.0,112.0
44.2,1042.0,137.0
31.5,288.0,101.0
44.9,750.0,99.0
46.7,756.0,138.0
46.4,637.0,105.0
42.7,803.0,143.0
57.8,906.0,49.0
40.7,1240.0,232.0
55.9,775.0,55.0
49.6,1577.0,167.0
38.4,551.0,160.0
34.5,869.0,339.0
42.7,591.0,176.0
37.4,560.0,211.0
52.1,919.0,49.0
54.7,896.0,78.0
40.2,595.0,197.0
35.3,323.0,111.0
38.6,889.0,180.0
44.5,713.0,99.0
40.2,749.0,100.0
49.8,818.0,62.0
48.1,844.0,67.0
37.8,727.0,200.0
48.9,706.0,35.0
48.2,1031.0,118.0
53,878.0,50.0
40.9,477.0,94.0
40.5,818.0,249.0
47.4,799.0,102.0
48.2,368.0,50.0
50.3,1046.0,82.0
54,902.0,31.0
51,868.0,84.0
41.5,758.0,182.0
47.5,844.0,98.0
56.8,766.0,51.0
43.3,642.0,111.0
NE,66.0,25.0
SUPP,33.0,7.0
4,42.0,24.0
NE,80.0,42.0
SUPP,108.0,48.0
11.6,67.0,30.0
1.4,154.0,76.0
0.7,169.0,44.0
NE,100.0,34.0
0.4,107.0,44.0
2.8,143.0,53.0
SUPP,102.0,30.0
NE,118.0,35.0
NE,112.0,45.0
SUPP,64.0,26.0
10.1,62.0,31.0
SUPP,90.0,36.0
5.2,61.0,30.0
42.9,816.0,78.0
45.8,1399.0,176.0
50.4,1247.0,186.0
45,1079.0,206.0
48.3,1504.0,239.0
43.9,1099.0,208.0
44.3,1707.0,203.0
40.1,1131.0,289.0
7.5,223.0,66.0
NE,172.0,59.0
NE,100.0,37.0
13.3,100.0,62.0
63.8,973.0,29.0
40.6,624.0,106.0
62.9,1220.0,43.0
NE,240.0,94.0
NE,136.0,49.0
SUPP,87.0,22.0
39,682.0,90.0
51.1,1065.0,82.0
0.2,179.0,72.0
0.5,142.0,57.0
SUPP,82.0,33.0
NE,110.0,33.0
SUPP,87.0,27.0
SUPP,101.0,32.0
NE,169.0,63.0
SUPP,85.0,25.0
NE,143.0,69.0
38.4,512.0,58.0
52.4,711.0,59.0
47.4,895.0,77.0
45,757.0,78.0
41,506.0,55.0
47.4,499.0,33.0
50.2,876.0,66.0
52.8,1529.0,93.0
30.8,646.0,149.0
35.5,975.0,198.0
44.6,1038.0,111.0
38.7,385.0,35.0
49.3,847.0,74.0
52.4,1501.0,121.0
44.3,593.0,41.0
50.3,296.0,26.0
72.5,929.0,14.0
47.6,794.0,55.0
48.8,491.0,32.0
42.2,367.0,42.0
45.4,1164.0,117.0
48,1266.0,115.0
47.7,604.0,54.0
58.8,519.0,30.0
71.5,818.0,17.0
57.7,1475.0,49.0
44.1,468.0,33.0
51.6,1335.0,69.0
14.1,65.0,24.0
23.4,60.0,11.0
NE,71.0,18.0
SUPP,75.0,44.0
NE,113.0,31.0
SUPP,78.0,24.0
SUPP,58.0,16.0
2.5,218.0,52.0
3.2,50.0,18.0
48.2,1441.0,89.0
50.4,1080.0,68.0
7,62.0,33.0
41,355.0,31.0
48.8,791.0,59.0
51.6,1055.0,52.0
44.3,1441.0,122.0
45.5,734.0,157.0
46.2,527.0,81.0
4,181.0,57.0
NE,89.0,50.0
SUPP,37.0,18.0
1.3,146.0,49.0
SUPP,48.0,12.0
46.6,800.0,95.0
NE,71.0,26.0
SUPP,81.0,32.0
NE,70.0,21.0
NE,124.0,43.0
4,64.0,14.0
NE,81.0,15.0
0.8,134.0,43.0
NE,108.0,44.0
42.5,580.0,57.0
33.3,84.0,27.0
17.9,51.0,1.0
SUPP,120.0,38.0
SUPP,80.0,21.0
NE,110.0,19.0
NE,100.0,30.0
SUPP,75.0,20.0
0,68.0,28.0
6.3,50.0,18.0
52.2,461.0,41.0
44.6,1068.0,77.0
43.8,1233.0,87.0
61.8,1364.0,121.0
13.1,66.0,29.0
0.4,158.0,72.0
NE,214.0,52.0
46.6,1091.0,145.0
38.7,342.0,52.0
40.9,800.0,175.0
40.1,940.0,174.0
45.1,1327.0,141.0
46.6,465.0,41.0
NE,88.0,38.0
5,65.0,31.0
0.5,99.0,33.0
SUPP,77.0,25.0
NE,51.0,21.0
SUPP,55.0,15.0
34,693.0,182.0
43,858.0,104.0
39.9,895.0,106.0
35.4,485.0,63.0
43.5,1010.0,73.0
49,821.0,87.0
44.6,989.0,63.0
49.9,708.0,26.0
54.7,1378.0,50.0
54.5,1115.0,92.0
38,622.0,113.0
42.4,756.0,101.0
37.8,340.0,83.0
41.5,872.0,67.0
7.3,88.0,48.0
NE,279.0,126.0
0.1,201.0,103.0
NE,208.0,85.0
3.5,160.0,71.0
NE,168.0,71.0
4,228.0,62.0
46.8,1674.0,102.0
48.7,1683.0,113.0
47.9,1518.0,133.0
51.6,820.0,46.0
NE,185.0,32.0
SUPP,92.0,26.0
NE,111.0,45.0
SUPP,139.0,44.0
50.1,534.0,75.0
51.1,621.0,44.0
49,983.0,130.0
46.2,1088.0,85.0
59.2,1297.0,47.0
61.9,1198.0,34.0
58.3,1751.0,61.0
51.8,1072.0,44.0
42.8,739.0,71.0
52.1,1168.0,73.0
47.7,1456.0,99.0
57.5,1453.0,31.0
NE,113.0,33.0
NE,58.0,0.0
16.4,151.0,5.0
SUPP,65.0,19.0
30.6,84.0,13.0
17,82.0,18.0
2.2,108.0,39.0
NE,68.0,18.0
SUPP,89.0,18.0
NE,78.0,28.0
SUPP,103.0,26.0
NE,185.0,25.0
2.6,135.0,61.0
1.9,131.0,28.0
48.3,842.0,76.0
45.5,566.0,83.0
42.8,1096.0,210.0
12.3,212.0,38.0
NE,137.0,37.0
54.5,1546.0,64.0
45.2,1112.0,57.0
55.8,1540.0,72.0
49.4,1713.0,95.0
40.6,724.0,54.0
36.8,1003.0,139.0
43.9,1319.0,86.0
46.5,1371.0,149.0
46.4,1014.0,73.0
52.7,1134.0,45.0
48.3,1575.0,69.0
47.4,1617.0,72.0
49.2,2228.0,99.0
56.4,1237.0,75.0
41.3,654.0,61.0
48,959.0,62.0
48.9,677.0,71.0
44.2,1235.0,97.0
56.2,1115.0,31.0
24.3,67.0,26.0
NE,214.0,67.0
2,211.0,63.0
NE,102.0,29.0
2,245.0,85.0
SUPP,122.0,36.0
11.1,58.0,27.0
45.6,754.0,67.0
43.4,550.0,60.0
43.6,851.0,125.0
NE,136.0,40.0
NE,225.0,71.0
11.3,79.0,34.0
SUPP,80.0,23.0
SUPP,95.0,34.0
1.4,124.0,74.0
5.9,118.0,64.0
4.2,84.0,48.0
1.2,66.0,46.0
45.6,771.0,255.0
56.5,304.0,38.0
34.9,612.0,143.0
NE,279.0,122.0
46,1564.0,215.0
53.1,1124.0,166.0
54.6,1216.0,430.0
NE,124.0,49.0
NE,79.0,42.0
NE,111.0,38.0
NE,92.0,40.0
3.7,50.0,28.0
44.5,1057.0,372.0
41.5,1328.0,637.0
0.9,128.0,26.0
NE,177.0,75.0
NE,308.0,112.0
6.3,112.0,70.0
NE,43.0,17.0
NE,93.0,39.0
51.9,1120.0,339.0
8.5,71.0,29.0
39.6,538.0,101.0
53.4,1379.0,137.0
NE,189.0,96.0
SUPP,88.0,23.0
46.3,628.0,182.0
2.6,68.0,46.0
5.6,192.0,67.0
NE,169.0,54.0
40.1,679.0,183.0
0.4,127.0,52.0
6.8,96.0,43.0
NE,320.0,114.0
SUPP,151.0,31.0
6.8,149.0,94.0
38,841.0,130.0
48.2,1079.0,584.0
35.1,524.0,117.0
38.4,647.0,243.0
8.4,48.0,33.0
57,682.0,77.0
53.4,816.0,273.0
NE,281.0,76.0
44.8,805.0,238.0
45.6,1296.0,364.0
42.6,387.0,132.0
37.2,1073.0,211.0
SUPP,152.0,46.0
48.4,986.0,276.0
3.5,59.0,27.0
4.6,47.0,35.0
40.8,1136.0,428.0
38.6,700.0,314.0
49.3,1234.0,245.0
7.8,56.0,26.0
42.3,960.0,267.0
43.5,964.0,91.0
0.3,184.0,98.0
NE,212.0,79.0
NE,167.0,55.0
49.2,1503.0,332.0
NE,212.0,51.0
47.4,1023.0,101.0
NE,166.0,87.0
0.5,198.0,79.0
6.9,74.0,52.0
53.1,1540.0,100.0
42.6,639.0,68.0
51.8,870.0,256.0
51.9,1045.0,208.0
3.9,79.0,52.0
45,1398.0,145.0
NE,164.0,80.0
39.6,1016.0,212.0
44.2,573.0,149.0
37.8,709.0,287.0
54.8,727.0,163.0
NE,75.0,19.0
28.8,935.0,361.0
37,1120.0,189.0
51.8,1800.0,276.0
5.9,62.0,37.0
4.7,204.0,90.0
NE,71.0,43.0
49.3,1527.0,291.0
39.5,317.0,74.0
7.5,64.0,35.0
55.9,314.0,7.0
SUPP,63.0,9.0
45.6,1287.0,200.0
NE,117.0,45.0
62,1994.0,25.0
41.1,773.0,202.0
SUPP,23.0,1.0
SUPP,46.0,8.0
34.9,719.0,364.0
6.3,50.0,4.0
44,798.0,196.0
44.3,1383.0,76.0
4.8,94.0,31.0
NE,98.0,24.0
3.3,75.0,39.0
41,175.0,1.0
44.7,1501.0,389.0
42.7,1225.0,226.0
39.9,1069.0,394.0
41,520.0,160.0
41.2,1127.0,182.0
43.8,705.0,170.0
NE,153.0,53.0
48.1,803.0,127.0
NE,87.0,46.0
36.7,888.0,241.0
53.4,1312.0,354.0
40.5,1649.0,323.0
13.8,96.0,45.0
1.8,67.0,50.0
7.8,155.0,45.0
40.9,935.0,203.0
4.6,151.0,82.0
3.5,276.0,124.0
60.6,1343.0,368.0
0.4,150.0,47.0
0.1,298.0,82.0
51.9,1551.0,395.0
10.3,47.0,27.0
48,1445.0,232.0
45.2,896.0,254.0
NE,225.0,89.0
0.2,212.0,95.0
3.6,225.0,104.0
SUPP,52.0,0.0
NE,53.0,15.0
SUPP,43.0,0.0
41.3,891.0,227.0
0.7,137.0,45.0
16.3,200.0,51.0
NE,180.0,61.0
46,1044.0,165.0
36.4,990.0,152.0
47.4,1280.0,144.0
40.1,864.0,271.0
23.9,48.0,23.0
42,1095.0,244.0
44.8,1272.0,208.0
45.8,1140.0,286.0
43.5,480.0,74.0
40.7,1220.0,186.0
NE,131.0,63.0
0,128.0,41.0
48.1,942.0,86.0
44.4,675.0,85.0
45.3,1317.0,302.0
41.5,652.0,213.0
48.6,1827.0,234.0
55.9,1100.0,150.0
39.5,1316.0,360.0
46,1120.0,253.0
45,1279.0,318.0
61.2,902.0,100.0
0.2,56.0,21.0
37.5,597.0,102.0
8.5,85.0,44.0
1.8,288.0,118.0
41.1,806.0,215.0
NE,126.0,45.0
NE,274.0,92.0
44.8,1278.0,264.0
58.5,893.0,338.0
43.7,2171.0,484.0
42.7,869.0,225.0
43.4,2323.0,341.0
48.5,945.0,210.0
NE,164.0,83.0
35.5,950.0,163.0
38.5,978.0,281.0
47.6,1129.0,165.0
53.3,1408.0,279.0
42.1,1429.0,146.0
44.8,1084.0,294.0
33.9,599.0,177.0
37.7,1076.0,139.0
4.4,109.0,64.0
57.2,1287.0,141.0
43.9,732.0,270.0
39.5,420.0,105.0
42.1,1009.0,360.0
57.8,1308.0,241.0
56.8,1176.0,67.0
44.2,612.0,146.0
45.2,1337.0,247.0
38,1276.0,254.0
5.9,89.0,37.0
NE,168.0,62.0
44.8,1769.0,606.0
44.2,967.0,152.0
36.1,1822.0,501.0
43.8,1287.0,176.0
33.5,563.0,160.0
3,46.0,22.0
35.1,664.0,235.0
31.7,1548.0,666.0
48.5,1094.0,123.0
1.7,72.0,39.0
36.6,885.0,348.0
35.3,870.0,231.0
62.3,1433.0,75.0
39.1,1261.0,309.0
53.5,1129.0,257.0
NE,85.0,32.0
SUPP,58.0,19.0
NE,127.0,41.0
1.2,130.0,37.0
SUPP,124.0,45.0
48.7,1527.0,136.0
36.9,1031.0,329.0
40.7,846.0,152.0
57.7,1806.0,87.0
NE,167.0,62.0
56.4,1069.0,61.0
42.4,1291.0,173.0
56.7,889.0,94.0
42.4,1068.0,234.0
38,1119.0,193.0
45.8,1243.0,496.0
41.1,801.0,348.0
33.6,1095.0,438.0
39.6,1385.0,449.0
39.7,1067.0,229.0
50.7,1561.0,305.0
45.4,1802.0,197.0
39.2,645.0,77.0
36.9,752.0,175.0
38.7,608.0,169.0
38.9,865.0,176.0
40.1,1017.0,130.0
48,1117.0,130.0
50.8,1237.0,149.0
43.1,1170.0,257.0
40.6,608.0,134.0
44.4,678.0,92.0
48.4,1396.0,66.0
43,989.0,98.0
49.3,842.0,162.0
40.1,617.0,214.0
34,642.0,143.0
43.9,852.0,202.0
37.5,1208.0,321.0
36.1,777.0,221.0
45.5,332.0,25.0
43.3,744.0,165.0
31.4,1013.0,239.0
53,1165.0,355.0
48.1,1181.0,88.0
32.7,1405.0,441.0
39.2,738.0,204.0
41.9,974.0,137.0
38.8,1366.0,194.0
61.9,1271.0,45.0
46.8,1056.0,53.0
35.8,808.0,309.0
48.4,569.0,96.0
42.4,1381.0,354.0
44.4,970.0,289.0
0.7,274.0,93.0
38.9,1193.0,395.0
35,859.0,57.0
SUPP,55.0,11.0
SUPP,33.0,4.0
52.4,812.0,193.0
42.5,838.0,223.0
SUPP,123.0,28.0
28,837.0,292.0
9.5,52.0,18.0
47.8,1133.0,412.0
42.8,828.0,167.0
47.2,894.0,220.0
44.4,1842.0,368.0
38.1,991.0,405.0
36.9,844.0,345.0
37.5,1147.0,186.0
47.6,1140.0,110.0
39.7,458.0,213.0
43.5,1428.0,214.0
39,2953.0,919.0
36.5,909.0,238.0
44.3,965.0,150.0
33.3,505.0,94.0
34.8,571.0,203.0
60,849.0,281.0
40.6,1031.0,360.0
42.5,1058.0,97.0
34.2,860.0,348.0
42.2,1247.0,323.0
35.6,776.0,217.0
39,1114.0,127.0
41,863.0,205.0
43.1,727.0,163.0
44.7,1520.0,322.0
33.5,689.0,128.0
42.5,1619.0,204.0
42.5,1142.0,276.0
42.7,868.0,262.0
33.4,1299.0,460.0
43.4,1514.0,565.0
48.2,899.0,211.0
36.4,617.0,165.0
50.2,2052.0,125.0
53.1,1688.0,195.0
41.8,1108.0,241.0
38.4,1329.0,179.0
40.8,664.0,206.0
48.4,1744.0,278.0
43,1107.0,147.0
43.5,1792.0,499.0
46.4,787.0,410.0
47.9,1208.0,246.0
40.6,1059.0,223.0
45.1,1006.0,214.0
44.7,904.0,196.0
39.1,1402.0,214.0
35.4,545.0,82.0
37.9,1213.0,224.0
42.9,889.0,193.0
36.7,1369.0,428.0
43,1266.0,248.0
45.4,1012.0,524.0
43.3,1067.0,184.0
42.4,2147.0,237.0
44.5,1173.0,245.0
42.4,1076.0,225.0
41.9,1775.0,460.0
52.7,1773.0,357.0
41.6,914.0,271.0
43.2,1122.0,434.0
38.3,696.0,201.0
39,1312.0,255.0
35.8,866.0,216.0
NE,252.0,66.0
42.1,1138.0,334.0
32.2,729.0,310.0
43.1,1118.0,155.0
41.3,965.0,186.0
43.5,1355.0,373.0
44.3,828.0,205.0
43,1309.0,107.0
42.1,596.0,148.0
38.6,830.0,193.0
46.7,1040.0,348.0
36.9,800.0,184.0
44,1188.0,238.0
32.7,672.0,222.0
50.5,1087.0,234.0
40.8,664.0,282.0
37.2,1413.0,358.0
43.1,1223.0,311.0
34,405.0,123.0
26.4,707.0,124.0
34.7,624.0,147.0
41.4,937.0,239.0
32.8,841.0,271.0
51.6,846.0,214.0
47.5,1149.0,308.0
30.9,771.0,205.0
52.5,503.0,5.0
39.5,429.0,93.0
39.1,917.0,265.0
43.9,1131.0,449.0
47.9,1075.0,196.0
49.8,866.0,233.0
43.3,851.0,179.0
36.4,700.0,147.0
42.5,1339.0,149.0
40.2,758.0,229.0
39.1,1572.0,386.0
36.5,607.0,140.0
26.5,757.0,230.0
43,443.0,58.0
40.5,1307.0,184.0
36.1,782.0,143.0
44.2,784.0,215.0
40.5,1147.0,148.0
42.4,1216.0,78.0
33.9,472.0,130.0
51.3,872.0,136.0
41.7,633.0,327.0
34,893.0,259.0
NE,143.0,70.0
48.1,1209.0,184.0
50.8,1613.0,79.0
58.7,1261.0,191.0
50.5,1991.0,132.0
53,958.0,49.0
77.3,1200.0,28.0
54,997.0,96.0
66.3,1369.0,35.0
53.2,939.0,56.0
54.9,1526.0,82.0
52.3,1388.0,96.0
36.2,535.0,108.0
33.4,990.0,109.0
72.9,1478.0,86.0
42.4,1623.0,185.0
57.3,1032.0,55.0
71,1285.0,32.0
84.6,1245.0,21.0
50.7,1629.0,133.0
56.7,1376.0,74.0
47,1502.0,106.0
45.7,1276.0,149.0
50.6,1492.0,77.0
70,1083.0,39.0
60.5,1244.0,127.0
58.4,1630.0,60.0
42.9,1433.0,254.0
37.5,1710.0,257.0
39.7,525.0,87.0
62.6,826.0,37.0
75,1053.0,23.0
49.6,1357.0,75.0
61.5,1570.0,78.0
54.9,2026.0,192.0
60.9,1558.0,49.0
50.3,514.0,61.0
69,1241.0,38.0
64.9,573.0,33.0
39.6,1414.0,199.0
51.5,1123.0,199.0
69.8,1074.0,37.0
43.7,1287.0,100.0
57.6,1583.0,66.0
37.8,1337.0,134.0
48.7,1429.0,210.0
55.8,1549.0,78.0
46.5,1744.0,176.0
58.6,1703.0,89.0
68.8,1495.0,49.0
51.6,1704.0,148.0
51.1,2448.0,156.0
65.2,791.0,44.0
57.4,1454.0,97.0
51.5,1530.0,223.0
37.3,592.0,114.0
51.8,1888.0,128.0
45.6,1291.0,261.0
37.1,489.0,67.0
72.9,680.0,22.0
53.2,1787.0,172.0
81.4,1102.0,13.0
50.8,1675.0,82.0
57.1,1202.0,35.0
45.8,1144.0,85.0
74.3,1471.0,32.0
54.2,1726.0,94.0
50.3,1532.0,187.0
81.7,911.0,23.0
52.8,1376.0,92.0
70.5,1214.0,26.0
70.5,1352.0,30.0
54.6,1394.0,84.0
43.9,625.0,60.0
73.1,1493.0,44.0
75.2,917.0,28.0
62.9,1451.0,86.0
42.3,1421.0,200.0
52.5,1217.0,103.0
42.1,1192.0,198.0
68,1030.0,40.0
55.3,740.0,57.0
74.9,1306.0,24.0
76.3,1067.0,10.0
54.1,1542.0,175.0
47.3,681.0,159.0
58.6,1287.0,88.0
63,1177.0,46.0
48.7,1446.0,89.0
37.7,1433.0,377.0
38.2,886.0,258.0
45.1,1956.0,322.0
48.6,446.0,25.0
43.8,1428.0,420.0
23.1,347.0,129.0
38.1,606.0,288.0
80.1,967.0,16.0
43.8,2167.0,228.0
52.9,1450.0,97.0
57.2,675.0,37.0
76.3,1182.0,10.0
52.8,1337.0,212.0
75.2,1352.0,12.0
71.9,1034.0,35.0
41.6,1134.0,214.0
NE,181.0,88.0
43.6,1499.0,304.0
40.7,834.0,158.0
53.2,873.0,39.0
73.1,1258.0,30.0
72.6,1186.0,38.0
84.7,739.0,14.0
83.9,1027.0,12.0
42.2,1004.0,533.0
53.1,1208.0,248.0
40.7,787.0,196.0
51.9,2044.0,170.0
72.5,1552.0,34.0
44,1623.0,141.0
78,1285.0,22.0
48.7,1511.0,114.0
60.7,1167.0,22.0
48.4,1705.0,136.0
60.8,1795.0,61.0
41.5,1656.0,150.0
39.2,1561.0,189.0
45.5,1223.0,118.0
48.8,1065.0,138.0
53.2,1697.0,98.0
49.6,1293.0,71.0
51.3,1983.0,73.0
27.8,694.0,40.0
61.1,1382.0,35.0
30.4,374.0,95.0
33.7,251.0,58.0
55.2,1302.0,35.0
65.2,839.0,7.0
48.8,1214.0,119.0
75.2,1368.0,24.0
51,1388.0,45.0
51.8,1370.0,61.0
76,1270.0,33.0
44.2,958.0,150.0
48,943.0,68.0
43.3,1027.0,109.0
68.8,1234.0,49.0
55.2,1961.0,67.0
72,1302.0,27.0
75.4,956.0,16.0
63.3,1027.0,39.0
35.1,724.0,303.0
59.5,1489.0,45.0
73,953.0,36.0
45.5,1710.0,162.0
78.3,576.0,9.0
52.1,1569.0,82.0
48.1,1854.0,115.0
55.1,1314.0,63.0
73.5,1138.0,22.0
54.3,1432.0,239.0
47.4,1532.0,242.0
48.7,687.0,80.0
48.6,1079.0,55.0
50.6,931.0,86.0
44.7,1062.0,115.0
50.4,989.0,72.0
62.6,1562.0,80.0
46.4,1658.0,146.0
56.3,1726.0,67.0
36.5,871.0,207.0
44.5,1036.0,118.0
44.6,1677.0,175.0
49.4,1024.0,102.0
54.6,1072.0,62.0
45.4,1282.0,126.0
47.4,1130.0,77.0
80.2,1080.0,17.0
72,1451.0,32.0
46.6,1027.0,109.0
40.8,844.0,88.0
49,1224.0,66.0
46.5,1024.0,108.0
47,1644.0,55.0
46.6,917.0,103.0
46.1,1515.0,116.0
44.5,1184.0,112.0
61.5,959.0,40.0
20.5,660.0,276.0
50.4,639.0,52.0
53,1407.0,102.0
46.9,942.0,28.0
42.2,1273.0,155.0
39.4,717.0,149.0
48.6,2135.0,92.0
69.3,1003.0,26.0
48.1,1579.0,104.0
55.4,1316.0,69.0
45.1,1620.0,85.0
72.2,1474.0,44.0
36.3,1083.0,166.0
39.3,762.0,110.0
63.5,1251.0,91.0
48.9,1716.0,49.0
51.9,1834.0,152.0
74.1,845.0,28.0
45.9,904.0,291.0
56.5,994.0,101.0
53.2,924.0,148.0
53.2,965.0,125.0
59.2,852.0,52.0
72.6,870.0,32.0
60.5,1465.0,37.0
54.2,1634.0,61.0
45.7,1390.0,115.0
42.3,1284.0,60.0
58.6,1299.0,34.0
46.3,1318.0,94.0
50.5,1341.0,108.0
63,1478.0,67.0
52.1,1389.0,115.0
49.6,1101.0,101.0
41.9,2236.0,199.0
38.3,966.0,263.0
39.9,691.0,137.0
85.1,1161.0,25.0
45.2,1482.0,239.0
55,1547.0,144.0
48.3,1699.0,280.0
45.2,1448.0,226.0
82.9,1224.0,28.0
73.3,1222.0,23.0
44.2,1334.0,90.0
51.4,699.0,95.0
55.7,1201.0,56.0
38.3,1306.0,329.0
53.8,1654.0,133.0
62.2,1643.0,33.0
50.1,911.0,38.0
56.5,1179.0,316.0
49.2,1724.0,109.0
48.4,1374.0,225.0
50.1,1321.0,152.0
59.3,741.0,71.0
57.7,1824.0,88.0
44.2,868.0,86.0
45.3,910.0,73.0
52.6,1412.0,103.0
82,1101.0,6.0
54.8,1854.0,66.0
53.4,1716.0,70.0
57.1,1347.0,72.0
45.1,1354.0,106.0
46.9,1786.0,147.0
50.1,1749.0,165.0
43.9,536.0,125.0
46.5,1016.0,182.0
42.4,1077.0,129.0
52.9,1927.0,114.0
50.4,1189.0,99.0
57.4,1609.0,134.0
50,1536.0,75.0
51.1,1405.0,126.0
66.5,1359.0,48.0
49.7,822.0,71.0
71.2,891.0,22.0
75.9,896.0,13.0
54.5,2156.0,68.0
40.4,1034.0,255.0
56.1,2343.0,354.0
50.1,943.0,46.0
53.4,997.0,76.0
53,1090.0,43.0
45.4,1522.0,220.0
49,706.0,132.0
51.1,1167.0,108.0
39.4,1000.0,215.0
41.5,1145.0,322.0
45.7,1106.0,151.0
46,810.0,193.0
56,1584.0,110.0
51.5,1428.0,211.0
61.1,1477.0,37.0
39.8,1090.0,143.0
51.9,1137.0,91.0
48.3,1694.0,161.0
52.3,971.0,60.0
37.2,1448.0,242.0
50.6,1755.0,74.0
76.3,1304.0,29.0
52.4,1030.0,91.0
44.8,1687.0,113.0
61.7,1075.0,32.0
43.7,783.0,103.0
43.1,967.0,67.0
50.3,1689.0,139.0
53.6,1733.0,114.0
64,883.0,10.0
48.5,1082.0,52.0
54.1,1093.0,75.0
48,1745.0,130.0
71.4,1080.0,27.0
41.2,868.0,246.0
61.3,853.0,143.0
40.2,1152.0,185.0
47.4,1217.0,180.0
47.1,570.0,41.0
44.3,1234.0,81.0
48.2,1420.0,130.0
44.3,492.0,50.0
66.2,833.0,32.0
44.4,1230.0,212.0
44.4,855.0,279.0
70.5,1081.0,28.0
48.1,1450.0,122.0
76.4,1088.0,56.0
56.8,1056.0,71.0
58.9,2102.0,63.0
71.3,736.0,47.0
75.8,1163.0,49.0
48.4,1121.0,207.0
60.5,919.0,45.0
74.3,1069.0,10.0
53.3,1123.0,63.0
53,1076.0,48.0
52.9,2001.0,150.0
48.5,718.0,59.0
81.2,949.0,19.0
68.3,1193.0,27.0
79.4,1482.0,64.0
47.8,709.0,92.0
80.7,1367.0,35.0
46.7,1336.0,161.0
77.4,1097.0,27.0
43.5,1339.0,211.0
50,1802.0,291.0
61.7,500.0,71.0
46.4,909.0,45.0
52.6,990.0,120.0
42.7,948.0,230.0
34,863.0,333.0
50.5,1775.0,134.0
49.8,1720.0,93.0
42.5,727.0,143.0
54.2,1572.0,64.0
51.1,1917.0,138.0
52.1,1218.0,129.0
43.7,570.0,42.0
37.4,886.0,233.0
46.2,2065.0,240.0
48.3,1491.0,107.0
72,1293.0,30.0
75,1303.0,23.0
45.5,1269.0,97.0
42.1,305.0,28.0
72,1189.0,31.0
46.4,953.0,113.0
52.2,1145.0,112.0
39.9,1492.0,159.0
53,1895.0,79.0
40.4,967.0,152.0
47,935.0,52.0
47.8,1649.0,89.0
54.8,1530.0,99.0
65.7,1391.0,53.0
43.9,1170.0,177.0
36.4,1583.0,189.0
37.9,1042.0,100.0
48.2,969.0,108.0
75.7,992.0,22.0
49,1794.0,85.0
36.4,1044.0,196.0
59,1675.0,90.0
56.5,1967.0,96.0
60.7,1255.0,39.0
46.6,955.0,341.0
50.4,1078.0,134.0
73.9,1307.0,24.0
46.1,1587.0,142.0
56.6,1038.0,37.0
62.2,977.0,94.0
49.1,1382.0,137.0
60.1,1494.0,59.0
58.4,1126.0,31.0
47.3,952.0,66.0
34.8,795.0,298.0
50.8,1449.0,117.0
50.1,744.0,35.0
53.4,1218.0,40.0
65.4,1452.0,44.0
53.1,1432.0,135.0
61,1455.0,37.0
52.6,1288.0,49.0
56.2,1372.0,67.0
48.4,1461.0,130.0
59.8,1746.0,52.0
54.4,1973.0,64.0
50.9,1598.0,98.0
49.9,1471.0,148.0
50.3,1213.0,81.0
77.7,1262.0,35.0
51.9,1795.0,102.0
44,739.0,77.0
46.5,1026.0,113.0
56,1571.0,163.0
53,1188.0,84.0
46.5,1063.0,104.0
44,723.0,61.0
48.6,909.0,139.0
60.2,984.0,15.0
34.8,706.0,117.0
48.2,999.0,99.0
49.2,1079.0,66.0
45.3,1248.0,151.0
54.4,1044.0,49.0
38.4,1339.0,202.0
42.8,363.0,65.0
41.7,462.0,63.0
52.5,1319.0,75.0
53.9,809.0,143.0
51.7,1519.0,88.0
47.7,1328.0,76.0
46,924.0,87.0
57.7,1299.0,71.0
38.3,598.0,161.0
47.5,1840.0,92.0
48.9,1472.0,173.0
52.1,1312.0,96.0
57.6,1297.0,35.0
50.5,854.0,72.0
51.9,1054.0,81.0
49,1372.0,254.0
45.4,1458.0,136.0
45.3,1277.0,134.0
43.4,1505.0,159.0
45.8,449.0,62.0
48.8,1201.0,113.0
41,763.0,176.0
48.2,1032.0,55.0
48.9,607.0,45.0
48.8,1823.0,146.0
49.7,1479.0,118.0
55.1,811.0,58.0
71.2,1142.0,31.0
48.8,568.0,31.0
47.5,878.0,94.0
48.8,1519.0,86.0
47.1,1004.0,105.0
53.3,948.0,35.0
50.8,1405.0,83.0
45.3,623.0,139.0
61.9,2070.0,157.0
59.9,1481.0,70.0
48.9,1017.0,135.0
45,1136.0,128.0
47.2,1020.0,228.0
41.9,1501.0,243.0
43.8,1468.0,92.0
52.8,879.0,53.0
43.4,837.0,101.0
54.8,604.0,43.0
57.2,1934.0,157.0
54.9,1472.0,45.0
41.8,1315.0,453.0
41,1393.0,175.0
49.7,815.0,100.0
54.4,1097.0,48.0
43.9,1064.0,305.0
54.1,1113.0,25.0
71.1,915.0,119.0
79.9,1066.0,98.0
82.8,891.0,71.0
76.9,1298.0,114.0
75,1086.0,93.0
48.7,1561.0,55.0
43.3,974.0,111.0
51.9,1349.0,153.0
53.8,2179.0,129.0
52.8,1380.0,95.0
48.4,1404.0,142.0
53.4,1405.0,73.0
45.1,983.0,93.0
50.3,666.0,48.0
52.1,1293.0,105.0
42.4,737.0,108.0
44.2,563.0,107.0
34.8,900.0,333.0
43.4,667.0,190.0
37.6,741.0,140.0
42,433.0,44.0
51.2,1513.0,172.0
49.9,795.0,90.0
37.3,364.0,47.0
42.7,848.0,132.0
45.3,612.0,64.0
40.2,1194.0,126.0
52.4,1594.0,176.0
47,994.0,173.0
60.6,1488.0,40.0
49.7,1221.0,91.0
53.9,1145.0,192.0
50.7,2005.0,52.0
48,1103.0,89.0
73.6,1277.0,4.0
49.1,963.0,75.0
51.2,1656.0,261.0
51.4,1091.0,122.0
39.7,365.0,51.0
52.8,982.0,28.0
67.4,1202.0,32.0
45.7,1121.0,136.0
53.3,1068.0,53.0
47.1,1218.0,82.0
40,923.0,128.0
42.3,401.0,25.0
40.7,720.0,212.0
43.9,1273.0,154.0
48.6,571.0,44.0
56.1,628.0,68.0
54.2,806.0,35.0
49.3,1199.0,98.0
42.8,892.0,147.0
41.6,1468.0,205.0
55.3,811.0,65.0
48.7,1152.0,159.0
69.3,968.0,17.0
46,1129.0,136.0
50.6,1019.0,78.0
52.7,1151.0,54.0
53.2,1247.0,111.0
46.4,780.0,183.0
60.6,1046.0,163.0
54,1683.0,87.0
41.9,633.0,208.0
43.3,1174.0,81.0
37.7,1539.0,233.0
57.6,1974.0,49.0
47.8,1697.0,83.0
44.2,834.0,207.0
39.1,701.0,78.0
48.2,1086.0,89.0
37.3,1115.0,205.0
51.3,1269.0,54.0
65.1,1324.0,71.0
42.4,868.0,151.0
45.1,1256.0,153.0
52.2,1542.0,107.0
51,886.0,44.0
44.3,1111.0,154.0
52,2084.0,201.0
36.2,597.0,103.0
64.9,1169.0,39.0
40.4,904.0,127.0
50.6,930.0,71.0
52,962.0,58.0
71.5,1189.0,40.0
54.7,536.0,58.0
44.3,989.0,118.0
42,866.0,123.0
57.5,1205.0,193.0
50.3,1133.0,366.0
45.2,753.0,177.0
41.8,711.0,131.0
42.1,1789.0,217.0
46.3,1386.0,134.0
39.3,506.0,58.0
37.8,793.0,137.0
32.1,599.0,161.0
48,964.0,79.0
42,1149.0,160.0
43.2,1250.0,140.0
51.4,860.0,53.0
45.3,328.0,49.0
45.9,826.0,122.0
46.5,1197.0,225.0
48.4,1024.0,61.0
41.5,1248.0,206.0
43.6,561.0,55.0
40.4,1147.0,153.0
58.4,779.0,29.0
47.9,1262.0,88.0
45.7,1481.0,94.0
48,871.0,58.0
45.8,929.0,64.0
78.7,1224.0,17.0
53.8,1499.0,283.0
48.3,921.0,102.0
41.5,589.0,79.0
41,574.0,152.0
66,963.0,32.0
42.2,738.0,67.0
51,1243.0,87.0
49.1,1542.0,126.0
46.5,1183.0,175.0
57.1,798.0,21.0
78.5,819.0,10.0
46.9,1425.0,160.0
56,1022.0,42.0
52.2,1178.0,94.0
45.9,1241.0,68.0
45.6,1160.0,74.0
71.2,1181.0,26.0
41.6,1031.0,189.0
65.4,913.0,24.0
44.1,387.0,19.0
46.4,1428.0,76.0
44.8,983.0,84.0
44.6,1001.0,95.0
55.6,894.0,103.0
48.5,1196.0,80.0
46.1,1022.0,33.0
45.5,1018.0,240.0
49.8,1808.0,154.0
47.9,1208.0,119.0
58.5,985.0,29.0
41.8,197.0,15.0
61,1277.0,56.0
53.8,1587.0,187.0
38.5,1125.0,515.0
56,827.0,177.0
48,910.0,86.0
44.4,1299.0,148.0
51.6,985.0,95.0
50,1514.0,144.0
SUPP,85.0,21.0
43,1142.0,207.0
59.2,1151.0,36.0
78.6,1351.0,14.0
48.6,1343.0,64.0
58.7,936.0,30.0
48,711.0,63.0
45.7,1221.0,154.0
57.9,1028.0,51.0
44,1330.0,127.0
78.7,745.0,6.0
45.3,1747.0,120.0
47.2,1617.0,282.0
52.4,1359.0,47.0
59.7,783.0,25.0
53.3,1030.0,67.0
56.2,852.0,40.0
51.6,604.0,35.0
46.7,543.0,47.0
42.4,710.0,113.0
19.4,86.0,25.0
51.1,1554.0,111.0
40.9,1140.0,156.0
52.3,711.0,27.0
57,319.0,13.0
62.4,1251.0,56.0
54.2,686.0,59.0
50,813.0,41.0
52.7,881.0,56.0
74.9,1286.0,21.0
53.5,1352.0,66.0
50.8,531.0,137.0
51.6,1831.0,128.0
54,588.0,46.0
52.4,1282.0,110.0
62.2,1120.0,111.0
4.8,220.0,58.0
56.8,971.0,29.0
43.3,737.0,85.0
53.2,1242.0,51.0
52.2,1553.0,192.0
41.9,803.0,376.0
1.3,220.0,97.0
52.8,599.0,117.0
45.7,1060.0,47.0
45.4,1670.0,125.0
55.8,974.0,32.0
44.9,1124.0,139.0
48.5,968.0,110.0
54.8,934.0,164.0
44.9,1095.0,71.0
51.5,1856.0,184.0
44.4,841.0,132.0
61.9,1681.0,150.0
47.8,855.0,91.0
51.7,768.0,126.0
60,733.0,39.0
40.4,604.0,184.0
NE,128.0,51.0
48.7,799.0,77.0
52.9,802.0,85.0
53.9,1235.0,56.0
56.9,1115.0,71.0
49.2,682.0,89.0
47.7,1010.0,106.0
54.2,1490.0,71.0
59.2,774.0,113.0
52.5,1302.0,70.0
72.1,1409.0,36.0
51.4,1229.0,297.0
51.1,641.0,40.0
45,587.0,68.0
0.7,187.0,53.0
52.7,879.0,74.0
1.2,153.0,55.0
52.5,1147.0,57.0
46,1491.0,204.0
58.7,1185.0,329.0
48.9,1538.0,263.0
42.7,1116.0,188.0
71.8,918.0,14.0
41.1,1220.0,231.0
47.8,1301.0,182.0
52,1299.0,64.0
71.9,1036.0,29.0
49,752.0,79.0
46.5,1293.0,160.0
51.5,2009.0,230.0
39,1383.0,185.0
1,141.0,60.0
53.9,1555.0,82.0
49.1,1105.0,46.0
45.8,519.0,116.0
55.8,1811.0,64.0
NE,165.0,55.0
44,1014.0,233.0
62.9,968.0,54.0
50.8,1889.0,138.0
66.9,1064.0,40.0
2.2,151.0,46.0
37.8,2025.0,238.0
47.3,892.0,162.0
49.6,1278.0,75.0
8.1,217.0,56.0
49.6,213.0,23.0
40.7,978.0,342.0
4.5,80.0,52.0
48.2,1163.0,211.0
82.2,982.0,15.0
41.8,871.0,148.0
46.7,1709.0,195.0
48.1,885.0,66.0
53.9,1287.0,71.0
44.7,596.0,61.0
58.8,1683.0,240.0
53.3,1419.0,117.0
46.8,1398.0,114.0
50.7,911.0,67.0
50,1158.0,63.0
61.8,1163.0,34.0
49.5,848.0,59.0
45.3,1045.0,179.0
64,1475.0,80.0
43.4,800.0,87.0
47.8,1221.0,155.0
55.4,1297.0,75.0
37.2,1080.0,143.0
49.8,927.0,52.0
NE,227.0,54.0
47.1,1489.0,185.0
71.5,1080.0,21.0
45.8,1342.0,133.0
52,1285.0,252.0
42.8,763.0,470.0
43.8,625.0,105.0
37.1,379.0,72.0
2.2,68.0,37.0
45.6,943.0,93.0
38.9,484.0,72.0
34.6,450.0,76.0
48.1,1374.0,87.0
53.3,991.0,95.0
7,225.0,61.0
49,1331.0,170.0
43.2,294.0,21.0
43.9,1077.0,103.0
52.5,1115.0,66.0
46.7,914.0,56.0
46.7,1335.0,114.0
49.7,1174.0,107.0
41.8,904.0,174.0
52.7,712.0,71.0
56,1259.0,76.0
52.9,1247.0,110.0
57.5,1091.0,61.0
46.1,1275.0,126.0
37.2,864.0,143.0
47.2,1071.0,74.0
49.5,1297.0,154.0
49.3,1354.0,96.0
56.9,1170.0,51.0
46.5,1345.0,80.0
43.2,1408.0,250.0
43.9,1568.0,140.0
47.3,1239.0,236.0
45.1,779.0,79.0
42.5,335.0,21.0
64,733.0,19.0
42.4,1497.0,345.0
40.7,437.0,97.0
32.8,465.0,196.0
49.5,1060.0,115.0
47.3,1430.0,265.0
56,1036.0,72.0
43,744.0,144.0
46.8,2022.0,271.0
33.5,1355.0,372.0
44.8,576.0,123.0
44.3,1163.0,166.0
46.7,1057.0,56.0
51,1115.0,153.0
42.6,1495.0,358.0
50.2,1382.0,171.0
48.3,315.0,35.0
54.7,1565.0,105.0
41.9,1106.0,230.0
33.6,797.0,265.0
45.7,1450.0,146.0
52.7,1410.0,265.0
74,975.0,37.0
53.8,1458.0,57.0
52.8,1679.0,271.0
53,1193.0,244.0
42.6,1703.0,279.0
47.6,1604.0,171.0
42.7,1303.0,93.0
62.6,1452.0,39.0
65.6,840.0,17.0
50.5,1308.0,79.0
53.2,874.0,74.0
47.2,1051.0,222.0
54.5,1438.0,77.0
46.9,1337.0,109.0
54.1,1207.0,62.0
51.6,1158.0,217.0
38.9,1084.0,125.0
58.2,866.0,64.0
45.1,531.0,57.0
46.4,1491.0,198.0
45.1,750.0,151.0
54.8,1413.0,80.0
50.5,605.0,55.0
73.2,1587.0,58.0
48.7,972.0,104.0
48.5,771.0,113.0
43.2,1059.0,243.0
49.4,900.0,116.0
53.9,1399.0,107.0
44.2,1146.0,69.0
43.1,967.0,140.0
44.4,1516.0,154.0
46.7,623.0,94.0
46.1,927.0,445.0
44.8,1679.0,235.0
47.2,2152.0,176.0
38.4,748.0,137.0
69.3,1576.0,34.0
47,1511.0,329.0
43.9,786.0,79.0
55.5,840.0,32.0
45.8,1384.0,225.0
46.6,1197.0,118.0
79.7,955.0,15.0
47.4,1570.0,293.0
57.6,1308.0,111.0
51.1,905.0,67.0
46.5,719.0,54.0
52.9,798.0,97.0
44.1,1361.0,371.0
36.5,610.0,100.0
40.8,1180.0,100.0
65.8,1130.0,37.0
64,1144.0,49.0
NE,97.0,22.0
46.2,480.0,65.0
42.3,849.0,151.0
46.4,1963.0,275.0
58,1663.0,109.0
48.7,1441.0,250.0
46.6,1082.0,115.0
57.7,1343.0,123.0
48.2,956.0,73.0
53.1,1508.0,118.0
53.2,1445.0,205.0
61.2,1343.0,53.0
41.2,1106.0,174.0
47.3,898.0,198.0
48.8,827.0,79.0
29.3,225.0,42.0
38,1206.0,254.0
49.1,1347.0,203.0
49.7,1223.0,86.0
42,1449.0,130.0
48.8,1472.0,111.0
44.9,1285.0,72.0
49.6,1036.0,52.0
40.7,1335.0,187.0
NE,333.0,76.0
49.8,1231.0,60.0
41.9,975.0,77.0
54.7,1536.0,54.0
NE,134.0,37.0
43.8,1119.0,346.0
47.9,1194.0,93.0
52.2,1150.0,214.0
47.3,299.0,25.0
46.4,1179.0,175.0
45.6,824.0,203.0
NE,220.0,62.0
47.5,1236.0,75.0
47.3,1288.0,265.0
51.4,654.0,83.0
48,1346.0,105.0
54.1,1228.0,101.0
55.5,1497.0,87.0
55.4,1225.0,34.0
3.2,119.0,58.0
78.4,1107.0,60.0
43.5,802.0,82.0
53.2,1279.0,59.0
55,857.0,36.0
49.4,1076.0,76.0
47.3,1414.0,173.0
60.1,852.0,45.0
50.3,1338.0,153.0
50.7,1534.0,126.0
49.5,1267.0,92.0
59.8,1075.0,107.0
64.2,972.0,45.0
39.1,833.0,129.0
2.8,149.0,31.0
65.1,1046.0,87.0
48.4,964.0,57.0
41.5,781.0,119.0
55.4,653.0,44.0
49.4,1056.0,157.0
49,1158.0,56.0
44.4,1444.0,198.0
42.6,946.0,118.0
47.5,837.0,72.0
48.2,1669.0,69.0
36.5,533.0,77.0
40.7,763.0,363.0
46.2,1398.0,77.0
43.4,489.0,127.0
46.3,911.0,75.0
47.2,1504.0,94.0
58.6,2001.0,134.0
41.1,1193.0,264.0
47.3,1502.0,197.0
44.7,1198.0,61.0
54.6,594.0,19.0
45.9,2500.0,360.0
54,1297.0,73.0
40.9,788.0,64.0
36.5,1319.0,159.0
60,1121.0,36.0
76.4,1164.0,49.0
52,1232.0,68.0
47,949.0,139.0
61.5,1213.0,67.0
5.5,146.0,82.0
56.1,1006.0,63.0
50.5,602.0,140.0
46.8,1081.0,88.0
45.8,685.0,77.0
63.7,1150.0,41.0
42.9,1067.0,154.0
46.8,1620.0,165.0
47.2,1085.0,114.0
41.7,890.0,99.0
45.7,1053.0,126.0
43,766.0,108.0
47.1,1536.0,186.0
46.5,715.0,36.0
42.2,1228.0,124.0
2.7,232.0,80.0
40.6,942.0,98.0
85.2,783.0,9.0
45.1,1025.0,121.0
52.2,1308.0,173.0
49.2,892.0,49.0
44.1,697.0,204.0
56.1,1674.0,171.0
39.1,927.0,159.0
47.5,733.0,130.0
40.8,875.0,110.0
46,825.0,85.0
54.4,614.0,108.0
44,1622.0,248.0
44.3,1187.0,258.0
43.6,815.0,227.0
5.6,266.0,129.0
0.3,158.0,53.0
39.3,824.0,271.0
51.4,980.0,260.0
10.9,86.0,30.0
43.8,1281.0,297.0
59.4,942.0,33.0
44.8,823.0,183.0
56.4,817.0,33.0
47.8,1043.0,120.0
47.6,917.0,130.0
45.3,744.0,148.0
40.5,1769.0,705.0
NE,243.0,59.0
46.2,1419.0,117.0
40.7,402.0,162.0
3.9,238.0,98.0
69.1,1013.0,18.0
53.1,1240.0,69.0
54.2,1755.0,107.0
41.5,751.0,204.0
47.7,1010.0,95.0
49.8,1289.0,60.0
53.9,719.0,64.0
NE,291.0,83.0
NE,79.0,35.0
40.5,611.0,117.0
33.3,837.0,193.0
28.3,522.0,84.0
51.2,1385.0,123.0
44.5,1361.0,96.0
44.8,1164.0,127.0
53.3,1903.0,204.0
51,699.0,53.0
43.9,887.0,206.0
50.8,1276.0,85.0
48.5,1231.0,168.0
38.5,599.0,108.0
52.1,820.0,57.0
44,1367.0,163.0
44.4,1211.0,214.0
45.3,492.0,74.0
31.8,514.0,143.0
47.8,228.0,69.0
39.4,1013.0,198.0
45.7,1131.0,56.0
48.9,1641.0,129.0
54.6,843.0,39.0
36.5,737.0,178.0
NE,148.0,39.0
55.7,594.0,55.0
47.3,1007.0,161.0
36,608.0,110.0
50.8,539.0,46.0
59.2,949.0,32.0
48.8,502.0,55.0
32.8,115.0,23.0
36.8,398.0,99.0
37,920.0,144.0
32,248.0,43.0
56.3,943.0,46.0
50.7,551.0,87.0
38,1128.0,416.0
52.4,1633.0,179.0
49.9,1417.0,226.0
42.6,496.0,50.0
59.4,575.0,86.0
9.8,81.0,27.0
52.5,564.0,58.0
32.2,277.0,128.0
54,867.0,264.0
52,710.0,93.0
0.6,862.0,16.0
1.8,118.0,42.0
39.4,474.0,65.0
39.2,296.0,82.0
8.3,236.0,96.0
60.8,1322.0,47.0
48.1,1109.0,62.0
50.8,1382.0,57.0
54.6,694.0,33.0
48.1,1279.0,77.0
40.4,993.0,147.0
48.4,797.0,125.0
64,1075.0,109.0
45.3,492.0,80.0
45.1,1728.0,181.0
55,1300.0,127.0
41.8,570.0,101.0
46.5,692.0,86.0
48,1567.0,194.0
50,1412.0,162.0
52.2,1143.0,111.0
43.2,485.0,46.0
44.2,154.0,19.0
51.9,1525.0,55.0
38.7,1109.0,146.0
66.4,1375.0,24.0
41.7,1203.0,155.0
56.7,1461.0,85.0
38.3,502.0,89.0
31.3,71.0,14.0
48,1373.0,247.0
36.9,828.0,177.0
37.6,878.0,365.0
37.9,1321.0,364.0
1.8,67.0,15.0
41.5,459.0,24.0
46.2,798.0,160.0
29.7,831.0,316.0
31.2,719.0,334.0
37.2,609.0,85.0
SUPP,3.0,1.0
14.8,64.0,26.0
38.5,593.0,126.0
36,615.0,128.0
33.5,619.0,186.0
40.4,838.0,266.0
55,1144.0,349.0
NE,263.0,87.0
66.8,1372.0,133.0
54,363.0,44.0
60.4,969.0,67.0
57.2,1222.0,105.0
64.2,1396.0,77.0
41.8,1123.0,149.0
73.3,1046.0,15.0
42.9,926.0,75.0
54.6,1286.0,98.0
50.6,1555.0,150.0
42.7,1275.0,149.0
50.3,1297.0,87.0
44.9,1178.0,139.0
51.9,1214.0,150.0
53.7,1193.0,206.0
62.4,981.0,51.0
32,434.0,150.0
56.3,1680.0,92.0
57.7,1172.0,47.0
39.5,385.0,56.0
SUPP,44.0,5.0
54.4,1422.0,72.0
52.5,1006.0,37.0
51.3,820.0,258.0
39.3,324.0,70.0
44,844.0,129.0
43.4,735.0,103.0
38,689.0,114.0
32.3,978.0,256.0
54.6,1554.0,238.0
46.5,1252.0,84.0
52.9,1241.0,136.0
44.8,956.0,98.0
NE,167.0,78.0
42.5,880.0,32.0
39.5,1425.0,128.0
6.9,151.0,63.0
NE,165.0,68.0
46.6,685.0,115.0
47.2,1798.0,292.0
NE,202.0,85.0
39.8,1163.0,274.0
57.9,684.0,38.0
52.8,541.0,83.0
33,313.0,64.0
39.3,1046.0,101.0
48.3,1201.0,119.0
38.8,437.0,74.0
56.1,661.0,97.0
38.6,369.0,78.0
35.1,880.0,247.0
64.5,758.0,67.0
49.8,1290.0,183.0
44.3,1543.0,164.0
45.8,947.0,145.0
35.6,829.0,231.0
36.1,983.0,188.0
47.5,1333.0,215.0
56.6,1662.0,76.0
50.8,811.0,38.0
46.2,645.0,93.0
47.2,992.0,133.0
52.7,1329.0,94.0
5.2,110.0,59.0
69.7,1212.0,24.0
50.8,1291.0,94.0
38.1,994.0,193.0
50.3,1088.0,136.0
47.7,723.0,78.0
59.8,1282.0,89.0
4.3,180.0,61.0
0.5,112.0,47.0
52.4,778.0,76.0
46.6,719.0,53.0
66.4,805.0,27.0
49.5,2129.0,98.0
43.6,741.0,223.0
44.2,1254.0,309.0
52.6,886.0,162.0
33.3,908.0,151.0
49.2,1433.0,173.0
43.8,933.0,293.0
45.5,993.0,210.0
0.8,383.0,157.0
55.8,334.0,9.0
48.7,859.0,134.0
49,901.0,117.0
42.5,1032.0,140.0
34.4,757.0,334.0
SUPP,87.0,26.0
49.9,734.0,134.0
0.3,202.0,112.0
48.3,936.0,63.0
44,1003.0,76.0
57.1,1322.0,42.0
57,1848.0,92.0
53.5,858.0,36.0
SUPP,63.0,18.0
59.2,999.0,89.0
44.3,845.0,63.0
38.7,1241.0,212.0
38.4,1058.0,203.0
35.9,637.0,110.0
35.6,279.0,41.0
55.8,456.0,30.0
46.2,466.0,70.0
48.6,853.0,57.0
45.7,674.0,93.0
5.9,66.0,39.0
48.1,517.0,57.0
38.4,544.0,102.0
37.6,893.0,307.0
45,814.0,82.0
51.4,1015.0,55.0
47.9,579.0,34.0
46,539.0,50.0
38.8,736.0,72.0
54.8,1655.0,91.0
57,1396.0,108.0
46.3,1055.0,89.0
48.7,512.0,70.0
49.1,741.0,92.0
47.9,1729.0,99.0
62.4,1070.0,45.0
72,1276.0,48.0
43.7,810.0,184.0
45.4,469.0,80.0
45.1,835.0,60.0
55.6,1324.0,155.0
46.8,1632.0,134.0
52,996.0,117.0
50.2,1206.0,110.0
42.3,1413.0,318.0
60.8,1472.0,56.0
44.9,1308.0,128.0
40.3,545.0,97.0
37.7,1322.0,261.0
36.4,879.0,216.0
53.2,304.0,40.0
47.6,904.0,82.0
38.8,870.0,154.0
40.5,1243.0,245.0
42.7,881.0,61.0
38,626.0,91.0
40.3,556.0,117.0
45.9,1096.0,243.0
52,1252.0,189.0
34.4,1024.0,442.0
48.5,1411.0,112.0
40,1331.0,160.0
NE,209.0,56.0
42.5,716.0,82.0
45.9,915.0,218.0
45.6,737.0,104.0
43.5,749.0,116.0
48.3,1556.0,113.0
55.5,855.0,151.0
53.4,862.0,181.0
47.9,1021.0,86.0
33,574.0,132.0
46.6,1559.0,249.0
49,1049.0,68.0
34.7,464.0,130.0
46,938.0,223.0
43.6,509.0,214.0
37.5,832.0,226.0
38.6,981.0,393.0
26.4,760.0,275.0
38.2,616.0,72.0
38.1,670.0,183.0
34.6,889.0,151.0
49,753.0,167.0
40.7,706.0,190.0
47.8,976.0,125.0
36.8,806.0,157.0
48.1,698.0,84.0
52.1,730.0,237.0
SUPP,86.0,23.0
35.7,795.0,196.0
50.7,895.0,178.0
SUPP,53.0,28.0
49.7,1143.0,86.0
45.2,523.0,54.0
48.6,1043.0,95.0
NE,158.0,69.0
56.8,903.0,239.0
56.4,788.0,50.0
41.9,366.0,82.0
51.1,968.0,248.0
49.7,1184.0,99.0
59.5,799.0,39.0
45.2,539.0,41.0
67.3,1462.0,44.0
48.1,1480.0,234.0
49.4,1491.0,263.0
62.2,842.0,39.0
51.9,1926.0,82.0
46.8,1120.0,81.0
59.3,1126.0,44.0
44.6,1293.0,131.0
48.5,1310.0,29.0
43.4,1296.0,157.0
59,1384.0,134.0
39.8,806.0,88.0
55,767.0,42.0
36,1046.0,117.0
72.9,1137.0,66.0
46.4,903.0,157.0
44.7,934.0,76.0
57.3,1107.0,62.0
43.9,866.0,231.0
41.2,985.0,279.0
41.7,1167.0,294.0
43.4,697.0,32.0
44.3,675.0,69.0
39.1,354.0,77.0
SUPP,63.0,12.0
46.8,453.0,30.0
33.3,701.0,113.0
42.1,1335.0,215.0
35.3,744.0,171.0
45.5,754.0,162.0
31.3,876.0,200.0
46.8,1001.0,199.0
45.5,511.0,103.0
46.7,1514.0,149.0
55.2,624.0,87.0
34.6,683.0,146.0
59.2,868.0,25.0
44,786.0,152.0
45.7,666.0,57.0
NE,157.0,71.0
7.8,53.0,21.0
51.9,1294.0,149.0
48.8,1952.0,279.0
SUPP,106.0,26.0
36.3,1136.0,452.0
45.5,876.0,131.0
43.9,1228.0,77.0
48.5,1605.0,87.0
56.6,1244.0,43.0
51.3,1171.0,179.0
37.4,367.0,124.0
53.6,626.0,182.0
40.4,832.0,75.0
52.9,1591.0,247.0
51,978.0,159.0
2.3,128.0,49.0
42.5,310.0,55.0
37.5,550.0,189.0
45.6,408.0,128.0
45.2,783.0,96.0
42.1,873.0,328.0
45.4,1240.0,406.0
52.3,1043.0,112.0
51.8,529.0,57.0
51.3,670.0,65.0
33.5,392.0,53.0
5.6,36.0,20.0
27.1,185.0,19.0
51.7,836.0,47.0
NE,193.0,54.0
53.2,548.0,50.0
37.4,743.0,308.0
NE,145.0,68.0
30.2,361.0,105.0
NE,93.0,45.0
44.7,1186.0,90.0
47.3,1025.0,115.0
46.3,876.0,142.0
48.6,1034.0,98.0
SUPP,112.0,40.0
40.1,1099.0,195.0
46.2,1463.0,95.0
31.8,491.0,164.0
50.4,833.0,94.0
2.1,250.0,90.0
43.6,807.0,63.0
42.1,965.0,117.0
51.2,783.0,58.0
42.7,781.0,93.0
38.6,835.0,137.0
46.3,373.0,159.0
37.2,476.0,152.0
46.5,309.0,60.0
37,34.0,11.0
56.9,772.0,88.0
41.7,431.0,183.0
43.2,669.0,129.0
4.8,57.0,41.0
56.9,733.0,38.0
NE,111.0,26.0
35.8,971.0,290.0
45.5,1107.0,277.0
39.2,558.0,72.0
54.4,2242.0,104.0
SUPP,81.0,33.0
NE,149.0,65.0
43.4,1287.0,316.0
34.4,597.0,175.0
36.9,337.0,143.0
38.7,317.0,28.0
46.9,953.0,157.0
56,1350.0,57.0
52.9,667.0,273.0
40.7,391.0,41.0
45.1,586.0,81.0
44.7,509.0,23.0
49.6,491.0,46.0
44.4,995.0,59.0
34.1,240.0,21.0
50.7,734.0,248.0
34.8,951.0,446.0
44.9,835.0,135.0
53.9,1377.0,77.0
35,456.0,19.0
40.3,460.0,54.0
35.8,358.0,55.0
55.3,1916.0,481.0
54.1,838.0,71.0
47.1,713.0,199.0
43.6,599.0,216.0
1.5,220.0,92.0
60.9,1133.0,94.0
16.7,52.0,19.0
28.8,69.0,12.0
43,604.0,140.0
43.7,1093.0,233.0
53.1,648.0,63.0
49.3,1033.0,303.0
36.8,707.0,219.0
47.2,911.0,62.0
45.8,110.0,13.0
29.9,236.0,63.0
28.8,277.0,42.0
54.6,902.0,175.0
48.6,1099.0,83.0
33.2,468.0,172.0
51.9,1413.0,378.0
41.6,1140.0,171.0
43,557.0,124.0
41,1187.0,414.0
49.6,517.0,86.0
43.6,1094.0,193.0
46.1,955.0,154.0
41.9,1210.0,353.0
49.7,1696.0,262.0
37.6,759.0,195.0
48.4,872.0,45.0
36.1,1331.0,414.0
45,1152.0,110.0
52.8,1213.0,114.0
51.2,1121.0,37.0
48,1129.0,129.0
40,1514.0,436.0
42.8,913.0,173.0
48.4,427.0,26.0
37.8,958.0,311.0
23.2,1022.0,252.0
34.4,196.0,54.0
40.8,1107.0,184.0
45.1,620.0,90.0
46,645.0,90.0
29.3,697.0,199.0
38.6,964.0,194.0
37.3,1141.0,197.0
40.3,1079.0,150.0
53.1,503.0,15.0
0.1,301.0,132.0
50.5,1666.0,123.0
1.4,157.0,81.0
NE,144.0,47.0
NE,271.0,107.0
34.4,1682.0,491.0
44.8,1038.0,96.0
56.8,897.0,121.0
48.6,745.0,160.0
55.1,1196.0,81.0
47.7,930.0,252.0
35.5,1058.0,269.0
44.8,701.0,154.0
47.3,663.0,27.0
33.5,874.0,365.0
41.8,784.0,247.0
53.5,835.0,82.0
53.3,781.0,83.0
35.2,1152.0,225.0
43.5,894.0,364.0
21.9,711.0,322.0
35.5,678.0,134.0
40.1,166.0,91.0
42.5,865.0,90.0
44.1,266.0,42.0
46.7,1019.0,135.0
46.4,1216.0,186.0
43.8,754.0,84.0
1.3,221.0,76.0
54.6,1364.0,173.0
49.2,1297.0,168.0
4.5,67.0,37.0
55.3,832.0,37.0
38.6,958.0,142.0
40.2,1373.0,137.0
53.2,1400.0,93.0
51.3,1502.0,49.0
48.7,793.0,39.0
50.7,870.0,118.0
61.1,1381.0,223.0
21.2,61.0,50.0
0.6,275.0,138.0
44.1,1099.0,153.0
46.7,641.0,28.0
36.8,189.0,41.0
6.5,18.0,9.0
42.6,521.0,74.0
50.9,728.0,71.0
NE,105.0,45.0
38.7,479.0,61.0
51.3,1088.0,165.0
58.6,763.0,200.0
46.5,1123.0,378.0
SUPP,32.0,3.0
41.3,711.0,224.0
45.7,1553.0,314.0
35,693.0,274.0
NE,200.0,54.0
57.6,217.0,14.0
NE,152.0,61.0
2.2,104.0,46.0
49.2,1331.0,59.0
56.2,1413.0,70.0
42.4,1039.0,174.0
42.5,907.0,106.0
NE,152.0,57.0
46.9,1237.0,256.0
13.8,84.0,28.0
43.3,898.0,242.0
38.3,644.0,159.0
36.1,797.0,352.0
38.8,632.0,136.0
46.5,2078.0,363.0
SUPP,185.0,51.0
12.6,64.0,35.0
5.3,80.0,41.0
37.5,1007.0,409.0
44.4,1048.0,256.0
43,776.0,91.0
47.3,743.0,69.0
2.6,228.0,78.0
10.8,106.0,51.0
49,1018.0,184.0
40.9,862.0,149.0
43.2,794.0,109.0
55.5,1469.0,55.0
55.4,2833.0,636.0
40.8,877.0,262.0
52.2,1712.0,115.0
48.9,789.0,126.0
54.6,1013.0,77.0
2.8,405.0,110.0
45.7,776.0,52.0
50.9,1123.0,73.0
46.4,1269.0,191.0
39.3,654.0,183.0
45,988.0,220.0
43.1,632.0,76.0
49.7,1050.0,324.0
46.8,1884.0,232.0
54,2562.0,234.0
NE,92.0,51.0
46.3,957.0,74.0
40,908.0,169.0
72.1,1068.0,16.0
35.2,285.0,48.0
36.2,803.0,175.0
48,1037.0,166.0
47.5,1276.0,77.0
51.1,2087.0,163.0
48.6,1117.0,102.0
11.7,91.0,28.0
43.2,1225.0,238.0
42.3,694.0,74.0
51.5,534.0,63.0
SUPP,38.0,20.0
37.4,627.0,124.0
48,620.0,70.0
39.8,375.0,56.0
43.3,1032.0,126.0
49,1032.0,103.0
0.8,303.0,112.0
44.3,887.0,193.0
50.6,1634.0,157.0
34.1,259.0,32.0
15.5,53.0,29.0
43.1,711.0,100.0
48.8,1066.0,112.0
39.7,523.0,164.0
46.7,1004.0,186.0
59.8,1292.0,26.0
44,919.0,100.0
48.4,1129.0,97.0
NE,355.0,133.0
0.6,171.0,69.0
74.3,958.0,43.0
44,1010.0,85.0
21.2,99.0,10.0
51.4,896.0,124.0
46.5,1035.0,298.0
45.1,593.0,71.0
46.3,1090.0,118.0
7.5,81.0,32.0
61.4,597.0,106.0
47.3,788.0,248.0
45.8,1593.0,169.0
49.4,931.0,73.0
47.6,1440.0,237.0
52.6,505.0,35.0
42.9,1130.0,131.0
51,1076.0,113.0
39.8,1124.0,271.0
49.6,572.0,114.0
50.2,73.0,8.0
75.2,1169.0,8.0
43.8,979.0,132.0
NE,178.0,85.0
49.7,1316.0,82.0
37.8,841.0,186.0
28.1,123.0,30.0
34.3,139.0,15.0
33.5,50.0,7.0
47.3,585.0,51.0
44.9,186.0,25.0
43.4,845.0,226.0
59.6,538.0,146.0
58.3,560.0,136.0
55.2,578.0,85.0
39.8,352.0,30.0
52.1,250.0,27.0
40.1,289.0,140.0
36.5,420.0,121.0
40.9,580.0,44.0
36.7,189.0,28.0
46.2,1194.0,183.0
51.9,547.0,63.0
54.4,1006.0,295.0
33,481.0,71.0
44.5,767.0,120.0
1.2,156.0,52.0
51.6,727.0,114.0
37.7,542.0,204.0
35.2,174.0,26.0
0.6,49.0,26.0
45.4,816.0,78.0
53.2,477.0,57.0
23.7,91.0,3.0
35.4,599.0,240.0
SUPP,28.0,11.0
37.8,930.0,149.0
47.9,421.0,119.0
4.1,77.0,48.0
54.5,127.0,9.0
35.9,648.0,51.0
33.7,91.0,10.0
41.2,553.0,97.0
39.1,802.0,72.0
54.1,925.0,55.0
48.1,1293.0,69.0
51.4,324.0,77.0
39.5,266.0,26.0
46.9,651.0,32.0
51.9,480.0,21.0
49.1,376.0,63.0
35.3,362.0,22.0
42.8,677.0,298.0
44.8,482.0,139.0
49.1,545.0,82.0
54.1,866.0,41.0
NE,139.0,32.0
47.1,1514.0,232.0
54.6,1141.0,107.0
38.5,466.0,82.0
45.6,386.0,45.0
22.1,83.0,51.0
40.3,1207.0,240.0
46.1,576.0,70.0
37.9,1113.0,138.0
43.1,1191.0,204.0
37.2,293.0,49.0
49.2,975.0,120.0
8.1,60.0,41.0
54.1,996.0,203.0
39.2,315.0,68.0
42.4,469.0,117.0
42.8,1533.0,288.0
33.1,455.0,72.0
40.6,394.0,62.0
40.6,835.0,176.0
47.3,1493.0,165.0
NE,162.0,38.0
0.3,387.0,179.0
5,142.0,61.0
NE,75.0,22.0
NE,110.0,46.0
45,1199.0,192.0
47.7,668.0,137.0
49.7,1575.0,395.0
43.6,1103.0,117.0
48.9,1597.0,188.0
74.7,928.0,29.0
42.6,1520.0,147.0
48.3,1469.0,201.0
42.4,1611.0,160.0
39.7,783.0,358.0
42.7,764.0,195.0
38.4,814.0,196.0
39.4,486.0,60.0
39.5,669.0,169.0
42.7,671.0,159.0
44.5,442.0,48.0
47.6,583.0,37.0
47.9,923.0,49.0
43.1,687.0,172.0
46.5,1162.0,127.0
50.9,881.0,153.0
2.1,161.0,75.0
46.8,937.0,212.0
42.5,446.0,161.0
2.8,61.0,49.0
5.8,76.0,40.0
30.5,503.0,95.0
32.5,556.0,221.0
48.8,65.0,3.0
43.4,344.0,39.0
55.9,842.0,80.0
NE,173.0,63.0
57.2,1108.0,58.0
NE,91.0,36.0
0.4,94.0,27.0
51.1,551.0,44.0
42.8,1459.0,105.0
44.5,1154.0,216.0
10.7,139.0,67.0
6.6,80.0,26.0
45.4,1006.0,237.0
37.3,800.0,158.0
40.8,816.0,196.0
8.2,69.0,47.0
48.1,1572.0,137.0
SUPP,130.0,24.0
6.5,63.0,17.0
10.9,96.0,53.0
69.9,809.0,69.0
46.2,1119.0,126.0
43,583.0,88.0
54.5,1567.0,83.0
SUPP,23.0,12.0
SUPP,148.0,54.0
55.5,472.0,114.0
41.3,838.0,101.0
47.7,1513.0,149.0
SUPP,129.0,32.0
40.9,796.0,176.0
45.6,964.0,94.0
41.1,1097.0,309.0
40.1,1227.0,116.0
50.1,2275.0,368.0
43.3,1060.0,385.0
40.3,655.0,239.0
39.6,565.0,186.0
44,482.0,92.0
NE,319.0,145.0
46.7,1027.0,186.0
41.7,812.0,97.0
59.1,624.0,40.0
NE,108.0,33.0
40.5,987.0,135.0
46.9,849.0,145.0
35.8,1011.0,235.0
37.5,688.0,200.0
35.4,165.0,12.0
NE,195.0,65.0
1.6,181.0,45.0
45.7,889.0,285.0
NE,177.0,74.0
51.4,924.0,107.0
38.9,265.0,70.0
45.8,1068.0,139.0
48.8,1169.0,283.0
45.7,988.0,85.0
48.2,1584.0,58.0
NE,108.0,25.0
46.9,843.0,36.0
51.7,692.0,31.0
42.5,1055.0,218.0
6.7,168.0,125.0
41.6,518.0,91.0
36.5,665.0,176.0
54,1790.0,230.0
50,1180.0,87.0
62.8,994.0,76.0
37,158.0,39.0
3.9,89.0,17.0
NE,112.0,26.0
36.9,121.0,7.0
64.4,487.0,109.0
61.7,501.0,61.0
57.6,515.0,64.0
38.1,762.0,273.0
1.9,117.0,96.0
38.9,1212.0,287.0
SUPP,63.0,40.0
40,1084.0,150.0
37.5,820.0,103.0
44.1,1007.0,70.0
39.5,533.0,114.0
49.2,1027.0,112.0
44,768.0,205.0
44.6,477.0,75.0
NE,96.0,34.0
39.7,865.0,123.0
43.5,683.0,140.0
39.7,481.0,142.0
37.3,296.0,92.0
34.2,362.0,64.0
49,1056.0,50.0
SUPP,64.0,9.0
48.4,637.0,56.0
38,604.0,127.0
44.4,1128.0,236.0
32.4,794.0,200.0
36,373.0,44.0
SUPP,465.0,48.0
3.5,105.0,66.0
45.2,1083.0,208.0
43,800.0,62.0
NE,102.0,32.0
58.6,1169.0,63.0
SUPP,120.0,39.0
48.7,122.0,7.0
39.8,145.0,14.0
40.5,189.0,59.0
45.2,165.0,13.0
17.2,126.0,44.0
30.3,235.0,18.0
29.9,130.0,14.0
SUPP,135.0,40.0
NE,120.0,55.0
17,76.0,35.0
48.8,1455.0,164.0
15.6,90.0,45.0
49.5,915.0,52.0
6,82.0,38.0
45.9,1298.0,77.0
0.8,96.0,45.0
48.6,739.0,56.0
42.2,856.0,212.0
47.3,851.0,95.0
51.7,1387.0,82.0
47.6,1319.0,71.0
42.9,1677.0,581.0
55.3,941.0,209.0
45.5,699.0,48.0
13.5,69.0,24.0
62.7,905.0,25.0
45,747.0,93.0
36.7,378.0,69.0
47.4,966.0,72.0
39.6,502.0,120.0
40.6,613.0,74.0
35.1,932.0,196.0
0.3,158.0,61.0
43.5,980.0,159.0
SUPP,115.0,53.0
54.3,1316.0,85.0
NE,163.0,81.0
NE,73.0,23.0
47.2,1612.0,128.0
44.3,1111.0,89.0
61.3,1240.0,59.0
45.4,1816.0,110.0
47.9,1018.0,69.0
52.2,1563.0,229.0
43.7,682.0,157.0
60.1,603.0,90.0
58.8,1152.0,44.0
40.3,1342.0,345.0
NE,187.0,98.0
39,525.0,113.0
37.7,1064.0,355.0
40.9,1020.0,312.0
41.6,366.0,80.0
43.4,779.0,130.0
39.1,472.0,160.0
40.5,673.0,185.0
NE,124.0,51.0
35.4,847.0,206.0
28.9,397.0,128.0
44.7,745.0,77.0
48.4,1483.0,178.0
8.7,71.0,27.0
41.1,1265.0,202.0
14.6,146.0,25.0
NE,194.0,66.0
55.8,1114.0,98.0
42.1,1076.0,150.0
45.1,1265.0,321.0
49.7,1423.0,186.0
40.8,1072.0,270.0
50.4,1205.0,125.0
42.5,335.0,39.0
48.9,403.0,61.0
3.5,96.0,33.0
62.2,299.0,2.0
2.6,275.0,146.0
53.6,1253.0,278.0
51.1,1042.0,72.0
SUPP,55.0,24.0
SUPP,59.0,22.0
1.7,135.0,38.0
32.5,965.0,262.0
NE,114.0,32.0
1.3,154.0,59.0
SUPP,106.0,17.0
45.5,682.0,67.0
34.8,366.0,51.0
NE,87.0,31.0
43.4,795.0,114.0
51.1,1515.0,134.0
1.9,167.0,44.0
44.6,1118.0,135.0
6.9,95.0,35.0
35.4,677.0,130.0
49,776.0,51.0
42.3,937.0,183.0
35.3,925.0,249.0
37.2,1033.0,320.0
4,72.0,48.0
6.1,152.0,73.0
45.2,239.0,29.0
0.6,146.0,42.0
NE,118.0,38.0
SUPP,111.0,32.0
34.4,801.0,331.0
47.2,905.0,107.0
41.2,364.0,44.0
42.2,1413.0,344.0
47.3,836.0,105.0
37.8,599.0,84.0
28.4,113.0,11.0
42.4,740.0,318.0
36.7,199.0,20.0
30.7,297.0,39.0
31.9,218.0,36.0
NE,75.0,38.0
37.3,341.0,72.0
32.8,258.0,38.0
38.8,324.0,42.0
38.6,261.0,15.0
44.3,404.0,73.0
34.1,220.0,30.0
8.4,88.0,42.0
0.8,60.0,30.0
33.7,775.0,205.0
43.6,946.0,75.0
51.9,1319.0,39.0
43.1,1247.0,261.0
38,410.0,25.0
NE,130.0,37.0
44.1,1059.0,134.0
36.6,716.0,214.0
NE,118.0,51.0
53.5,1492.0,68.0
53.4,718.0,104.0
49,1255.0,115.0
49.6,519.0,49.0
NE,129.0,41.0
38.1,1551.0,355.0
35.3,887.0,144.0
39.3,1428.0,272.0
44.8,409.0,128.0
41,589.0,70.0
38.3,1607.0,295.0
42.2,1377.0,185.0
47.1,402.0,48.0
48.2,860.0,131.0
39.9,573.0,91.0
39.8,577.0,146.0
37.3,436.0,144.0
NE,93.0,37.0
SUPP,80.0,46.0
NE,92.0,30.0
5.8,96.0,43.0
42.4,1804.0,389.0
SUPP,191.0,95.0
44.9,1400.0,218.0
10.6,65.0,44.0
45.6,1286.0,128.0
35.1,1218.0,325.0
48.6,1983.0,379.0
55.3,1128.0,220.0
51.4,1829.0,95.0
50.2,979.0,109.0
53.3,1290.0,55.0
8.6,158.0,55.0
NE,94.0,26.0
47.4,1283.0,202.0
38.7,801.0,116.0
NE,113.0,33.0
40.6,994.0,94.0
60.1,1590.0,69.0
62.5,1311.0,30.0
50.9,1656.0,679.0
51.5,642.0,107.0
36.1,828.0,153.0
44.7,1110.0,103.0
36,891.0,347.0
45.1,670.0,120.0
44,539.0,98.0
45.2,1070.0,75.0
40.2,478.0,89.0
43.5,878.0,227.0
49.3,941.0,157.0
40.7,319.0,23.0
36.5,1740.0,467.0
48.6,712.0,210.0
NE,91.0,51.0
4.5,79.0,50.0
42,571.0,88.0
NE,113.0,37.0
37.8,776.0,250.0
3.1,51.0,33.0
40.5,1210.0,356.0
67.4,1033.0,99.0
41.6,851.0,161.0
50.9,1390.0,80.0
47.2,1080.0,47.0
2.7,311.0,87.0
51.3,1421.0,619.0
2.1,49.0,41.0
48.8,765.0,48.0
35,478.0,60.0
40.5,996.0,100.0
47.2,411.0,127.0
39.6,238.0,9.0
38.4,1319.0,387.0
44.7,1684.0,241.0
44.7,827.0,149.0
50.7,943.0,59.0
43.1,733.0,124.0
54.7,1272.0,89.0
43,479.0,78.0
43.9,869.0,152.0
2,136.0,78.0
33.5,587.0,121.0
36.6,535.0,262.0
35.8,581.0,256.0
43.4,744.0,145.0
33.7,1108.0,222.0
46.2,1349.0,158.0
29.5,842.0,160.0
2.9,57.0,24.0
44.5,561.0,88.0
0.6,189.0,57.0
47.6,593.0,78.0
1,181.0,48.0
41.3,764.0,75.0
37.6,992.0,321.0
44.9,1375.0,108.0
51.9,1395.0,54.0
47.5,870.0,97.0
38.9,926.0,131.0
54.4,1666.0,75.0
37,1164.0,271.0
44.7,1138.0,168.0
46.5,1044.0,253.0
41.9,725.0,98.0
40.3,526.0,73.0
39.6,1134.0,215.0
46.4,1318.0,108.0
49.8,693.0,37.0
43.7,568.0,51.0
50.1,1002.0,49.0
44.2,1039.0,57.0
49.4,570.0,103.0
35.2,1338.0,219.0
34.3,1086.0,234.0
50.3,587.0,54.0
46.1,870.0,168.0
54.6,1691.0,100.0
50.6,1061.0,102.0
0.9,170.0,75.0
37.2,570.0,167.0
43.1,1154.0,187.0
37.1,1119.0,252.0
44.8,930.0,112.0
52.8,350.0,31.0
75.3,1164.0,54.0
54,2087.0,213.0
44.7,712.0,94.0
46.6,1085.0,102.0
NE,116.0,49.0
40.1,1035.0,118.0
40.2,715.0,148.0
46.8,1620.0,331.0
0.2,210.0,95.0
NE,77.0,23.0
46.6,718.0,63.0
NE,108.0,36.0
NE,125.0,18.0
10,301.0,79.0
55.6,1033.0,50.0
36.9,743.0,318.0
41.3,712.0,249.0
42.4,512.0,97.0
1.6,53.0,42.0
40.7,1023.0,150.0
33.8,553.0,243.0
41.3,583.0,180.0
39.3,1106.0,222.0
45.9,807.0,120.0
47.4,1046.0,185.0
47,1111.0,110.0
10.5,94.0,52.0
SUPP,79.0,48.0
50,1535.0,126.0
50.8,1588.0,118.0
NE,247.0,134.0
40.7,984.0,110.0
0.6,121.0,56.0
39.7,775.0,138.0
39.7,392.0,102.0
45.1,1198.0,137.0
44.6,916.0,138.0
39,847.0,173.0
41,331.0,44.0
48.1,722.0,65.0
42.6,806.0,184.0
43.8,624.0,90.0
12.9,65.0,30.0
43.3,585.0,69.0
43.8,1066.0,290.0
33.6,824.0,302.0
33.2,585.0,164.0
41.3,793.0,211.0
40.1,1019.0,139.0
44.1,767.0,90.0
35.3,811.0,323.0
37.3,970.0,418.0
34.7,361.0,157.0
54.7,572.0,43.0
48.8,532.0,146.0
41.8,918.0,121.0
46,417.0,80.0
38.2,1302.0,350.0
31.4,738.0,256.0
40.3,665.0,232.0
44.1,892.0,71.0
43,692.0,110.0
49.8,680.0,68.0
45.5,1496.0,107.0
43.8,838.0,140.0
41.9,1109.0,194.0
46.5,977.0,201.0
43,1117.0,160.0
52.9,405.0,82.0
33.8,1022.0,362.0
46.6,603.0,73.0
32.2,629.0,150.0
40.4,1448.0,322.0
33,1135.0,256.0
NE,88.0,38.0
36,740.0,215.0
40.3,729.0,123.0
1.5,154.0,102.0
34.1,627.0,231.0
NE,49.0,20.0
48,830.0,116.0
0.6,95.0,48.0
NE,86.0,32.0
52.2,1053.0,329.0
60.4,1455.0,37.0
31.7,133.0,17.0
SUPP,33.0,7.0
37.6,229.0,75.0
34.3,232.0,17.0
3.6,55.0,22.0
NE,50.0,27.0
45.6,422.0,47.0
39.9,772.0,174.0
2,38.0,21.0
46.3,516.0,133.0
33.9,671.0,235.0
40.6,246.0,99.0
NE,44.0,21.0
47.1,925.0,144.0
NE,149.0,45.0
5.2,215.0,68.0
0.5,132.0,43.0
39.5,1019.0,278.0
44.5,543.0,49.0
34.3,598.0,215.0
37.9,952.0,251.0
NE,70.0,15.0
41.8,1085.0,315.0
38.9,786.0,172.0
55.6,671.0,34.0
40.6,686.0,172.0
38.3,609.0,102.0
40.2,572.0,190.0
44.9,463.0,82.0
42,1108.0,315.0
44,698.0,67.0
40.8,609.0,87.0
43.3,929.0,81.0
31,1004.0,239.0
36.3,214.0,50.0
38.2,840.0,105.0
38.1,1068.0,211.0
45.4,659.0,83.0
48.1,501.0,55.0
45.1,1325.0,124.0
40.7,722.0,125.0
44.9,756.0,140.0
43.7,1430.0,393.0
46.9,992.0,146.0
45.3,811.0,227.0
39.9,323.0,102.0
40.1,749.0,259.0
36.7,532.0,98.0
39.9,455.0,107.0
54,1235.0,393.0
33.1,911.0,224.0
37.8,859.0,207.0
37.8,721.0,292.0
52,1030.0,123.0
43.8,1026.0,156.0
47.5,1167.0,517.0
52,766.0,212.0
36.9,121.0,17.0
45.3,885.0,133.0
39.5,1277.0,349.0
43.8,988.0,200.0
40.3,491.0,175.0
45.5,1698.0,270.0
43.9,1088.0,131.0
2.3,145.0,44.0
NE,208.0,53.0
40.1,546.0,89.0
47.6,1265.0,102.0
NE,192.0,66.0
SUPP,49.0,30.0
55.6,1413.0,57.0
47.9,688.0,199.0
NE,95.0,28.0
42.3,1724.0,261.0
47.2,803.0,126.0
54.2,1171.0,62.0
48.7,328.0,69.0
50.6,1010.0,442.0
29.9,1137.0,426.0
33,1035.0,221.0
50.2,1019.0,35.0
47.2,1499.0,257.0
44.6,1281.0,131.0
48.1,1427.0,131.0
40.8,536.0,83.0
51,1392.0,215.0
35.5,546.0,199.0
48.7,748.0,53.0
6.3,35.0,21.0
20,105.0,18.0
39,1262.0,178.0
50.9,936.0,112.0
41,814.0,228.0
34.2,1940.0,353.0
34.1,535.0,124.0
56.3,1633.0,93.0
41.5,941.0,95.0
35.7,838.0,380.0
50,414.0,76.0
48.1,1101.0,79.0
NE,188.0,56.0
38.8,1132.0,279.0
12.9,119.0,65.0
51.7,1862.0,107.0
47,808.0,98.0
50.3,1663.0,80.0
47.1,1186.0,119.0
38.2,1116.0,496.0
0.2,220.0,79.0
49.7,1390.0,139.0
39.9,790.0,141.0
45.3,963.0,142.0
45.1,904.0,181.0
50.7,828.0,192.0
44.6,900.0,101.0
38.4,563.0,131.0
48.7,1307.0,126.0
49.1,127.0,3.0
39.3,833.0,123.0
NE,140.0,46.0
36.7,1423.0,248.0
50.6,1428.0,317.0
52.6,768.0,49.0
54.2,1521.0,49.0
1.6,109.0,77.0
1.1,73.0,41.0
SUPP,20.0,3.0
SUPP,143.0,29.0
SUPP,44.0,15.0
40.6,907.0,313.0
46.7,856.0,169.0
41.3,711.0,121.0
38.2,1153.0,278.0
43,861.0,196.0
50,814.0,74.0
42,513.0,50.0
31.8,955.0,354.0
35.8,634.0,224.0
0.6,100.0,37.0
45.1,1222.0,151.0
SUPP,119.0,25.0
SUPP,122.0,25.0
NE,141.0,30.0
0.8,89.0,42.0
NE,53.0,15.0
NE,84.0,25.0
NE,123.0,55.0
49.4,391.0,35.0
49.9,701.0,45.0
3.1,185.0,62.0
38.6,841.0,240.0
40.4,361.0,44.0
SUPP,101.0,23.0
50.3,434.0,43.0
43.7,694.0,65.0
42.2,549.0,46.0
NE,103.0,56.0
47.6,1169.0,85.0
32.2,691.0,211.0
39.8,784.0,76.0
54.3,900.0,87.0
NE,80.0,34.0
42.9,1036.0,139.0
44.5,1133.0,129.0
45.4,660.0,39.0
45.1,721.0,86.0
2.9,139.0,36.0
1.3,107.0,29.0
49.8,696.0,53.0
44.6,942.0,155.0
37.9,426.0,118.0
40.2,631.0,98.0
43.2,664.0,116.0
33.1,1115.0,289.0
40.3,1044.0,230.0
45.8,272.0,44.0
40.8,1201.0,125.0
40.6,804.0,210.0
36.9,508.0,94.0
32.3,839.0,210.0
42.9,1090.0,207.0
40.4,182.0,10.0
39.1,894.0,56.0
36.7,1623.0,323.0
38,1332.0,316.0
45.2,425.0,60.0
35.3,626.0,62.0
33.9,794.0,176.0
