ATT8SCR,PERCTOT,PPERSABS10
42.4,6.9,18.8
58.7,5.3,12.5
42.2,6.7,19.2
44.8,5.4,14
47.5,6.3,18.5
63.4,3.9,3.2
48.4,5.3,14.3
46.3,5.4,15.6
54.6,4.9,9.5
3.6,27.9,81.4
NE,10.3,31.3
48.1,4.2,8.8
41.6,5.9,16.3
45.6,5.2,13.8
39.9,5.6,16.3
59.3,3.6,4.6
9.6,20.8,60
43.1,6.5,20.5
53.3,3.4,6.3
47.1,4.6,11.5
43.1,4.5,10.8
48.8,4.1,10.9
1.3,5.6,15.2
NE,5.9,14.1
NE,16.6,45.8
3.8,6.2,15.8
8.6,14.2,27.5
SUPP,12.1,36.7
NE,12.3,35.2
32.8,5.1,12.8
57.4,6.5,16.9
48.2,5.5,14.2
56.6,4.1,7.9
50.4,4.2,8.7
NE,12.5,37.5
NE,9.0,31
48.4,4.4,10.6
49.6,7.4,20.3
49.5,4.1,8.6
46.3,5.2,12.6
42.2,4.5,13.1
51.1,4.1,9.9
56.1,2.6,3.2
42.1,5.3,13.3
NE,7.7,24.3
1.2,8.9,19.8
2.7,11.0,32.4
37.2,5.2,13
51.1,5.3,13.8
34.9,6.1,15.7
40.1,5.6,14.3
42.8,6.0,16.4
41.4,5.1,13.8
43.9,4.7,10.5
43.7,3.6,4.6
56,4.6,8.8
46.2,3.0,4.7
1.7,6.7,21.2
NE,9.4,29.1
55.2,3.7,8.5
53.4,4.9,11.7
48.3,4.7,12
NE,5.7,15.6
SUPP,12.1,28.3
42.1,4.9,10
44.5,4.6,12.3
48.6,4.8,9.7
54.3,4.7,8
54.2,3.3,4
47.7,5.5,16
56,4.0,7.7
53.9,4.8,10
52,4.1,9.7
39.7,7.8,24.5
NE,7.6,21.5
NE,17.7,52.5
43.2,4.6,12.4
1.7,9.4,40.4
NE,10.2,50
NE,7.7,15.8
6.3,9.1,27.3
49.7,5.9,14.1
NE,7.6,20
NE,13.1,50.7
49.3,5.3,13.2
34.8,8.3,24.5
47.9,6.6,18.7
45.8,5.1,14.2
53.6,2.9,4.5
38.2,5.0,10.7
77.6,5.2,19.2
59.8,4.1,6.9
50.6,4.0,6
NE,11.6,35.2
NE,6.5,17.9
NE,5.7,17.9
44.5,5.3,13.4
NE,10.0,34.2
83,3.3,4.2
4.8,11.9,38.7
45.5,5.4,12.2
40.1,4.2,9.5
36.9,6.5,17.4
43.2,5.2,14.6
62,3.7,6
48.7,4.8,10.9
2.3,5.7,15.3
NE,15.6,54.7
3.9,12.6,36.4
NE,7.7,22.1
48.3,4.2,8.7
56.7,3.6,6.4
49.2,4.7,11.1
54.2,4.7,11.1
54.4,6.0,16.6
39.7,6.3,13.2
0.8,6.9,22.3
NE,14.9,58.5
NE,7.4,22.9
NE,14.2,40
44.2,6.4,18
50.7,4.6,9.2
43.9,6.0,16.8
41.1,6.8,18.2
57,2.9,4.2
79.9,3.4,4
38.2,6.0,16.6
49.8,4.6,9.6
NE,5.4,17.9
0.7,11.3,37.5
NE,8.7,30.1
NE,12.2,47.9
49.7,5.7,14.1
55.2,5.1,12.4
57.9,5.9,12.8
44.4,5.1,11.9
SUPP,9.1,28.8
8.4,14.6,42.9
0,9.8,36.2
57.4,3.6,5
58.6,5.3,11.1
0.3,8.0,17.8
NE,7.4,20.3
37.9,8.0,21.1
41.2,7.1,18.9
NE,7.2,22.7
NE,8.4,25.7
54.6,4.4,9.2
58.5,4.2,6.9
2.5,7.8,26.2
NE,10.2,34.2
39.7,5.6,14.7
54.8,4.3,9.3
44,5.2,12.4
54.9,4.7,10.8
53.8,4.5,8.6
59.6,3.8,6.7
9.5,25.1,73.5
SUPP,9.6,29.2
NE,8.3,31.2
44.9,4.0,7.8
44.9,5.1,12.8
47.8,5.7,13.9
53.9,4.6,9.8
38.1,7.7,22.9
51.9,2.8,4.5
51.4,2.5,2.2
45.4,7.1,22.3
75.5,3.9,5
53.9,5.8,13.9
78.8,4.3,8.5
52.3,5.4,11.9
60.2,4.3,6.6
53.8,3.8,6.9
42.4,5.7,16.3
59,3.9,5.7
48.5,6.0,17.5
0.6,8.4,27.7
SUPP,18.4,48.7
51.8,5.4,13
54.6,5.2,11.1
61.2,3.2,4.1
NE,12.9,32.2
42.4,5.2,12.2
45.1,5.3,15.6
45.5,6.6,18.6
47.9,5.8,15.8
44,5.0,13.7
55.5,4.9,11.3
38.8,6.4,19
51.1,4.2,9.5
54.2,4.4,9.4
38.9,6.6,19.7
50.7,5.0,10.6
43,5.9,13.8
49.9,5.2,12.4
51.6,4.2,8.3
47.5,4.7,11.9
42.7,5.5,14.5
38,6.8,19.1
51,4.3,8.9
49.5,4.8,11.2
38.8,5.0,11.8
47.5,5.4,13
40.3,6.0,17.8
40.3,7.1,19.4
36.4,6.4,19.9
59.5,3.5,7.1
47.1,5.7,17.1
42.7,6.5,18.2
43.4,5.1,13.7
42.3,4.3,8.2
42.6,5.4,14.7
56.5,4.9,11.2
49.9,5.8,16.5
38.4,7.8,23.7
NE,12.0,40.9
NE,4.9,9.1
4,10.4,18.2
1.5,30.3,69
6.3,10.1,35.3
1.9,8.3,26.1
13.8,9.3,33.9
5.7,8.9,28.4
0.1,12.0,32.3
NE,7.2,23.4
2.5,11.7,33.3
6.3,27.6,57.6
52.4,4.1,8.9
47,5.5,14
NE,9.4,28.9
NE,8.4,21.6
50.1,4.9,12.5
43.1,5.2,14.1
42.3,5.1,14.7
57.2,6.3,11.3
2.8,10.8,29.4
2.5,4.3,8
NE,10.5,31.5
2.8,6.3,13.2
SUPP,14.4,45.9
SUPP,11.7,42.4
45.8,4.1,8.8
37.2,5.5,14.1
45.1,4.6,12
42.6,5.3,12.9
SUPP,15.6,41
53.2,4.7,9.4
3.6,6.2,13.4
NE,8.4,24.1
0.9,7.4,17.1
NE,7.0,16.5
39.6,7.2,17.6
48,5.7,14.1
40.1,5.6,14.6
0.5,7.2,21.5
2.5,13.3,39.6
NE,10.2,37.9
36.8,5.9,17.7
41.1,5.9,19.2
NE,6.2,15
NE,5.1,10.6
NE,9.5,32.1
NE,11.4,42.7
NE,9.6,28.3
1.6,10.7,31.3
45.1,6.4,12.6
38,9.1,31.2
36,6.8,19.8
31.7,11.1,35.1
42.5,6.5,14.3
39.6,7.9,21.6
55.9,4.3,8
56.7,2.9,5.1
40.2,6.4,16.2
46.8,5.3,12.3
47.7,5.2,14
43,6.0,13.8
46.9,5.9,14.7
41.5,5.5,12.5
54.5,4.2,8.3
4.6,6.2,18.5
SUPP,11.5,37.5
NE,6.8,17.8
4.3,22.3,63.7
1.2,37.1,87.5
NE,9.9,29.9
NE,10.4,25.6
45.1,6.0,16.2
47.7,6.4,18
39.3,8.0,21.7
45.8,4.9,11.1
39.2,5.7,14.7
8.3,27.9,66.1
43.3,5.4,14.7
35.9,7.2,15.2
43.7,5.4,12
46.8,5.0,11.6
46.4,5.4,11.2
49,5.1,13.8
9.6,5.7,20
SUPP,9.9,29.7
1.6,7.0,23.9
2.5,18.1,52.1
NE,8.1,19.9
41.7,7.1,17.7
47.6,5.1,11
37.5,6.9,16.4
36.6,6.5,19.6
41,6.7,19.8
8.5,7.0,18.9
8.2,28.8,76.4
NE,8.8,28
SUPP,11.9,30.5
45.1,4.9,11.9
7.7,18.1,53.1
41.8,5.4,14.1
47,4.9,12.9
43.1,5.2,14.4
42.1,6.4,17.4
49.7,5.0,11
13.4,9.7,36.2
1.1,7.1,23.1
NE,3.7,7.1
46.6,4.8,10.3
46.5,5.8,14.5
42.8,5.7,13.7
40.8,4.8,10.4
48.3,5.6,14.5
39.9,8.0,21.7
33.1,5.3,16.2
46.5,5.7,15.1
50.4,4.7,10.1
46,5.7,13.5
1.5,7.1,17.2
41.7,5.5,11.8
44.7,3.7,7.7
42.4,5.7,14.9
44.8,4.6,10.4
39.3,6.6,18.9
46.8,5.7,13.2
SUPP,13.3,46.4
7.2,30.7,68
NE,5.9,18.1
6.7,32.7,72.5
45.8,6.4,16.9
43.4,4.5,8.6
35,7.0,22.3
38.5,6.9,18.9
43.2,5.4,12.6
44.4,5.9,15.2
43.5,5.8,13.3
39.4,6.4,19.4
2.4,28.2,66.3
54.5,3.7,6.9
40.8,6.0,16.6
51.7,6.0,15
46.8,5.3,14.9
36.3,8.0,21.3
50.8,5.3,13.5
56,5.5,13.3
54.8,4.9,9.2
46.6,6.0,14.7
41.5,6.2,16.6
SUPP,9.5,26.7
1.5,6.9,26.4
3.4,6.9,22.4
NE,8.4,23.9
50.3,3.3,4.4
39.7,5.2,12.5
54.6,4.0,6.5
49.3,5.0,10.1
NE,7.8,26.4
NE,7.7,22.3
37.1,7.5,22.3
67.8,4.4,9.3
47.9,5.5,12.3
41.1,4.9,12.3
47.5,6.1,17.1
47.7,4.7,10.2
NE,7.0,20.8
44.8,4.4,8.6
39.4,7.1,17.5
54.2,4.9,12.5
42.1,5.4,13.6
50,6.2,16.3
40.6,6.6,16.9
41.2,5.7,13.9
50.5,3.7,6.2
48.5,5.2,11.3
52.3,4.4,9.6
SUPP,9.4,25.5
52.5,4.0,7.9
43.5,6.9,19.6
SUPP,4.3,SUPP
44.7,5.1,13.6
44.9,6.0,14.3
0.9,12.1,33
NE,6.3,9.5
51.3,6.8,17.6
2,8.1,21.8
NE,9.3,25.6
41.6,6.9,18.3
39,6.0,14.5
36.3,8.2,25.5
48.8,5.2,11
34.6,9.4,28.4
49.9,4.6,8.7
41.8,4.5,9.5
NE,6.9,16.9
3.6,8.2,25.8
36.9,8.5,24.7
33.2,6.3,19.6
40.8,6.2,15.7
46.2,5.7,14.2
53.9,4.0,9.1
40.6,6.5,17.3
39.4,7.2,19.3
42.3,6.4,17.9
40.6,5.8,15.3
0.4,6.8,21.8
0.9,9.5,31.1
0.4,8.5,25.9
NE,14.7,45.2
42.3,7.2,20.9
57.8,5.5,11.2
43.1,5.4,12.8
44.2,6.0,15.5
39.3,5.9,14.4
52.8,4.4,8.1
48,5.5,14.6
39.9,8.3,23.9
48,5.3,11.4
48.2,5.9,11.4
48.5,6.1,17.1
51.9,4.5,10.1
46.7,5.5,13
42.3,4.5,9.5
0.6,10.2,31.2
NE,3.9,SUPP
NE,8.8,23.3
0.4,5.9,16.9
49.2,5.0,12.1
0.4,7.8,24.5
41,7.1,22.8
57.5,4.4,10.1
3.6,15.1,41.3
35.1,9.7,28.5
45.9,6.2,17.3
NE,7.7,22.2
51.8,4.4,11.1
30.4,6.5,20.7
54.6,4.9,9.9
46.4,4.8,10.9
44.7,5.7,15.3
40.7,7.0,17.6
41.2,7.3,22
43.4,5.6,15.2
42.8,4.9,11.3
SUPP,8.1,30.9
0.3,5.8,15.4
0.5,10.4,28.3
42.4,5.6,13.7
46.9,5.1,14.8
37.1,7.0,18.3
7.5,7.9,23
0.6,5.4,18.9
39.5,7.1,20.2
52.2,4.9,10.6
45.3,6.0,16.4
47.3,5.0,12.7
55,4.7,9.7
38.4,7.7,24.5
51.7,6.5,15.4
42.2,7.9,22.5
SUPP,11.3,33.3
7.7,8.5,25.6
NE,20.7,52.9
NE,8.6,28.7
NE,7.4,25.3
2.4,10.8,21.7
1.3,10.5,29.7
SUPP,15.1,52.2
NE,13.9,38.5
47,4.3,8.7
34,5.1,12.2
38.9,6.5,20.9
41.8,4.5,11
34.9,5.8,14.8
45.9,5.7,15.7
NE,7.6,17
SUPP,11.0,36.7
NE,12.8,37.2
NE,10.1,26.2
55.9,4.5,9.1
46.9,5.5,12.3
42.2,5.5,13.9
50.1,5.4,13
44.5,4.8,10.7
43.8,5.6,14.2
37.7,7.2,19.5
37.3,7.0,22.4
72.7,3.2,2.9
53,4.7,10.6
44.4,5.2,11.8
28.7,8.1,20.6
5.5,11.8,43.1
NE,7.7,22.1
1,9.8,31
NE,7.6,17.7
NE,8.1,23.1
4.5,36.5,70.5
NE,7.9,21.9
43.6,5.3,15.6
42,6.3,18.8
33.4,6.0,12.3
47.3,5.3,11.8
45.2,4.3,7.3
46.5,4.8,11.3
45.8,5.3,13.1
46,5.1,10.2
NE,6.6,16.8
0.9,9.2,30.1
NE,8.0,22.8
0.8,9.4,24.6
SUPP,12.4,36.7
NE,15.9,36.7
NE,6.5,17.8
NE,9.5,26.6
NE,7.8,22
SUPP,16.7,48.9
39.8,6.2,18.3
42.4,5.3,14
3.9,5.5,14.8
NE,7.8,22.2
NE,9.6,22
41.1,7.1,19.8
42.1,6.1,14.8
47.8,5.7,13
44.2,7.2,23.1
45.2,6.2,14.1
49.5,4.8,10.7
55.6,4.1,6.1
43.3,6.2,16
51.8,4.9,11.6
51.3,5.8,14.8
54.5,4.9,11.1
52.5,4.9,9.8
43,6.9,19.4
49.9,5.3,15.6
41.9,6.1,16.8
47.9,6.4,16.8
NE,11.0,27.5
NE,6.6,20
NE,9.2,29.1
13.6,19.6,64.3
8.2,15.3,50
3,8.8,15.8
2.9,4.8,10.8
NE,10.4,37.4
NE,6.7,20.8
SUPP,9.4,21.3
0.5,7.2,20.2
SUPP,12.3,31.7
11.5,8.5,22
16.8,17.2,43.9
43.7,6.3,15.9
47,6.9,15.6
45.4,5.5,14
41.7,6.9,16.4
0.8,5.5,14.5
NE,7.2,22.4
44.7,6.1,16.8
44,7.4,20.6
39.1,5.4,15.2
48,5.1,14.2
52.5,5.0,10.7
42.9,8.3,29.9
34.7,6.0,17.9
34.7,8.0,23.4
42.6,7.7,25.2
44.6,6.8,19.8
40,5.5,14.9
46.4,6.5,18.4
47.1,5.3,13.8
52.6,4.6,10
42.8,7.0,22.6
38.8,5.7,13.4
50.9,5.5,12.7
44,6.6,19.8
39.6,5.9,11.3
43.8,5.9,18.1
45.2,6.1,16.2
NE,10.5,24.1
0.7,6.5,17.2
NE,11.0,25.5
46.1,4.7,10.4
42.7,5.1,13
44.2,5.2,12.2
40.2,5.7,12.3
37.5,6.5,17.5
44.4,5.3,12.6
47.7,6.0,14.4
29.5,6.6,18.4
52.9,3.5,6.2
44.1,6.1,15.2
42.4,5.3,15.5
41.2,6.0,17.2
45.6,4.7,13
38.9,6.0,14.8
50.1,6.0,13.6
52.4,4.3,7.4
47.3,5.9,14.4
49.8,6.5,18.6
39.8,5.2,12.6
53.9,4.9,11.5
NE,11.1,32.1
NE,9.7,29.4
4.1,10.3,22.6
NE,7.3,16.4
SUPP,12.3,31.8
1.9,8.2,18.9
5.9,7.8,20.3
2.9,10.3,29.1
NE,14.1,51.5
NE,8.0,25.4
42.2,5.5,15.5
49.9,5.4,11.6
50.6,6.6,16
47.7,5.3,12.7
43.5,5.5,14.5
46.7,7.3,20.2
42.5,5.9,15.4
64.8,4.4,7.4
33.6,7.1,22.4
42.8,6.5,17.4
43.4,5.6,14.9
36.8,8.3,25.7
53,4.4,7.9
NE,7.2,17.9
NE,5.9,16.3
NE,7.0,16.2
7.8,11.3,34.1
NE,7.0,21.3
NE,8.1,29.6
NE,8.3,31.7
NE,7.6,28.3
NE,11.7,36.6
NE,6.0,16.2
4.7,5.7,16.2
2.5,17.3,45
1.2,8.9,24
NE,7.3,18.3
NE,11.7,54.5
2.5,4.8,0
9.8,11.8,30.4
47.4,5.1,13.5
47.4,5.6,12.8
46.9,5.8,14.7
45.1,5.8,14.4
45,5.8,12.8
43.6,7.0,19.2
48.2,5.0,10.5
50.4,6.5,17
44.1,7.7,20.8
54.8,5.8,13.9
46.2,6.8,16.5
47.8,5.5,12.7
SUPP,8.1,24.6
1.9,13.7,50
NE,5.6,9.2
NE,7.0,21.6
SUPP,6.0,17.9
NE,7.9,21.7
0.1,7.9,23.9
NE,8.9,28.8
44.6,5.1,12.1
31.8,5.8,14.5
38.8,6.7,17.3
49.2,5.5,12.4
41.4,7.1,21.6
40.7,7.2,20.4
48.3,5.1,12.3
26.8,6.3,15.7
55.9,4.8,11
46.5,6.5,16.4
48.6,7.1,22.4
54.7,4.3,7.3
52.5,4.8,12.3
9.6,23.6,66.7
1.3,11.9,28.1
SUPP,9.3,31.2
4.2,20.7,63.5
NE,7.1,23.3
54.6,5.2,12
53.7,6.0,15
38.3,6.2,17.2
53.7,5.4,13.3
54.8,5.1,11.9
45.4,5.0,12.9
49.9,5.4,11.8
49,5.8,12.6
45,6.1,15.1
49.2,5.1,13
53.7,7.3,18.1
51.6,5.3,10
43,7.5,20.7
47.6,5.9,13.5
51.5,6.2,13
54.2,4.5,9
SUPP,9.7,SUPP
4.5,44.7,81.5
NE,8.8,21.2
NE,13.4,51.1
NE,8.1,24.3
NE,7.5,15.9
44.4,5.3,13.3
51.4,4.7,9.5
52.4,3.6,5.8
49.6,4.6,9.7
50,4.3,8.8
4.2,7.4,22.5
NE,6.9,19.2
NE,8.8,35.7
NE,8.3,20.8
NE,9.9,28.9
NE,9.8,22.7
44.8,6.8,19.9
43.4,6.3,20.1
43.7,6.3,16.3
40.1,6.0,17
40.5,7.1,21.2
SUPP,13.5,60
0.1,8.6,32.4
NE,8.3,25.3
SUPP,8.1,25
6.1,6.7,16.1
37.7,4.9,11.8
49.3,5.5,14
59.7,4.0,6.7
45.7,5.3,13.3
56.2,4.4,8.8
48.5,5.6,12.5
38.1,5.6,14.2
52.8,6.0,14.5
46.7,6.0,16.9
41.1,6.0,13.6
48.6,4.9,11.3
40.7,6.4,17.9
43.4,6.1,17.6
43,5.5,16.4
43,6.6,17
45.1,4.3,9.9
38.1,6.4,16.5
48,5.2,12.6
58.9,4.2,9
47.5,6.3,16.5
53.5,5.6,12.6
46.2,4.9,13.1
40.5,4.8,11.5
44.3,4.6,11.5
43.1,5.2,11.5
41.1,5.2,13.1
39.2,5.6,15.8
47.7,4.9,9.5
40.5,6.4,16.8
39.8,6.5,18
39,10.5,34.3
50.2,5.0,12.1
41.3,6.2,17.9
33.6,9.4,27.6
48.2,5.3,13.7
57,4.8,11.3
47.1,6.3,14.3
36.6,9.6,31.3
39.8,6.2,18.2
52.1,3.7,7
48.1,5.4,12.9
52.6,4.8,9.6
41,5.8,15
50.8,4.1,8.9
42.4,7.0,19.8
53.7,4.1,7.7
0.7,8.1,23.5
8.2,11.3,27.6
SUPP,5.9,18.2
NE,12.9,37.7
SUPP,8.0,23
3.7,6.2,20.7
NE,10.4,37.5
SUPP,11.6,35.4
0.6,22.6,58.2
NE,14.7,29
4.9,6.9,18.1
5.4,10.8,28.6
9.9,8.3,21.8
7.3,7.2,19.2
43.1,7.9,23.3
40.6,7.0,20.7
35.9,7.3,20.7
41.1,6.0,16
46.2,5.6,15.3
46.8,5.3,14.5
55,4.1,5.8
47.7,4.1,8.6
NE,6.6,16.2
NE,6.9,24.5
NE,7.9,21.4
SUPP,12.9,41.3
48,5.3,11.2
52,4.8,10.5
36.8,7.2,18.4
44,6.9,17.1
42.3,6.2,15.7
44.7,4.6,10
45,5.8,13.8
45.2,6.5,18.1
41.8,5.7,13.4
48.2,5.5,15.3
51,6.3,15.9
56.3,3.3,4.5
51.7,6.5,18.5
51.9,4.4,8.3
52.8,5.1,10.7
NE,8.9,28.6
0.4,7.3,21.5
0.4,9.7,29.7
0.1,10.6,31.1
NE,8.0,20.2
10,25.6,58.3
4.6,11.7,43.1
SUPP,10.5,33.3
NE,10.8,29
SUPP,8.2,28.2
SUPP,11.3,36.1
NE,8.4,22.1
7.8,9.3,32.2
11.9,25.8,59
NE,12.1,33
54.5,5.5,12.8
44.1,5.5,16.2
43,5.7,16.7
47.1,5.9,16.3
41.8,5.5,16.4
47,5.7,14.7
45.1,5.7,15.1
48.2,6.2,16.8
42.9,7.0,23.4
47.5,4.0,8.8
0.4,4.7,8.6
13,15.7,47.4
NE,10.8,30.1
SUPP,9.2,30
2.1,5.8,13.2
0.2,6.5,14.3
SUPP,8.3,29.7
NE,7.3,22.8
41.1,5.5,14.7
43.2,5.2,12.2
73.8,4.1,7.5
60.9,5.4,12.9
39.2,5.7,16.8
62.8,5.2,12.8
35.2,6.0,15.9
65.5,4.7,9.4
69.7,4.9,9.6
68.3,5.3,12.8
76,4.4,8.6
35.8,6.6,19.5
37.3,6.0,18
69.6,5.6,18.8
36.9,5.9,15.5
37.8,10.4,32.8
35.8,9.2,29
41.4,5.2,14.9
39,4.0,8.2
37.2,5.7,15.8
56.4,4.5,9.7
42.5,6.0,17.3
9,13.8,42.6
SUPP,21.6,56.3
3.2,20.9,64.1
0.7,12.6,48.4
6,8.3,25
1.6,13.7,40.9
NE,10.0,28.5
NE,11.5,28.4
7,28.1,57.5
0.5,8.8,26.5
2.8,12.2,39.5
2.3,16.7,39.8
NE,10.3,29.1
16.2,7.7,20.6
SUPP,8.3,23.1
NE,9.5,25.7
NE,10.5,28.1
7.4,17.0,39.2
NE,8.2,25.8
15.1,14.5,49.3
40,4.6,12.3
45,6.0,17
47.9,4.8,10.8
33.8,9.2,29.5
43.8,6.0,18.5
39.5,7.5,18.6
48.2,5.7,15
41.5,6.0,18.1
44.2,5.8,15.2
31.5,7.1,20
44.9,5.2,14.2
46.7,5.2,13.8
46.4,4.8,11.4
42.7,5.4,14.2
57.8,3.3,4.9
40.7,6.1,17.3
55.9,3.6,5.7
49.6,4.4,9.3
38.4,7.3,21.4
34.5,7.8,20.2
42.7,5.3,11
37.4,6.5,18.9
52.1,3.8,8
54.7,3.4,6
40.2,5.6,14
35.3,4.0,8.9
38.6,6.8,19.3
44.5,5.2,14.3
40.2,6.1,13.8
49.8,5.0,10.6
48.1,4.1,9
37.8,5.6,16
48.9,6.0,14.5
48.2,5.2,12.3
53,5.2,11.1
40.9,5.1,13
40.5,5.4,11.8
47.4,4.7,10.1
48.2,5.4,15.6
50.3,4.5,10.7
54,3.7,5.1
51,3.7,6.8
41.5,5.2,13.4
47.5,5.5,16.2
56.8,4.0,7.4
43.3,4.8,12.8
NE,7.4,25
SUPP,13.1,47.4
4,27.8,64.6
NE,12.6,42.4
SUPP,7.2,21.4
11.6,23.8,66.7
1.4,8.0,21.9
0.7,6.8,18.9
NE,7.2,18.4
0.4,6.1,17.7
2.8,9.4,28.6
SUPP,8.0,22.4
NE,10.1,26.1
NE,6.3,23.3
SUPP,9.4,29.2
10.1,16.3,55.1
SUPP,4.8,10.3
5.2,11.6,32.3
42.9,5.2,12.6
45.8,5.3,14.4
50.4,6.0,14.3
45,6.1,14.9
48.3,4.4,10.2
43.9,5.9,15.4
44.3,6.1,14.9
40.1,6.4,15.7
7.5,7.9,23.9
NE,8.6,23.3
NE,7.7,25.3
13.3,13.3,31.8
63.8,4.6,9.9
40.6,6.4,18.6
62.9,4.6,13.3
NE,5.5,13.6
NE,13.3,45.6
SUPP,9.7,24.7
39,6.1,16.4
51.1,5.1,13.3
0.2,9.1,30.4
0.5,8.6,23.8
SUPP,7.1,24.6
NE,5.9,16.7
SUPP,8.6,25.7
SUPP,18.3,44.9
NE,5.2,13.5
SUPP,3.9,7.5
NE,9.7,26.5
38.4,4.7,11
52.4,6.2,15.1
47.4,7.3,21.6
45,6.6,16.5
41,6.2,16.3
47.4,5.8,14.3
50.2,5.7,13.2
52.8,6.4,15.4
30.8,8.8,24.8
35.5,8.5,24.6
44.6,6.8,17.8
38.7,5.3,15.3
49.3,5.6,14.9
52.4,4.9,11.4
44.3,5.7,17.2
50.3,4.7,14.1
72.5,4.7,9.2
47.6,4.4,8.8
48.8,6.3,14.1
42.2,6.1,13.8
45.4,5.0,13.1
48,5.2,9.8
47.7,5.0,12.5
58.8,3.7,6.3
71.5,4.8,10.6
57.7,4.9,9.6
44.1,5.1,12.1
51.6,5.9,13.1
14.1,11.7,25
23.4,14.8,38.5
NE,10.1,25
SUPP,9.2,26.5
NE,6.4,16.2
SUPP,7.7,21.6
SUPP,7.4,25
2.5,7.6,22.7
3.2,13.8,46.4
48.2,5.3,12.4
50.4,4.7,8.4
7,21.5,65.1
41,4.9,9.5
48.8,6.1,15.4
51.6,4.8,10.4
44.3,6.0,14.3
45.5,5.7,13.3
46.2,6.8,17
4,5.5,21.6
NE,9.3,21.8
SUPP,6.3,23.5
1.3,7.8,22
SUPP,21.0,48.1
46.6,6.0,15
NE,14.7,61
SUPP,16.3,44.9
NE,11.0,37.9
NE,8.2,28.2
4,14.9,36.2
NE,10.5,28.8
0.8,7.1,21.3
NE,5.2,20
42.5,7.3,17.2
33.3,13.3,23.3
17.9,4.9,SUPP
SUPP,7.4,20.7
SUPP,6.3,19.7
NE,6.8,15.5
NE,11.3,41.3
SUPP,8.1,28.6
0,9.9,32.3
6.3,38.0,78.6
52.2,5.4,13.7
44.6,4.3,8.8
43.8,6.4,17.9
61.8,2.9,4.2
13.1,25.2,56.3
0.4,7.1,20.6
NE,7.5,20.4
46.6,5.5,12.7
38.7,4.8,14
40.9,6.5,18.7
40.1,7.4,21.9
45.1,7.0,16.7
46.6,7.1,17.1
NE,4.4,9.7
5,24.4,59.7
0.5,6.7,21.7
SUPP,15.1,37.9
NE,3.9,SUPP
SUPP,8.4,30.8
34,6.2,17.9
43,4.9,10.5
39.9,7.0,23.5
35.4,7.0,20.1
43.5,5.9,14.5
49,5.3,12.5
44.6,5.0,11.9
49.9,5.3,12.2
54.7,5.5,12.7
54.5,4.0,7.1
38,6.1,18.4
42.4,6.9,19.6
37.8,7.6,22
41.5,6.2,15.1
7.3,16.2,51.1
NE,6.2,20.9
0.1,11.9,37
NE,11.0,33.9
3.5,9.1,22.8
NE,9.1,23.4
4,9.9,29.5
46.8,4.7,11.9
48.7,5.7,13.3
47.9,5.1,11.1
51.6,5.1,14.1
NE,8.9,32.3
SUPP,9.4,24.6
NE,8.2,32.1
SUPP,7.1,20.2
50.1,6.8,17.1
51.1,5.4,11.9
49,5.8,18.4
46.2,5.4,14
59.2,3.3,5.2
61.9,3.5,6.6
58.3,5.1,9.7
51.8,6.5,17.1
42.8,7.0,18.4
52.1,3.4,4.6
47.7,5.0,11
57.5,3.8,6.8
NE,7.3,17.9
NE,9.2,41.7
16.4,5.1,7.9
SUPP,8.6,13.5
30.6,8.5,16.9
17,8.6,18.8
2.2,7.9,25.5
NE,8.4,27.1
SUPP,10.9,38.7
NE,8.6,23.9
SUPP,9.5,26
NE,6.6,16.1
2.6,7.4,25.2
1.9,9.8,24.6
48.3,5.9,16
45.5,6.3,17
42.8,6.4,15.4
12.3,9.4,21.7
NE,6.3,13.5
54.5,4.4,9.7
45.2,6.2,15.2
55.8,4.3,8.6
49.4,5.4,13.9
40.6,6.2,16.9
36.8,6.3,15.6
43.9,6.9,18.8
46.5,5.5,13.9
46.4,5.4,11.7
52.7,4.7,11.7
48.3,5.7,14.4
47.4,4.9,12.4
49.2,5.8,14.4
56.4,4.3,9.6
41.3,5.9,16.9
48,5.0,11.9
48.9,5.1,15
44.2,4.7,11.7
56.2,4.3,7.6
24.3,5.7,20
NE,8.6,21.4
2,9.9,31
NE,8.4,24.6
2,9.9,28
SUPP,10.6,28.2
11.1,17.9,41.3
45.6,5.7,14.7
43.4,7.1,21.8
43.6,5.6,13.9
NE,5.7,13
NE,6.6,13
11.3,19.4,55.7
SUPP,9.1,26.2
SUPP,8.4,17.3
1.4,23.3,51.1
5.9,25.9,56.5
4.2,20.8,62.9
1.2,30.1,56.7
45.6,5.1,10.8
56.5,3.2,5.8
34.9,7.4,22.4
NE,8.1,25.1
46,6.0,15.5
53.1,4.9,11.8
54.6,4.7,9.8
NE,7.5,18.2
NE,8.7,27.5
NE,8.2,21.1
NE,7.8,18.8
3.7,25.4,66
44.5,5.8,16.4
41.5,6.5,18.5
0.9,9.5,33.3
NE,8.2,23.2
NE,9.0,28.7
6.3,21.8,57.9
NE,10.0,34.4
NE,9.2,23.1
51.9,6.9,21.1
8.5,14.2,34.7
39.6,6.5,21.1
53.4,4.9,10.2
NE,8.3,30.1
SUPP,5.0,7.8
46.3,5.0,13.5
2.6,35.2,63.3
5.6,8.5,16.5
NE,9.2,29.7
40.1,5.8,16.1
0.4,5.3,10.7
6.8,11.3,24.3
NE,9.6,29.3
SUPP,7.0,20.7
6.8,22.4,57.5
38,7.8,21.3
48.2,5.3,13.6
35.1,9.2,26.9
38.4,7.4,21.7
8.4,27.0,59.7
57,4.3,8.8
53.4,4.7,12.1
NE,11.6,37.4
44.8,7.0,19.9
45.6,7.6,22.8
42.6,8.2,25.5
37.2,4.5,9.8
SUPP,9.8,33.3
48.4,3.6,6.9
3.5,24.3,73.5
4.6,29.6,70
40.8,6.2,15.3
38.6,7.3,18
49.3,5.0,12.8
7.8,11.6,39.7
42.3,5.6,14.5
43.5,6.4,15
0.3,10.5,32.3
NE,4.7,11.2
NE,10.4,30.7
49.2,4.8,11.9
NE,6.7,19.6
47.4,4.7,9.9
NE,10.1,25.8
0.5,6.5,17.1
6.9,31.3,73.8
53.1,5.4,12.7
42.6,4.5,9.6
51.8,4.1,8
51.9,4.8,11.4
3.9,32.5,68.2
45,6.8,17
NE,6.0,13.9
39.6,5.7,15.6
44.2,4.8,12.2
37.8,8.0,24.6
54.8,5.1,13.8
NE,14.7,30.4
28.8,12.8,40.6
37,6.4,19.9
51.8,5.2,12.6
5.9,9.1,25.2
4.7,8.4,23.6
NE,9.6,36.2
49.3,5.6,14.6
39.5,5.3,13.6
7.5,22.7,54.5
55.9,5.2,9.3
SUPP,12.5,36
45.6,5.2,14
NE,9.5,22.5
62,5.3,11.9
41.1,6.7,19.4
SUPP,16.5,57.1
SUPP,9.9,19.4
34.9,7.7,23.5
6.3,33.0,63.8
44,5.5,14.1
44.3,5.4,12.8
4.8,13.7,33.3
NE,11.9,26.7
3.3,18.4,50.6
41,5.7,9.4
44.7,6.5,18.3
42.7,6.5,20
39.9,8.5,25.9
41,4.9,14.5
41.2,4.4,8.6
43.8,8.5,26.9
NE,11.6,31.3
48.1,4.9,10.7
NE,7.3,23.4
36.7,8.0,26.4
53.4,5.5,13.6
40.5,6.1,17.1
13.8,17.1,42.1
1.8,28.0,70.6
7.8,8.4,21.5
40.9,6.6,20.2
4.6,11.9,36.6
3.5,8.3,26.6
60.6,3.4,7.2
0.4,11.1,20.4
0.1,9.7,30.4
51.9,5.0,9.4
10.3,15.8,54.2
48,5.2,13.1
45.2,5.7,13.6
NE,8.8,23.6
0.2,11.5,31
3.6,12.9,33.2
SUPP,9.6,32.4
NE,12.4,25
SUPP,25.2,83.3
41.3,5.6,14.2
0.7,9.0,22.7
16.3,8.2,22.6
NE,7.2,24
46,4.9,10.4
36.4,7.7,22.2
47.4,3.8,7.4
40.1,6.2,17
23.9,8.5,20.8
42,5.7,13.6
44.8,5.7,15.1
45.8,6.2,19.2
43.5,7.3,22.9
40.7,7.2,18.5
NE,8.4,24.5
0,7.6,20.2
48.1,4.8,14.1
44.4,6.0,16.6
45.3,5.1,12.2
41.5,5.0,13.3
48.6,4.5,9.8
55.9,3.7,7.2
39.5,5.8,12.6
46,5.2,12.7
45,4.9,11.5
61.2,3.9,6.4
0.2,6.0,19
37.5,6.0,13.9
8.5,29.0,57.3
1.8,9.4,27.6
41.1,5.9,16.3
NE,8.1,21.5
NE,9.1,28.7
44.8,4.5,10.1
58.5,4.4,9.4
43.7,5.5,13.5
42.7,4.4,10.6
43.4,5.2,11.5
48.5,4.8,11.3
NE,8.1,27.9
35.5,8.0,22.9
38.5,6.1,17.7
47.6,5.7,14.1
53.3,4.1,8.2
42.1,5.5,13.3
44.8,6.4,20.8
33.9,7.0,20.2
37.7,5.8,15.9
4.4,38.2,85.4
57.2,4.2,8.1
43.9,6.0,16.6
39.5,5.0,14.8
42.1,5.6,13.6
57.8,2.9,6.6
56.8,3.8,8.1
44.2,5.9,15.9
45.2,5.3,11.8
38,7.6,24
5.9,23.3,75.7
NE,8.1,23.5
44.8,5.0,13.4
44.2,7.0,18.9
36.1,7.3,19.3
43.8,8.1,24.3
33.5,7.9,24.5
3,30.9,79.6
35.1,6.6,19.8
31.7,5.8,15.9
48.5,3.9,7.8
1.7,13.2,33.8
36.6,6.9,18.9
35.3,8.3,26.3
62.3,3.6,6.4
39.1,6.8,16.9
53.5,5.8,14.1
NE,10.5,34.3
SUPP,21.7,62.3
NE,7.5,16.3
1.2,5.3,10.4
SUPP,10.8,38.5
48.7,5.8,14.9
36.9,5.0,11.3
40.7,6.6,18.6
57.7,4.7,11.3
NE,14.1,44.8
56.4,5.6,16.3
42.4,5.8,15.7
56.7,6.2,22
42.4,6.1,15.9
38,7.0,15.7
45.8,4.1,8.2
41.1,5.9,14.2
33.6,8.0,25.1
39.6,7.2,24.2
39.7,5.9,16.4
50.7,4.5,10.4
45.4,4.5,8.5
39.2,6.3,16.3
36.9,7.3,23.1
38.7,7.4,19.8
38.9,6.2,19.8
40.1,6.1,17.4
48,4.8,10.7
50.8,4.5,11.1
43.1,4.5,8
40.6,6.6,14.3
44.4,5.2,11.2
48.4,4.4,8.1
43,5.6,13.7
49.3,4.8,10.9
40.1,5.7,14.4
34,8.3,25.7
43.9,7.1,18.2
37.5,7.0,21
36.1,7.0,18.8
45.5,6.6,15.9
43.3,6.1,17.7
31.4,10.0,29.8
53,4.6,9
48.1,4.8,9.8
32.7,12.3,34.3
39.2,6.8,18.1
41.9,6.4,17.4
38.8,6.5,16.9
61.9,5.7,12.7
46.8,5.5,14.3
35.8,6.7,20.8
48.4,5.1,14.6
42.4,7.6,20.4
44.4,4.1,8.4
0.7,6.6,20.3
38.9,4.5,10.3
35,6.4,18.6
SUPP,14.1,57.8
SUPP,9.4,36
52.4,4.2,7.6
42.5,8.2,22.1
SUPP,6.8,18.9
28,6.5,14.1
9.5,16.3,56.4
47.8,5.1,13.9
42.8,5.3,15
47.2,5.2,14.3
44.4,5.4,12.3
38.1,6.7,17.1
36.9,7.8,24.3
37.5,5.4,12.5
47.6,4.9,11.3
39.7,9.3,24.3
43.5,6.3,17.7
39,5.8,15.1
36.5,7.9,25.2
44.3,7.0,20.1
33.3,6.2,15.7
34.8,8.3,24.8
60,4.1,8.8
40.6,10.2,27.8
42.5,5.2,11.7
34.2,7.3,24
42.2,6.9,19.1
35.6,9.1,24.5
39,6.9,19.2
41,5.9,17.7
43.1,6.1,16.3
44.7,5.9,18.4
33.5,7.7,22.5
42.5,4.8,12.4
42.5,5.2,12.9
42.7,5.4,15.2
33.4,10.7,33.5
43.4,6.7,19.5
48.2,5.7,15.5
36.4,6.4,16.9
50.2,5.5,14.8
53.1,5.3,12.9
41.8,8.9,24.6
38.4,5.0,11.7
40.8,9.1,25.3
48.4,5.1,10.4
43,5.2,13.4
43.5,5.6,15.1
46.4,4.2,7.9
47.9,5.2,12.9
40.6,5.8,15.8
45.1,3.0,7
44.7,5.4,14.9
39.1,8.0,26.3
35.4,6.9,20.7
37.9,5.3,14.4
42.9,5.5,14.1
36.7,6.8,19.6
43,6.6,19.3
45.4,7.6,23.8
43.3,8.2,23.7
42.4,6.3,18.2
44.5,6.7,19.5
42.4,6.4,19.5
41.9,3.9,6.8
52.7,5.0,11.3
41.6,5.2,11.5
43.2,7.4,20.8
38.3,6.7,20
39,4.9,12.6
35.8,6.5,21.3
NE,8.8,28.8
42.1,5.5,13.6
32.2,7.6,20.7
43.1,6.9,17.6
41.3,7.3,20.7
43.5,4.6,8.7
44.3,5.0,10.8
43,5.3,13.7
42.1,8.2,23.8
38.6,6.3,17
46.7,4.9,10.6
36.9,9.2,29.3
44,5.6,14.9
32.7,7.5,25.1
50.5,6.4,18.7
40.8,7.5,24.2
37.2,6.7,19.4
43.1,6.0,13
34,7.4,21.9
26.4,8.2,27.4
34.7,6.4,19.7
41.4,9.2,27
32.8,8.7,26.2
51.6,4.2,6.9
47.5,3.3,7
30.9,6.9,21
39.5,6.7,18.4
39.1,7.7,19.6
43.9,7.8,19.8
47.9,6.9,16.7
49.8,5.5,11.4
43.3,7.3,22
36.4,7.5,20.4
42.5,4.9,12.7
40.2,9.3,26.8
39.1,6.9,19.9
36.5,5.2,11.1
26.5,10.5,33.1
43,6.0,18.5
40.5,7.4,20.4
36.1,6.0,17.4
44.2,4.9,12.3
40.5,8.2,24
42.4,5.3,13.1
33.9,7.5,22.5
51.3,4.2,9.4
41.7,5.4,12.1
34,7.9,26.9
NE,8.5,24.8
48.1,5.6,14.4
50.8,4.7,11.9
58.7,4.2,6.6
50.5,5.0,12
53,5.4,14
77.3,3.1,3.6
54,4.4,8.3
66.3,4.1,7.1
53.2,3.9,6.8
54.9,5.5,13
52.3,4.5,8.9
36.2,8.5,26
33.4,4.7,12.1
72.9,3.8,5.5
42.4,6.0,17.8
57.3,3.3,5
71,4.0,7
84.6,2.8,2.2
50.7,4.6,10.4
56.7,4.6,9.8
47,6.0,13.4
45.7,6.4,16.8
50.6,5.1,9.8
70,3.4,3.2
60.5,4.8,10.3
58.4,3.5,6
42.9,5.5,14.4
37.5,9.2,27.3
39.7,6.0,15.9
62.6,3.7,6.4
75,4.1,6.8
49.6,4.9,11
61.5,4.3,8.1
54.9,3.9,5.4
60.9,3.9,5.7
50.3,5.5,15.2
69,3.3,4.3
64.9,4.9,10.7
39.6,7.2,23.2
51.5,4.7,8.7
69.8,4.2,7
43.7,4.9,11
57.6,3.7,5.6
37.8,6.9,17.9
48.7,4.7,10.5
55.8,3.7,4.9
46.5,5.0,10.6
58.6,3.7,6.9
68.8,2.7,3.3
51.6,4.4,7.9
51.1,5.3,11.7
65.2,3.8,6
57.4,4.0,9.1
51.5,3.8,6.4
37.3,7.1,17.7
51.8,4.3,9.9
45.6,5.9,15.5
37.1,6.4,17.2
72.9,2.8,2.6
53.2,5.0,11.5
81.4,3.9,4.7
50.8,4.4,9.5
57.1,4.5,10.1
45.8,5.7,14
74.3,2.6,2.9
54.2,3.9,7.5
50.3,5.3,12.4
81.7,4.1,9.1
52.8,6.5,19
70.5,3.9,5.5
70.5,2.9,2.5
54.6,4.2,8.4
43.9,5.2,15.4
73.1,4.0,6.1
75.2,3.5,3.9
62.9,5.4,13.4
42.3,5.2,11.8
52.5,4.8,10.8
42.1,5.0,11.2
68,4.7,7.9
55.3,4.6,8.4
74.9,3.7,4.1
76.3,4.7,9.8
54.1,4.7,11.1
47.3,7.6,24.1
58.6,5.0,11.1
63,4.3,16
48.7,5.3,11.2
37.7,6.2,15.9
38.2,7.3,18.9
45.1,5.1,11.7
48.6,4.8,11.5
43.8,5.8,14.3
23.1,9.5,32.1
38.1,6.9,20.8
80.1,3.8,9.2
43.8,6.4,17.5
52.9,4.7,10
57.2,4.4,9.6
76.3,4.2,8.2
52.8,3.9,5.6
75.2,4.0,8.6
71.9,3.4,3.5
41.6,5.8,14.2
NE,7.2,21.5
43.6,6.4,17
40.7,7.7,22.5
53.2,4.5,8.6
73.1,3.4,5.8
72.6,4.1,8.3
84.7,2.9,3.1
83.9,2.7,1.4
42.2,5.8,15.9
53.1,4.7,10.9
40.7,5.9,17.4
51.9,4.3,9.1
72.5,3.7,5.2
44,6.2,15.8
78,3.8,4.3
48.7,5.5,12
60.7,2.9,3.2
48.4,5.9,14.8
60.8,4.3,7.4
41.5,5.9,15.1
39.2,5.9,14.8
45.5,5.4,15.2
48.8,5.4,14.4
53.2,4.6,10
49.6,5.1,9.2
51.3,4.2,8
27.8,4.5,10.3
61.1,2.9,4.3
30.4,7.0,19.4
33.7,5.7,19
55.2,5.0,10.1
65.2,3.3,3.2
48.8,6.2,15.4
75.2,4.0,7.6
51,4.3,7.7
51.8,5.1,10.5
76,2.8,3.4
44.2,4.1,9.1
48,6.3,14.4
43.3,5.8,12
68.8,4.0,6.6
55.2,5.1,10.5
72,3.5,4.5
75.4,5.0,7.7
63.3,4.3,7.9
35.1,6.0,15.5
59.5,4.6,7.8
73,4.5,6.7
45.5,6.7,16
78.3,3.4,5.9
52.1,4.5,8.9
48.1,6.0,16.2
55.1,4.7,9.7
73.5,3.2,3
54.3,4.3,7.4
47.4,6.0,16.4
48.7,6.0,14.7
48.6,5.4,12.8
50.6,4.8,12.4
44.7,5.3,13.6
50.4,3.6,5.7
62.6,3.7,5.9
46.4,5.0,10.8
56.3,4.9,9.6
36.5,6.1,19.6
44.5,3.9,8.2
44.6,5.4,12.5
49.4,5.4,13.2
54.6,4.3,8.2
45.4,5.0,12.7
47.4,6.3,13.9
80.2,4.7,17.3
72,4.0,5.7
46.6,5.2,14.5
40.8,6.2,18.5
49,5.6,14.7
46.5,5.7,14.8
47,6.6,15
46.6,6.4,17.7
46.1,5.0,12.4
44.5,6.6,17.2
61.5,5.1,10.4
20.5,10.8,36.9
50.4,4.5,8
53,4.5,9.6
46.9,6.1,15
42.2,5.7,13.8
39.4,5.4,16.4
48.6,3.4,5
69.3,3.0,4.3
48.1,5.0,10.6
55.4,5.2,11.5
45.1,5.5,11.9
72.2,2.7,3.3
36.3,6.5,17.6
39.3,5.9,16.1
63.5,4.6,7.7
48.9,4.8,9.4
51.9,5.3,11.2
74.1,3.6,4.3
45.9,6.1,16.7
56.5,4.1,8.2
53.2,4.3,8.3
53.2,5.0,12.6
59.2,3.7,6.3
72.6,4.4,7.8
60.5,3.9,6.1
54.2,4.3,7.9
45.7,5.8,15
42.3,6.5,17.8
58.6,4.2,8.3
46.3,6.2,16.9
50.5,4.6,11.7
63,3.8,6
52.1,4.4,7.7
49.6,5.4,12.4
41.9,6.7,16
38.3,7.1,18.2
39.9,7.1,21.6
85.1,3.1,2.3
45.2,4.7,11.7
55,4.5,10.3
48.3,4.9,12.4
45.2,5.9,15
82.9,2.2,1.1
73.3,3.4,3.9
44.2,5.2,13.2
51.4,4.1,8.1
55.7,5.0,10.5
38.3,7.0,20
53.8,3.4,3.9
62.2,2.9,3.8
50.1,3.8,7.5
56.5,4.4,8.8
49.2,6.1,15.1
48.4,5.2,11.7
50.1,5.5,14.9
59.3,4.9,10.2
57.7,4.5,8
44.2,5.8,13
45.3,6.7,17.3
52.6,5.9,15.9
82,4.0,7.9
54.8,4.9,10.6
53.4,4.8,8.8
57.1,5.6,14.9
45.1,5.9,14.4
46.9,4.4,9.3
50.1,5.2,10.3
43.9,7.0,11.4
46.5,5.6,13.1
42.4,7.2,20.5
52.9,5.0,11.7
50.4,5.1,11.7
57.4,4.9,10.7
50,4.6,12.1
51.1,6.1,15.1
66.5,3.5,4.6
49.7,5.2,13
71.2,3.8,6.6
75.9,4.4,10.1
54.5,5.0,11.8
40.4,6.2,18.3
56.1,4.2,8.7
50.1,5.1,10.8
53.4,5.6,13.1
53,4.8,9
45.4,4.9,12.3
49,5.7,13.7
51.1,4.9,9.7
39.4,6.8,19.8
41.5,6.9,19.9
45.7,4.5,9.8
46,6.4,18.8
56,4.4,9.6
51.5,4.7,10.1
61.1,4.4,7.3
39.8,6.0,15.7
51.9,4.2,10.3
48.3,5.5,14.3
52.3,4.2,9
37.2,7.6,21.3
50.6,5.3,11.5
76.3,4.7,12.8
52.4,4.7,10.7
44.8,5.3,14.4
61.7,4.3,8.4
43.7,6.3,17
43.1,6.8,19.4
50.3,5.4,13.6
53.6,4.9,12.4
64,3.4,5.3
48.5,5.2,14.2
54.1,4.1,7.3
48,5.5,13
71.4,4.6,10.1
41.2,6.1,16
61.3,7.6,20.3
40.2,6.4,18.1
47.4,6.1,16.6
47.1,5.4,13.9
44.3,6.0,16.3
48.2,5.1,13.2
44.3,5.4,13.2
66.2,4.6,7.7
44.4,4.7,13.7
44.4,6.2,12.7
70.5,5.0,10.3
48.1,4.6,11
76.4,3.5,4.1
56.8,5.3,11.5
58.9,4.5,9.3
71.3,5.0,16.4
75.8,3.7,6.6
48.4,5.2,11.4
60.5,3.8,5.4
74.3,3.9,6.2
53.3,5.9,13.7
53,6.7,17
52.9,5.2,11.5
48.5,4.8,11.7
81.2,5.1,21
68.3,4.1,7.5
79.4,4.0,8.7
47.8,6.6,18.4
80.7,4.5,9.7
46.7,4.3,9
77.4,3.3,4.1
43.5,4.9,10.9
50,5.6,13.3
61.7,3.1,4.8
46.4,5.1,12.1
52.6,4.8,12.7
42.7,6.0,17.8
34,8.2,23.8
50.5,5.4,12.3
49.8,7.2,18.1
42.5,6.5,19.4
54.2,5.3,11.8
51.1,6.4,17.3
52.1,4.3,10.1
43.7,6.0,16.5
37.4,7.0,22.1
46.2,6.1,15.1
48.3,4.8,11.1
72,4.4,6.2
75,4.8,12
45.5,5.6,14.6
42.1,5.3,13.3
72,4.4,9.6
46.4,6.7,18.1
52.2,5.4,12.1
39.9,6.8,19
53,5.2,9.3
40.4,7.1,18.5
47,5.5,11.1
47.8,5.0,12.8
54.8,3.6,7
65.7,3.6,5.7
43.9,6.2,17.7
36.4,5.6,13.8
37.9,7.0,20.5
48.2,5.5,15.3
75.7,3.5,4.7
49,5.5,13.5
36.4,6.9,20.9
59,4.7,9.3
56.5,4.1,7.3
60.7,4.5,9.6
46.6,5.2,15.2
50.4,5.0,11.2
73.9,4.8,11.1
46.1,4.7,11
56.6,3.5,5.1
62.2,4.8,11.2
49.1,5.0,11.3
60.1,3.8,8.1
58.4,3.4,4.1
47.3,5.7,12.7
34.8,10.3,31.2
50.8,5.1,11.5
50.1,4.4,8.4
53.4,3.8,5.6
65.4,4.1,7.1
53.1,4.1,9.1
61,4.8,9.9
52.6,5.2,10.7
56.2,4.4,10
48.4,4.6,9.7
59.8,5.1,9.8
54.4,4.7,9.2
50.9,5.2,11.5
49.9,4.9,11.1
50.3,6.3,14.2
77.7,3.8,6
51.9,4.7,10.1
44,5.6,11.9
46.5,5.5,12.7
56,4.3,8.4
53,4.9,8.5
46.5,6.0,15.3
44,5.3,12.9
48.6,4.4,9.1
60.2,5.2,10.2
34.8,5.8,17.6
48.2,4.4,9.3
49.2,6.2,15.6
45.3,5.9,13.7
54.4,5.3,11.8
38.4,5.5,14
42.8,4.9,14
41.7,5.0,13.6
52.5,4.8,10.9
53.9,5.1,11.1
51.7,4.4,9.2
47.7,5.8,13.2
46,4.7,11.2
57.7,4.5,8.1
38.3,5.6,15.4
47.5,4.8,10.4
48.9,5.3,13.4
52.1,5.1,11.4
57.6,4.2,5.9
50.5,4.9,9.7
51.9,4.0,8
49,5.7,14.8
45.4,5.2,12.6
45.3,4.6,11.5
43.4,5.7,14.8
45.8,5.5,16.6
48.8,4.1,7.3
41,5.8,15.9
48.2,3.8,5.2
48.9,5.3,12.6
48.8,5.4,10.7
49.7,6.6,14.9
55.1,4.5,10.1
71.2,5.3,15.7
48.8,4.2,8.3
47.5,5.5,12.3
48.8,5.6,14.3
47.1,5.7,16
53.3,4.1,7.6
50.8,4.3,7
45.3,6.3,18.2
61.9,4.9,10.7
59.9,4.8,10.9
48.9,5.5,12.5
45,5.8,14.5
47.2,3.5,7.3
41.9,6.4,19.1
43.8,5.1,11.6
52.8,5.4,14
43.4,4.8,10.4
54.8,5.4,11.1
57.2,4.4,8.7
54.9,4.2,7.3
41.8,5.3,12.6
41,6.8,17.3
49.7,4.8,10.7
54.4,5.6,12.8
43.9,5.1,10.7
54.1,5.5,18.2
71.1,5.2,11.7
79.9,3.6,6.3
82.8,3.7,5.5
76.9,4.0,5.6
75,4.3,7.5
48.7,6.0,16.2
43.3,6.8,19.3
51.9,5.4,14
53.8,4.9,10.7
52.8,5.0,11.8
48.4,5.3,13.2
53.4,5.1,9.6
45.1,5.8,13.7
50.3,5.0,10.3
52.1,5.3,11.6
42.4,7.6,17.6
44.2,4.5,8.7
34.8,6.2,18.9
43.4,7.1,20.2
37.6,8.3,23.7
42,6.4,17.2
51.2,4.7,11.9
49.9,3.9,7.5
37.3,8.4,23.7
42.7,7.1,22.6
45.3,6.0,12.6
40.2,5.9,14.6
52.4,4.1,7.8
47,5.5,12.9
60.6,3.8,6
49.7,5.8,14.6
53.9,4.2,8.8
50.7,4.0,7.5
48,4.0,7.7
73.6,3.8,6.2
49.1,4.2,9.1
51.2,4.9,10.4
51.4,5.3,14.4
39.7,7.3,22.5
52.8,6.0,17.1
67.4,4.2,6.2
45.7,6.5,18.7
53.3,5.3,11.4
47.1,6.2,13.3
40,6.3,18.1
42.3,5.6,12.6
40.7,7.6,21.3
43.9,6.1,15.9
48.6,4.1,9.2
56.1,5.3,12.7
54.2,5.0,8.2
49.3,6.1,15.7
42.8,5.4,12.9
41.6,6.6,20.3
55.3,5.0,9.7
48.7,4.4,9.4
69.3,4.4,7.6
46,5.3,13.7
50.6,6.7,16.8
52.7,4.7,9.9
53.2,5.0,10.1
46.4,4.8,11
60.6,5.3,12.6
54,4.1,7.3
41.9,7.2,23.3
43.3,5.6,14.3
37.7,7.8,23.3
57.6,4.4,8.2
47.8,6.1,14.2
44.2,4.6,9.9
39.1,5.1,14
48.2,6.0,15.2
37.3,7.1,19.5
51.3,5.1,10.3
65.1,4.3,9.5
42.4,6.0,16.9
45.1,5.0,9.6
52.2,4.5,10.5
51,5.0,8.6
44.3,5.7,16.2
52,5.2,12.6
36.2,4.9,13.8
64.9,4.0,6.6
40.4,6.4,18.5
50.6,4.5,9.6
52,4.9,8.8
71.5,3.4,5.8
54.7,3.8,6.6
44.3,9.0,25.4
42,6.0,18.6
57.5,4.5,8
50.3,5.6,12.8
45.2,3.5,4.7
41.8,6.0,17.8
42.1,7.5,21.9
46.3,5.6,13.7
39.3,6.0,14.6
37.8,6.8,19.6
32.1,7.3,22.4
48,6.0,13.9
42,5.4,14.7
43.2,6.5,18.9
51.4,5.2,11
45.3,6.4,18
45.9,6.0,16
46.5,4.9,10
48.4,4.9,10.5
41.5,6.5,17.1
43.6,6.5,16.7
40.4,5.0,11.6
58.4,5.2,13.2
47.9,4.8,11.5
45.7,6.0,10.4
48,5.4,15.1
45.8,6.8,20
78.7,5.3,15.3
53.8,5.0,10.6
48.3,5.5,12.3
41.5,6.0,15.9
41,7.3,23.2
66,4.4,6.9
42.2,5.1,11
51,5.3,12.1
49.1,4.7,10.3
46.5,5.4,11.9
57.1,5.0,9.8
78.5,3.8,6
46.9,5.3,12.4
56,5.1,10.9
52.2,5.9,14.9
45.9,5.7,12.1
45.6,6.0,15.5
71.2,3.0,3.1
41.6,6.4,16.3
65.4,3.7,4.8
44.1,5.4,12
46.4,5.5,13.3
44.8,5.7,15.1
44.6,6.1,15
55.6,4.5,6.8
48.5,4.9,11.2
46.1,5.4,13
45.5,5.6,15.4
49.8,4.8,10
47.9,4.8,10
58.5,2.9,3.5
41.8,8.5,18
61,3.6,5.6
53.8,3.9,7.4
38.5,5.6,16
56,5.5,16.5
48,5.2,13.8
44.4,6.6,19.4
51.6,4.0,7.9
50,6.6,15.9
SUPP,8.0,19
43,5.3,11.2
59.2,4.4,8.4
78.6,3.2,3.6
48.6,4.0,7.1
58.7,2.9,3.1
48,5.2,11.4
45.7,5.7,16.6
57.9,4.7,10.1
44,4.2,9.3
78.7,4.0,5.3
45.3,4.0,6.5
47.2,5.3,14
52.4,5.1,11.7
59.7,5.7,13.7
53.3,4.7,9
56.2,4.1,8.8
51.6,5.9,12.5
46.7,4.8,12.8
42.4,5.9,17.5
19.4,15.2,49.5
51.1,4.6,8.2
40.9,7.4,20.4
52.3,4.4,6.4
57,5.0,12.2
62.4,4.1,6.6
54.2,4.3,8.4
50,5.2,11.9
52.7,5.9,15.6
74.9,4.0,8.7
53.5,4.8,10.1
50.8,4.8,11.4
51.6,5.0,9.6
54,6.5,16.5
52.4,4.3,8.8
62.2,5.5,13.2
4.8,5.8,15.7
56.8,5.0,10.4
43.3,4.3,9.4
53.2,5.7,11.4
52.2,4.6,10.4
41.9,5.9,15.8
1.3,5.6,18
52.8,5.5,12.7
45.7,5.0,11.3
45.4,6.4,17.4
55.8,5.3,11.5
44.9,4.8,12.7
48.5,5.0,11.1
54.8,4.2,9.2
44.9,4.9,6
51.5,4.4,10.9
44.4,5.5,16.1
61.9,4.2,6.6
47.8,4.4,9.3
51.7,4.7,10.2
60,3.5,6.5
40.4,7.4,21.9
NE,12.6,36.5
48.7,4.4,9.7
52.9,4.5,9.5
53.9,4.6,8.1
56.9,4.0,5.5
49.2,6.4,18.2
47.7,6.8,18.7
54.2,5.5,12.7
59.2,5.2,13.8
52.5,2.9,4.4
72.1,3.2,5.1
51.4,5.4,13.3
51.1,4.5,8.8
45,6.1,14.6
0.7,7.8,22.2
52.7,5.3,10.9
1.2,8.8,24.8
52.5,4.7,9.6
46,5.6,14.5
58.7,3.9,6.3
48.9,5.7,14.7
42.7,4.8,12.5
71.8,3.7,6.8
41.1,5.9,17.6
47.8,4.8,12
52,5.8,12.5
71.9,4.1,7.2
49,5.2,13.5
46.5,4.0,7.1
51.5,5.0,12
39,8.0,23.9
1,6.0,16.7
53.9,5.4,11.6
49.1,4.0,7.1
45.8,5.2,14.1
55.8,4.3,8.5
NE,7.2,28
44,5.5,13.7
62.9,4.4,7.9
50.8,4.8,8.5
66.9,3.5,6.1
2.2,8.2,22.4
37.8,7.2,22
47.3,4.9,12.3
49.6,4.3,9.3
8.1,7.1,20.8
49.6,6.9,18.5
40.7,5.7,14
4.5,28.9,69.9
48.2,4.4,9.3
82.2,2.9,2.6
41.8,5.4,14.1
46.7,4.8,9.4
48.1,5.3,11.6
53.9,4.3,7.2
44.7,7.8,15.4
58.8,4.2,7.2
53.3,4.9,11.9
46.8,6.2,16.5
50.7,6.0,15.5
50,5.5,11.4
61.8,4.3,6.8
49.5,5.6,14.6
45.3,5.4,13.8
64,6.8,23.2
43.4,5.9,14.9
47.8,6.3,18.1
55.4,4.2,9.8
37.2,6.1,14.6
49.8,5.0,12.5
NE,7.3,25
47.1,4.7,11.4
71.5,4.9,18.4
45.8,5.1,12
52,4.2,10.3
42.8,5.3,14.6
43.8,7.0,18.6
37.1,6.1,14.5
2.2,14.8,49.4
45.6,6.4,20.4
38.9,7.8,21.2
34.6,7.8,21.7
48.1,4.7,10.3
53.3,5.7,12.7
7,6.2,18.7
49,4.3,7.5
43.2,6.4,16.1
43.9,4.0,8.6
52.5,6.7,15.9
46.7,5.2,12.3
46.7,5.5,13
49.7,5.3,12.6
41.8,7.1,16.7
52.7,6.1,14.1
56,4.5,9.4
52.9,5.5,14.1
57.5,4.7,10.2
46.1,4.6,10.1
37.2,7.2,20
47.2,4.8,11
49.5,4.9,10.9
49.3,4.2,10.8
56.9,5.5,13.3
46.5,5.4,12.1
43.2,5.5,12.5
43.9,4.9,13.7
47.3,5.0,9.8
45.1,7.1,18.2
42.5,6.1,18.6
64,4.2,7.9
42.4,4.5,9.9
40.7,5.1,11.5
32.8,8.5,29
49.5,5.6,15.4
47.3,6.2,15
56,3.3,7.8
43,7.7,22.3
46.8,5.6,14.6
33.5,7.0,19.4
44.8,5.1,11.5
44.3,5.4,13
46.7,5.0,12.6
51,5.6,13.6
42.6,5.9,17
50.2,5.0,12.4
48.3,4.9,9.5
54.7,5.2,11.9
41.9,7.6,25.4
33.6,7.0,18.6
45.7,4.3,8.9
52.7,4.8,10.8
74,3.5,4.3
53.8,5.1,12.5
52.8,3.2,4.5
53,4.1,9.3
42.6,4.0,7
47.6,5.2,12.2
42.7,5.6,13
62.6,4.0,6.6
65.6,5.0,11.2
50.5,4.8,9.2
53.2,4.6,11.8
47.2,4.7,9.3
54.5,5.7,12.1
46.9,5.0,12.3
54.1,4.0,7.9
51.6,5.7,14.1
38.9,6.6,21.2
58.2,4.7,11.7
45.1,5.1,15.6
46.4,5.1,10.2
45.1,5.8,14.5
54.8,4.9,9
50.5,4.3,11.4
73.2,3.1,4.1
48.7,6.2,14.7
48.5,5.0,12.6
43.2,4.2,8.8
49.4,5.2,12.4
53.9,3.9,7.9
44.2,5.8,13.3
43.1,5.9,12
44.4,4.8,12.6
46.7,5.3,13.2
46.1,3.6,6
44.8,5.9,13.6
47.2,6.1,16.2
38.4,4.6,9.9
69.3,3.3,4.6
47,3.9,8.2
43.9,5.1,12.1
55.5,3.8,7.6
45.8,3.5,5.8
46.6,5.9,16.6
79.7,3.7,7.3
47.4,5.7,16.3
57.6,4.1,6.4
51.1,6.2,17.1
46.5,5.5,13.3
52.9,5.4,14.9
44.1,6.0,17.5
36.5,5.9,16.5
40.8,6.0,15.8
65.8,4.3,9.2
64,4.6,9.5
NE,13.7,44
46.2,6.5,17.8
42.3,6.0,17.5
46.4,6.0,14.1
58,3.8,7.8
48.7,5.3,13.5
46.6,4.5,12.8
57.7,4.6,9.9
48.2,4.0,8.1
53.1,4.7,12.1
53.2,4.1,7.9
61.2,4.5,9.4
41.2,6.0,12.6
47.3,6.2,13.2
48.8,5.7,14.6
29.3,8.8,31.4
38,7.6,22.2
49.1,4.3,7
49.7,5.2,11
42,5.8,16
48.8,4.5,10.4
44.9,5.7,15.4
49.6,4.3,10.3
40.7,5.8,14.7
NE,8.7,26.1
49.8,6.1,13.6
41.9,7.5,22
54.7,4.3,7.7
NE,6.3,17
43.8,8.5,24.6
47.9,4.7,10.4
52.2,4.4,8.1
47.3,5.0,10.6
46.4,6.2,16.2
45.6,6.2,15.7
NE,9.2,25.6
47.5,6.0,14.8
47.3,5.4,11.6
51.4,7.0,17.5
48,5.1,12.5
54.1,4.8,11.4
55.5,5.2,12.1
55.4,4.6,8.9
3.2,8.0,22.8
78.4,2.7,1.9
43.5,4.9,10.7
53.2,6.1,11.7
55,5.4,9.7
49.4,5.6,13.8
47.3,4.9,11.7
60.1,4.1,7.1
50.3,5.4,12.5
50.7,3.5,5.8
49.5,4.9,8.9
59.8,4.1,8.5
64.2,4.3,7.1
39.1,4.9,11.4
2.8,11.1,24.1
65.1,4.2,7.1
48.4,5.7,14.9
41.5,5.9,14.3
55.4,4.2,8.1
49.4,4.9,10.1
49,5.5,10.2
44.4,5.7,15.6
42.6,4.9,12.8
47.5,5.5,13.6
48.2,5.3,13.3
36.5,4.6,12.2
40.7,7.4,20.9
46.2,4.7,10.1
43.4,6.2,19.3
46.3,6.1,14.6
47.2,4.8,10.1
58.6,5.4,12.9
41.1,5.7,15.5
47.3,4.9,11.7
44.7,5.2,14.7
54.6,5.0,10.3
45.9,4.7,10
54,6.5,16.6
40.9,8.2,20.8
36.5,5.9,15.3
60,5.2,17.7
76.4,4.3,8.9
52,5.2,10.8
47,5.3,15.4
61.5,3.7,6.4
5.5,27.0,63
56.1,4.0,6.9
50.5,6.1,15.9
46.8,5.1,10.6
45.8,6.2,14.8
63.7,4.7,11
42.9,5.1,10.5
46.8,5.8,12.9
47.2,5.4,14.2
41.7,5.8,15.6
45.7,5.8,15.3
43,6.4,17
47.1,6.0,16.1
46.5,3.6,6.5
42.2,6.5,20.1
2.7,5.1,13
40.6,6.3,18.6
85.2,4.0,5
45.1,5.2,14.3
52.2,5.3,13.8
49.2,5.1,10.9
44.1,5.0,12.6
56.1,4.3,8.8
39.1,6.8,17.4
47.5,4.4,8.7
40.8,5.3,12.1
46,7.3,19.4
54.4,4.8,11.8
44,5.1,10.3
44.3,6.4,16.6
43.6,5.6,15.7
5.6,7.6,15.9
0.3,18.9,52.3
39.3,6.9,19.5
51.4,4.3,8.6
10.9,8.6,32.5
43.8,5.3,14.1
59.4,4.8,11.7
44.8,6.7,19.5
56.4,4.4,9.9
47.8,5.0,11.9
47.6,4.1,9.5
45.3,5.4,13
40.5,10.1,29.4
NE,9.7,26.3
46.2,5.0,11.6
40.7,5.0,13.2
3.9,7.4,22.5
69.1,3.9,5.5
53.1,5.0,11.7
54.2,4.5,8
41.5,5.7,15.5
47.7,4.9,11.2
49.8,5.8,15.5
53.9,5.2,10.6
NE,7.3,22.2
NE,9.9,33.9
40.5,5.4,12.1
33.3,6.7,23.1
28.3,9.2,25.2
51.2,5.3,11.8
44.5,5.3,11.4
44.8,4.9,10.3
53.3,4.4,8.4
51,3.7,6
43.9,5.6,13.4
50.8,5.3,12.1
48.5,5.3,12.7
38.5,6.9,18.7
52.1,5.1,12
44,4.8,11.4
44.4,4.9,13.9
45.3,3.7,7.9
31.8,6.0,18
47.8,6.0,15.6
39.4,7.4,23.8
45.7,7.0,18.4
48.9,5.0,11.3
54.6,4.2,7.7
36.5,8.3,27.7
NE,16.1,36.4
55.7,2.4,2.7
47.3,4.9,11.9
36,7.7,27.4
50.8,4.5,10.5
59.2,3.4,5.7
48.8,3.8,7.8
32.8,12.0,37.7
36.8,7.7,21.1
37,7.6,19.2
32,8.8,26.5
56.3,3.7,5.6
50.7,4.4,12.4
38,6.0,16.8
52.4,4.6,10.2
49.9,5.3,14.2
42.6,6.6,20.9
59.4,4.5,8.4
9.8,16.1,56.3
52.5,4.7,12.9
32.2,7.8,24.4
54,4.3,8
52,4.7,10.5
0.6,4.2,6.9
1.8,13.2,27.7
39.4,6.0,15.4
39.2,7.9,24.3
8.3,12.6,43.3
60.8,4.0,5.1
48.1,4.4,9.4
50.8,4.5,9.7
54.6,4.3,8.7
48.1,5.5,14.1
40.4,7.2,18.3
48.4,4.7,8.8
64,3.1,4.6
45.3,5.1,11.9
45.1,5.6,14.5
55,3.8,7.8
41.8,6.8,17.8
46.5,4.1,8.5
48,5.7,12.4
50,4.6,10.9
52.2,3.5,5.5
43.2,7.3,21.5
44.2,8.7,27.3
51.9,5.0,10.3
38.7,7.2,18.7
66.4,5.4,15.6
41.7,5.4,14.1
56.7,4.7,8.8
38.3,6.0,17.8
31.3,10.8,32.6
48,6.6,17
36.9,6.3,16.2
37.6,7.4,21.8
37.9,5.7,13.5
1.8,10.2,20.4
41.5,4.8,9.5
46.2,5.8,15.9
29.7,7.7,23
31.2,7.7,25.3
37.2,5.7,17.5
14.8,8.6,18.9
38.5,5.7,17
36,6.6,18.2
33.5,8.6,28.1
40.4,5.9,16.7
55,5.4,13.2
NE,11.1,34.3
66.8,3.4,4.4
54,4.4,8.8
60.4,4.3,7.6
57.2,5.9,15.6
64.2,3.8,5.6
41.8,5.6,12.2
73.3,3.1,3.4
42.9,5.9,13.8
54.6,4.0,8.1
50.6,5.5,12.4
42.7,6.9,18.7
50.3,4.7,9.8
44.9,6.7,16.6
51.9,4.1,7.9
53.7,5.2,13.4
62.4,4.1,7.2
32,9.0,28
56.3,4.3,7.7
57.7,5.9,13.9
39.5,5.4,14.9
SUPP,9.8,23.7
54.4,4.9,11.5
52.5,4.2,8.3
51.3,4.8,9.8
39.3,5.1,14.6
44,6.6,17.5
43.4,5.6,15.8
38,6.4,19.1
32.3,6.6,18.8
54.6,4.3,9.4
46.5,5.9,13.1
52.9,7.1,16.7
44.8,4.7,10.2
NE,7.1,19.7
42.5,5.5,13.7
39.5,7.7,20.1
6.9,7.1,22.9
NE,8.1,22.1
46.6,4.1,9.8
47.2,6.2,15.1
NE,9.9,24.8
39.8,6.4,17.8
57.9,2.5,3.7
52.8,4.6,12.4
33,6.4,17.3
39.3,5.4,12.7
48.3,4.4,8.7
38.8,5.4,13.8
56.1,4.4,7.4
38.6,7.3,17.5
35.1,5.6,15.5
64.5,4.0,7.7
49.8,4.4,7.6
44.3,4.8,12.6
45.8,7.0,20.3
35.6,8.9,25
36.1,7.6,22.4
47.5,5.0,13.5
56.6,5.5,10.6
50.8,4.9,11.3
46.2,6.2,14.8
47.2,7.4,19.9
52.7,4.5,9.4
5.2,17.9,45.9
69.7,4.0,6.9
50.8,4.9,11.1
38.1,7.7,19.6
50.3,4.0,7.3
47.7,4.3,8.8
59.8,4.0,6.7
4.3,8.6,26.5
0.5,8.3,17.3
52.4,5.3,13.2
46.6,5.7,15.9
66.4,4.4,7.7
49.5,6.3,15.3
43.6,4.3,11.7
44.2,4.6,8.8
52.6,4.7,8.8
33.3,6.3,15.3
49.2,5.2,11.8
43.8,6.4,15.8
45.5,4.7,11.6
0.8,11.7,32.7
55.8,6.1,15.5
48.7,5.6,15.2
49,4.6,10
42.5,5.7,15.7
34.4,10.5,33.2
SUPP,9.1,21.7
49.9,4.7,11.1
0.3,8.3,25.4
48.3,5.1,11.5
44,5.6,12.8
57.1,3.7,7.5
57,4.4,9.5
53.5,5.4,13.3
SUPP,15.5,48.9
59.2,4.8,11.3
44.3,5.9,15.1
38.7,8.2,22.3
38.4,6.3,17.8
35.9,6.5,21
35.6,6.8,23.3
55.8,3.8,6.9
46.2,4.4,8.7
48.6,5.2,11.9
45.7,5.2,15.4
5.9,49.6,75.8
48.1,5.6,13.8
38.4,6.2,19.9
37.6,7.7,21.3
45,3.7,6.7
51.4,5.7,11.4
47.9,5.1,14
46,4.7,11
38.8,6.2,16.7
54.8,5.6,13
57,4.5,9.6
46.3,6.9,19.8
48.7,6.0,16.2
49.1,5.0,12.4
47.9,6.5,16.7
62.4,4.1,6.9
72,4.1,7.2
43.7,5.2,13.5
45.4,5.0,11.2
45.1,5.6,15.5
55.6,4.3,10.6
46.8,6.2,16.5
52,4.6,10.1
50.2,3.5,6.3
42.3,5.4,13.5
60.8,5.3,12.9
44.9,5.8,15.5
40.3,6.5,22.1
37.7,6.0,17.6
36.4,5.5,13.9
53.2,3.9,8.7
47.6,4.6,11.6
38.8,7.5,20.3
40.5,7.0,17.8
42.7,6.8,17
38,7.3,23
40.3,6.5,18.4
45.9,5.1,11.3
52,4.0,6.1
34.4,9.5,34.3
48.5,5.1,12.4
40,5.4,13.8
NE,8.5,22.8
42.5,6.5,19.2
45.9,6.0,16
45.6,4.9,10.8
43.5,5.2,13
48.3,4.3,8.6
55.5,3.6,9.4
53.4,2.5,6.6
47.9,5.0,11.8
33,11.4,31.4
46.6,6.3,15
49,5.0,10.2
34.7,6.9,20.3
46,4.0,8.7
43.6,5.2,11.4
37.5,6.9,20.3
38.6,6.8,19.3
26.4,9.5,32.5
38.2,7.1,20.4
38.1,7.0,20.7
34.6,6.7,21.1
49,5.6,12.7
40.7,6.6,16.7
47.8,6.2,18
36.8,6.4,17.5
48.1,4.5,10.2
52.1,6.1,19.3
SUPP,7.5,20.5
35.7,5.0,14.3
50.7,4.9,11
SUPP,7.5,21.6
49.7,5.2,12.5
45.2,5.2,11.6
48.6,5.1,11.5
NE,7.9,23.2
56.8,4.3,11
56.4,3.4,6
41.9,5.6,14
51.1,4.9,12.7
49.7,6.1,13.6
59.5,4.2,8.5
45.2,6.9,19.1
67.3,4.0,6.5
48.1,7.5,20.1
49.4,5.2,12.4
62.2,4.6,9.6
51.9,4.9,10.7
46.8,5.2,12.8
59.3,4.6,9.1
44.6,5.5,14.8
48.5,4.2,7.4
43.4,5.0,11.2
59,4.0,6.5
39.8,5.3,11.4
55,4.0,7.7
36,6.3,17
72.9,4.6,7.9
46.4,7.1,20.4
44.7,5.2,11.8
57.3,5.2,11
43.9,5.1,9.8
41.2,8.9,26.4
41.7,9.0,28.7
43.4,5.5,13
44.3,5.8,17.2
39.1,6.7,15.9
SUPP,16.3,54.3
46.8,6.3,14
33.3,6.0,15.2
42.1,6.5,16.7
35.3,6.2,15.9
45.5,6.7,20.2
31.3,9.0,24.7
46.8,6.3,15.9
45.5,4.6,11.3
46.7,4.7,11
55.2,4.2,8.8
34.6,8.4,23.3
59.2,4.3,7.3
44,5.9,12.8
45.7,5.3,13
NE,7.3,17.3
7.8,15.0,41.7
51.9,5.3,12.2
48.8,5.1,11.7
SUPP,6.5,17.8
36.3,5.4,12.3
45.5,5.7,14.9
43.9,4.6,9.1
48.5,6.9,17.2
56.6,4.6,8.6
51.3,4.3,9.8
37.4,6.2,17
53.6,6.3,17.1
40.4,6.1,17
52.9,4.1,8.8
51,4.2,7.1
2.3,7.3,20.5
42.5,6.2,14.5
37.5,7.3,21.8
45.6,5.1,13.3
45.2,5.5,15.1
42.1,5.7,13.8
45.4,8.1,25.5
52.3,5.6,13.9
51.8,5.8,14.7
51.3,5.9,13.9
33.5,12.7,41.1
5.6,11.5,SUPP
27.1,14.9,51.2
51.7,4.9,10.7
NE,8.5,29
53.2,4.4,9.2
37.4,5.8,12.8
NE,8.6,18.3
30.2,8.7,25.7
NE,8.6,24.2
44.7,5.9,14.2
47.3,5.6,14.9
46.3,4.9,13.4
48.6,5.5,14.7
SUPP,12.0,36.4
40.1,7.5,24.1
46.2,5.0,11.8
31.8,8.9,29.2
50.4,6.1,15.2
2.1,6.2,15
43.6,6.6,18.8
42.1,7.3,21.8
51.2,5.9,13.5
42.7,5.8,17.3
38.6,5.9,17.4
46.3,6.2,20.2
37.2,6.8,17.7
46.5,6.1,16
37,17.1,44.1
56.9,5.0,9.1
41.7,9.2,28.9
43.2,4.4,8.6
4.8,7.1,22.4
56.9,3.8,6.6
NE,6.3,18.2
35.8,5.3,10.8
45.5,5.0,13.5
39.2,8.4,22.4
54.4,4.8,11.8
SUPP,9.0,23.4
NE,6.9,18.5
43.4,6.1,17.5
34.4,5.6,16.7
36.9,8.9,24.5
38.7,6.5,16
46.9,5.7,12.4
56,3.3,4.8
52.9,4.4,9.1
40.7,11.6,34.4
45.1,5.5,14.7
44.7,4.9,10.8
49.6,5.6,10.7
44.4,5.4,14.8
34.1,12.3,36.6
50.7,6.4,19.1
34.8,5.1,16
44.9,6.2,14.9
53.9,4.1,7.2
35,10.4,36.9
40.3,5.2,11.7
35.8,6.1,18.5
55.3,4.6,10.2
54.1,5.4,16.8
47.1,6.1,16.2
43.6,4.4,11.7
1.5,4.7,11.7
60.9,6.8,28.6
16.7,11.5,33.3
28.8,7.0,9
43,6.4,18.1
43.7,5.3,13.6
53.1,5.2,13.2
49.3,3.7,4.9
36.8,7.6,24.9
47.2,5.9,14.8
45.8,4.5,11.3
29.9,7.8,27.4
28.8,12.1,37.8
54.6,4.0,9.1
48.6,4.5,9.7
33.2,5.9,17.3
51.9,5.4,15.2
41.6,6.2,15.3
43,5.0,12.3
41,7.8,26.4
49.6,7.8,21
43.6,6.5,16.2
46.1,6.0,18.6
41.9,3.4,5.1
49.7,4.9,8.8
37.6,8.8,25.8
48.4,4.8,10.7
36.1,6.7,21.2
45,5.0,9.6
52.8,4.6,10.3
51.2,5.1,9
48,5.6,14
40,6.3,18.4
42.8,3.9,6.3
48.4,4.9,9.6
37.8,6.2,18.6
23.2,7.5,19.5
34.4,10.0,34.4
40.8,6.5,16.7
45.1,6.9,16.5
46,5.7,15.4
29.3,11.2,35.1
38.6,6.8,18.5
37.3,6.2,15.9
40.3,5.8,13.1
53.1,5.8,13.7
0.1,8.3,24.4
50.5,4.9,10.5
1.4,5.4,13.3
NE,10.7,30.1
NE,11.8,32.4
34.4,7.5,23.2
44.8,5.2,12.3
56.8,4.6,7.9
48.6,4.6,10.3
55.1,4.0,7.8
47.7,5.0,10.5
35.5,7.3,21
44.8,6.1,14.2
47.3,4.7,10.5
33.5,7.9,25.3
41.8,9.1,22.8
53.5,4.3,9
53.3,4.0,7.9
35.2,7.6,25.3
43.5,3.8,7.9
21.9,11.8,38.6
35.5,8.9,25.5
40.1,13.3,45.8
42.5,6.6,17.8
44.1,6.7,18.2
46.7,5.7,15.6
46.4,6.6,17.3
43.8,4.9,13.3
1.3,10.7,34.9
54.6,5.5,13.2
49.2,6.6,18
4.5,35.2,66.7
55.3,4.8,8.5
38.6,5.4,9.3
40.2,5.8,14.8
53.2,3.7,6
51.3,4.8,10
48.7,6.6,13.8
50.7,4.3,9.9
61.1,4.5,9.1
21.2,27.4,62.7
0.6,3.6,8.1
44.1,5.6,14.1
46.7,4.0,10
36.8,6.9,23.6
6.5,30.7,81
42.6,5.8,17.7
50.9,5.5,10.1
NE,7.7,25
38.7,6.6,19.9
51.3,5.8,15.2
58.6,3.2,6.3
46.5,6.5,19.1
SUPP,12.2,SUPP
41.3,5.0,11.4
45.7,5.8,15.1
35,10.5,32.1
NE,7.4,19.6
57.6,4.1,7
NE,7.3,20.8
2.2,24.0,63.1
49.2,5.3,12
56.2,4.1,8.2
42.4,4.8,11.9
42.5,5.5,13.7
NE,7.3,21.6
46.9,5.1,13.2
13.8,7.2,22.1
43.3,6.0,17
38.3,6.2,16.8
36.1,5.5,12.6
38.8,5.5,14
46.5,5.9,16.8
SUPP,10.1,25.1
12.6,21.2,47.8
5.3,26.1,61.2
37.5,6.2,15.6
44.4,7.0,18
43,5.6,14.1
47.3,5.4,14
2.6,5.1,13.3
10.8,14.8,37.7
49,5.2,10.3
40.9,6.1,17.4
43.2,6.5,18
55.5,5.7,13.1
55.4,4.8,9.2
40.8,6.0,16.5
52.2,4.2,7.2
48.9,5.2,14
54.6,4.9,12.9
2.8,7.4,19.7
45.7,4.6,10.6
50.9,4.8,9.4
46.4,5.6,13.6
39.3,6.5,16.2
45,5.6,11.8
43.1,6.7,15.3
49.7,6.4,16.9
46.8,6.2,16.8
54,4.7,9.7
NE,7.1,17.5
46.3,6.2,16.2
40,6.4,16.9
72.1,4.4,9.3
35.2,8.7,26.1
36.2,7.5,19.5
48,4.8,12
47.5,5.2,11.6
51.1,3.9,6.7
48.6,4.9,11.7
11.7,16.3,48.2
43.2,5.3,13.1
42.3,3.7,7.7
51.5,4.5,11.2
SUPP,12.3,30
37.4,7.2,20.2
48,5.3,12.4
39.8,7.2,21
43.3,6.8,18.3
49,4.3,7.3
0.8,5.6,13.4
44.3,4.9,11.8
50.6,5.4,11.1
34.1,7.1,20.6
15.5,23.5,63.2
43.1,5.0,10.2
48.8,5.4,14
39.7,8.0,24.3
46.7,5.9,13.6
59.8,4.0,6.7
44,5.6,14.3
48.4,5.9,15.2
NE,10.2,30.4
0.6,6.2,17.6
74.3,4.3,10.1
44,4.9,11.4
21.2,7.1,19.7
51.4,6.3,16.8
46.5,7.3,19.3
45.1,6.5,18.7
46.3,5.3,13.1
7.5,10.2,18
61.4,4.2,10.5
47.3,6.5,16.9
45.8,6.1,17.3
49.4,5.1,12.8
47.6,5.1,12.2
52.6,5.8,12.1
42.9,6.4,15.2
51,6.5,15.6
39.8,6.8,20.5
49.6,5.4,13.3
50.2,6.2,17.8
75.2,4.3,7.4
43.8,5.8,14.9
NE,9.8,21.2
49.7,4.6,10.7
37.8,4.9,12.8
28.1,14.8,50.6
34.3,6.7,18.9
33.5,9.3,30
47.3,6.3,16
44.9,2.7,4
43.4,6.2,17.4
59.6,3.6,5.6
58.3,3.4,5.1
55.2,2.3,2.6
39.8,6.6,20.9
52.1,3.8,5.9
40.1,5.1,12.5
36.5,9.3,35.3
40.9,4.9,10.3
36.7,5.8,17.6
46.2,6.2,18
51.9,5.1,13.5
54.4,5.5,13.8
33,5.9,16.7
44.5,5.3,14.1
1.2,10.1,26.5
51.6,4.1,9
37.7,8.0,25.8
35.2,12.2,33.7
0.6,14.1,51.9
45.4,4.4,8.5
53.2,3.9,8.6
23.7,16.2,44.6
35.4,8.7,28.5
SUPP,28.0,76.3
37.8,5.1,16.2
47.9,6.7,20.3
4.1,34.6,73.9
54.5,6.6,16.2
35.9,7.3,22.2
33.7,5.8,15.6
41.2,5.9,15.9
39.1,6.5,16.1
54.1,4.4,7.8
48.1,5.2,12.5
51.4,4.1,8.1
39.5,6.1,14.4
46.9,4.7,11.7
51.9,3.7,5.8
49.1,7.1,20.1
35.3,7.5,23.6
42.8,6.3,20.8
44.8,5.5,14.6
49.1,6.1,17.9
54.1,4.1,7.4
NE,7.6,26.5
47.1,4.1,9.5
54.6,5.2,11.2
38.5,5.6,16.4
45.6,5.7,15
22.1,10.0,32.3
40.3,6.0,16.1
46.1,5.2,11.8
37.9,7.0,20.7
43.1,4.5,10.9
37.2,6.8,21.4
49.2,5.6,13.5
8.1,26.0,74.2
54.1,3.6,6
39.2,7.3,23.7
42.4,5.6,15.2
42.8,7.4,22
33.1,6.1,18
40.6,5.2,13.2
40.6,6.0,17.7
47.3,4.6,9.5
NE,8.2,25
0.3,8.8,26.9
5,6.8,21.7
NE,8.5,26.9
NE,13.6,47.5
45,5.4,13.9
47.7,4.7,9.1
49.7,4.6,9.2
43.6,6.0,16.9
48.9,6.1,15.1
74.7,4.0,5.3
42.6,5.3,13.1
48.3,4.6,10.4
42.4,5.2,11.5
39.7,7.7,22.1
42.7,7.6,22.2
38.4,4.8,11.9
39.4,4.8,10.9
39.5,6.5,16.4
42.7,5.6,13.6
44.5,5.7,13.9
47.6,5.7,13.3
47.9,5.4,11.9
43.1,4.7,9.8
46.5,5.8,15.2
50.9,6.5,16.5
2.1,8.0,20.3
46.8,6.2,15
42.5,7.7,22.2
2.8,36.5,79.7
5.8,22.9,47.6
30.5,4.2,9.2
32.5,8.6,23.8
48.8,11.8,23.5
43.4,5.8,14.8
55.9,4.4,9.6
NE,8.3,22.9
57.2,5.2,11.8
NE,8.7,27.8
0.4,5.7,19.6
51.1,5.0,11.9
42.8,5.7,15.4
44.5,7.8,22.6
10.7,5.5,16
6.6,16.9,49.5
45.4,5.6,12.5
37.3,4.6,10.5
40.8,6.4,15.1
8.2,34.7,62.2
48.1,7.5,21.4
SUPP,9.4,35.1
6.5,10.9,23.7
10.9,9.5,29.5
69.9,2.1,3.6
46.2,6.2,20.3
43,5.0,12.5
54.5,5.4,11
SUPP,6.4,SUPP
SUPP,8.1,23.1
55.5,4.2,8.7
41.3,6.3,19.3
47.7,4.9,11.1
SUPP,8.6,27.6
40.9,5.2,11.9
45.6,5.3,11.6
41.1,6.4,16.8
40.1,5.8,14
50.1,4.1,9
43.3,8.9,26.2
40.3,7.7,19.6
39.6,7.1,19.9
44,5.8,19
NE,6.7,17.8
46.7,5.4,12.1
41.7,5.9,13.2
59.1,2.8,3.1
NE,8.6,27.5
40.5,6.7,15.4
46.9,5.9,9.8
35.8,6.7,17.8
37.5,7.2,23.4
35.4,9.9,35.4
NE,9.5,23
1.6,6.9,18.5
45.7,4.0,8.8
NE,7.8,26.6
51.4,5.3,13.6
38.9,9.1,28.1
45.8,5.9,15.7
48.8,6.4,17
45.7,5.0,10.2
48.2,4.8,10.9
NE,8.1,22.1
46.9,5.5,13.1
51.7,5.9,12
42.5,6.3,20.3
6.7,28.7,62.7
41.6,6.6,18
36.5,7.5,19.6
54,4.1,9.5
50,6.0,15
62.8,3.9,6.8
37,8.3,31.1
3.9,10.1,23.6
NE,7.0,21.9
36.9,7.4,20.6
64.4,1.8,1
61.7,3.2,5.5
57.6,2.6,4
38.1,5.9,14.9
1.9,20.0,51.9
38.9,6.7,20.7
SUPP,8.2,29.2
40,5.3,12.3
37.5,7.4,19.3
44.1,5.6,15.1
39.5,6.8,18.3
49.2,6.5,17.2
44,5.3,12.6
44.6,5.2,11.2
NE,8.8,26.4
39.7,6.0,16.4
43.5,6.5,19.5
39.7,7.5,20.3
37.3,8.4,27.1
34.2,6.8,14.7
49,5.3,17.1
SUPP,6.3,16.1
48.4,3.4,6.6
38,5.9,15.7
44.4,5.3,14.3
32.4,7.1,21.7
36,7.6,21.6
SUPP,4.3,8.6
SUPP,7.0,25
3.5,19.9,54.5
45.2,4.9,11.8
43,5.6,12.7
NE,23.8,62.5
58.6,6.6,15.6
SUPP,11.8,26.6
48.7,6.5,14.7
39.8,8.5,22.7
40.5,7.4,23.6
45.2,6.4,17.1
17.2,29.8,73.6
30.3,9.6,36.4
29.9,7.7,25
SUPP,6.1,20
NE,11.1,30.6
17,15.3,36.3
48.8,4.9,12.2
15.6,19.1,50
49.5,5.7,16.1
6,21.4,48.4
45.9,6.8,15.8
0.8,22.4,52.7
48.6,5.5,13.5
42.2,6.0,13.3
47.3,5.9,16.9
51.7,5.0,10.4
47.6,5.9,15.4
42.9,6.0,17
55.3,4.7,12
45.5,5.2,12.6
13.5,14.6,41.9
62.7,4.5,9.5
45,5.8,13.7
36.7,5.3,15.8
47.4,5.1,13.7
39.6,8.4,23.3
40.6,5.3,14.2
35.1,9.0,28.4
0.3,5.1,12.9
43.5,5.9,14.6
SUPP,6.9,20.2
54.3,5.0,11.3
NE,10.1,31.9
NE,10.6,24.6
47.2,5.1,12.3
44.3,5.1,13.1
61.3,4.7,9
45.4,6.7,17.5
47.9,5.4,15.1
52.2,4.3,8
43.7,6.0,17.1
60.1,4.6,7.2
58.8,4.1,6
40.3,9.3,29.5
NE,6.6,18.5
39,6.4,20.8
37.7,7.9,22.2
40.9,6.1,15.6
41.6,5.7,14.9
43.4,6.7,19.5
39.1,6.6,18.9
40.5,5.7,14.4
NE,11.0,34.4
35.4,7.8,23.3
28.9,10.5,30.8
44.7,7.8,19.3
48.4,5.4,12.6
8.7,18.9,47.5
41.1,7.1,18
14.6,6.7,26.8
NE,7.2,23
55.8,4.1,8.2
42.1,5.5,13.9
45.1,6.2,15.9
49.7,6.3,16.6
40.8,7.0,19.4
50.4,5.2,11.9
42.5,5.1,9.2
48.9,5.7,16.3
3.5,33.1,68.6
62.2,7.1,24.1
2.6,22.6,56.1
53.6,4.4,8.2
51.1,5.3,11.8
SUPP,8.7,27.9
SUPP,11.6,32.1
1.7,7.5,19.3
32.5,9.8,28.6
NE,13.9,46.1
1.3,13.7,45.3
SUPP,6.5,18.2
45.5,4.3,10.7
34.8,7.6,19.9
NE,12.9,37.5
43.4,5.3,12.1
51.1,4.9,11.1
1.9,8.0,20.7
44.6,5.9,17.2
6.9,7.1,17.3
35.4,6.2,20.3
49,6.8,17.8
42.3,5.9,15.5
35.3,9.6,27.7
37.2,4.9,13.5
4,25.9,65.4
6.1,5.6,18.7
45.2,5.0,9
0.6,13.7,36.5
NE,9.2,25.7
SUPP,7.9,30
34.4,8.0,24.6
47.2,5.2,12.5
41.2,6.1,18.5
42.2,8.4,23.4
47.3,6.0,14.4
37.8,6.0,16.1
28.4,14.1,38.5
42.4,6.7,19.4
36.7,6.0,14.9
30.7,8.5,22.6
31.9,2.7,5.1
NE,6.9,21.7
37.3,8.0,23.1
32.8,6.3,15.9
38.8,4.4,9.4
38.6,4.7,13.2
44.3,6.7,18
34.1,6.0,17.3
8.4,24.9,64.5
0.8,34.6,72.1
33.7,5.7,11.8
43.6,5.9,13.4
51.9,4.8,8.6
43.1,5.4,14.2
38,6.6,20.8
NE,7.5,21.2
44.1,6.1,14
36.6,8.5,24.5
NE,11.1,28.6
53.5,4.3,8.7
53.4,3.7,7.5
49,3.3,5
49.6,5.4,13.7
NE,9.3,25.2
38.1,6.9,17.1
35.3,10.4,31.5
39.3,6.6,16.8
44.8,7.9,24.2
41,4.4,9.3
38.3,7.3,21.3
42.2,7.2,20.5
47.1,4.1,9
48.2,5.4,13.9
39.9,7.2,24.6
39.8,6.4,19.6
37.3,9.8,29.3
NE,8.9,21.4
SUPP,12.5,35
NE,9.7,29.6
5.8,12.5,44.2
42.4,5.8,16.1
SUPP,7.0,22.2
44.9,6.5,16.3
10.6,6.3,24.6
45.6,5.5,12.9
35.1,5.9,16.1
48.6,6.4,15.5
55.3,4.0,7.2
51.4,4.9,11.1
50.2,6.3,14.8
53.3,5.8,12.8
8.6,10.4,33.5
NE,7.3,23
47.4,5.1,12.4
38.7,6.2,18.5
NE,6.9,19.5
40.6,5.8,13
60.1,3.6,4.7
62.5,3.8,6
50.9,4.5,10
51.5,5.2,10.9
36.1,7.0,21.9
44.7,4.1,7.3
36,4.9,11.3
45.1,5.6,14.9
44,7.0,21.6
45.2,5.4,13.1
40.2,5.3,12.8
43.5,8.0,26.4
49.3,4.6,10.2
40.7,4.9,13.1
36.5,8.7,25.4
48.6,4.9,13.9
NE,20.0,58.5
4.5,30.2,77.3
42,7.1,22.3
NE,6.4,15.3
37.8,7.9,26.1
3.1,30.2,86.7
40.5,8.7,23.2
67.4,3.9,6.9
41.6,5.9,17.4
50.9,4.9,10.3
47.2,4.8,10.5
2.7,7.7,20.4
51.3,4.3,8.5
2.1,20.7,67.3
48.8,5.7,14.9
35,8.8,25.2
40.5,6.3,15.8
47.2,6.4,18.3
39.6,7.0,25.1
38.4,6.5,19
44.7,6.3,16.7
44.7,6.1,16.9
50.7,4.6,8.4
43.1,5.8,15.6
54.7,4.9,10.4
43,5.8,16.4
43.9,7.7,23.9
2,7.9,19
33.5,6.4,19.2
36.6,7.7,23.4
35.8,8.4,26.6
43.4,5.7,16
33.7,7.7,26
46.2,5.0,11.8
29.5,6.2,19.5
2.9,29.2,72.9
44.5,6.7,19.9
0.6,7.7,21
47.6,4.6,11.9
1,4.9,10.6
41.3,5.7,16.7
37.6,7.8,23.8
44.9,5.7,16.5
51.9,6.7,20.3
47.5,6.1,16.3
38.9,5.7,14.5
54.4,5.4,10.8
37,8.8,25.4
44.7,5.7,16.4
46.5,8.8,26
41.9,6.4,19.7
40.3,5.7,13.9
39.6,6.6,17.8
46.4,6.4,17.3
49.8,5.1,11
43.7,5.9,17.8
50.1,5.6,9.7
44.2,7.1,15.8
49.4,6.0,16.9
35.2,7.5,19.9
34.3,5.7,14
50.3,5.4,12.4
46.1,6.5,18.4
54.6,4.0,7.4
50.6,4.6,9.6
0.9,7.5,22.3
37.2,6.1,17.5
43.1,6.0,14.9
37.1,8.1,25.1
44.8,5.7,14.4
52.8,5.2,13.9
75.3,3.3,5.2
54,3.3,6.4
44.7,6.0,13.9
46.6,6.7,17.2
NE,8.5,25.2
40.1,5.9,16
40.2,6.0,16.5
46.8,5.7,16.9
0.2,7.4,19.4
NE,12.6,25.9
46.6,7.2,19.7
NE,5.9,11.9
NE,5.8,19
10,6.2,15.9
55.6,4.3,9.3
36.9,8.1,24.7
41.3,6.2,14.7
42.4,7.6,24.9
1.6,33.5,71.4
40.7,5.5,15
33.8,8.3,28.7
41.3,6.1,17.2
39.3,5.4,14.2
45.9,4.8,10.7
47.4,5.0,8.6
47,4.4,10.3
10.5,20.1,46.4
SUPP,12.1,28
50,4.7,11
50.8,4.2,9
NE,11.7,31.6
40.7,6.2,16.2
0.6,9.0,26
39.7,4.8,11
39.7,7.4,23.9
45.1,6.5,18.2
44.6,7.0,19.3
39,6.6,16
41,6.3,20.2
48.1,6.4,16.3
42.6,5.1,10.9
43.8,5.7,13.1
12.9,18.9,60
43.3,6.1,17.5
43.8,5.8,16.8
33.6,6.7,18
33.2,7.0,19.3
41.3,5.8,15.3
40.1,5.5,14.7
44.1,5.1,12.5
35.3,5.9,15.4
37.3,6.3,18.2
34.7,9.0,25.6
54.7,4.5,9.5
48.8,5.3,8.6
41.8,6.4,18.1
46,5.8,13.6
38.2,7.0,20.7
31.4,7.6,26.4
40.3,7.9,21.5
44.1,5.9,14.6
43,6.8,18.5
49.8,5.6,14.8
45.5,5.4,13.7
43.8,4.8,10.1
41.9,5.2,13.8
46.5,4.8,9.6
43,6.1,13.7
52.9,4.6,10.5
33.8,5.5,16.6
46.6,5.5,14.9
32.2,6.7,16
40.4,5.7,13.9
33,7.9,24.8
NE,8.8,28.6
36,9.1,29.9
40.3,9.2,25.4
1.5,23.7,56.4
34.1,7.4,25.8
NE,9.5,27.3
48,5.9,15.2
0.6,13.0,30.5
NE,10.2,40
52.2,3.8,6.3
60.4,5.2,12
31.7,13.0,37.1
SUPP,4.8,13
37.6,7.6,31.3
34.3,8.1,21.7
3.6,10.3,33.3
NE,35.5,76.5
45.6,3.0,3.1
39.9,7.2,21.9
2,32.8,86.4
46.3,5.4,13.9
33.9,8.3,28.7
40.6,13.5,51.3
NE,9.3,23.7
47.1,4.4,9.8
NE,18.9,59
5.2,7.2,20.8
0.5,6.2,15
39.5,5.8,17.2
44.5,5.5,12.3
34.3,10.1,27.5
37.9,6.1,18.1
NE,15.8,50.9
41.8,6.2,16.3
38.9,5.8,15.2
55.6,5.4,12.2
40.6,6.9,17.8
38.3,9.6,28.1
40.2,6.3,15.5
44.9,5.3,13.5
42,4.9,12.1
44,6.0,14.9
40.8,5.3,13.6
43.3,4.7,8.7
31,5.5,14.3
36.3,6.4,22.7
38.2,6.1,13.9
38.1,6.4,17.4
45.4,6.8,17.1
48.1,6.4,22.1
45.1,5.2,11.1
40.7,5.0,13.4
44.9,4.9,10.4
43.7,4.7,11.7
46.9,5.3,15
45.3,8.1,25.5
39.9,4.8,14.4
40.1,6.4,17.4
36.7,7.3,20.1
39.9,7.2,21.2
54,3.5,4.6
33.1,5.9,17.5
37.8,6.9,17
37.8,7.1,22.2
52,5.0,13.5
43.8,7.3,21.2
47.5,5.0,15.4
52,3.1,4.4
36.9,5.0,12.8
45.3,5.8,14.5
39.5,6.1,16.5
43.8,6.2,16.1
40.3,8.8,28.9
45.5,4.9,10.8
43.9,7.3,20.3
2.3,10.1,30.7
NE,7.6,23.3
40.1,5.8,17
47.6,4.8,9.3
NE,8.5,23.6
SUPP,16.2,57.1
55.6,3.6,5.6
47.9,6.1,16.8
NE,10.7,33.3
42.3,6.1,14.5
47.2,5.3,12.8
54.2,4.4,9.5
48.7,5.6,15.7
50.6,5.1,14.7
29.9,6.9,18.1
33,6.7,18.4
50.2,5.7,12.8
47.2,4.8,11.1
44.6,6.3,16.6
48.1,6.8,16.5
40.8,6.8,16.3
51,4.0,5.7
35.5,9.9,29.5
48.7,5.9,16.2
6.3,25.6,62.2
20,10.3,25
39,8.1,22.9
50.9,4.6,11.1
41,5.1,13.1
34.2,9.6,26.7
34.1,9.0,27.3
56.3,4.8,8.5
41.5,6.0,17.5
35.7,7.9,25.4
50,7.4,24.9
48.1,6.7,16.4
NE,6.7,18.7
38.8,7.2,19.2
12.9,12.4,38.3
51.7,4.4,8.8
47,6.5,16.2
50.3,4.9,10.6
47.1,5.9,14.2
38.2,7.9,23.8
0.2,9.3,28.6
49.7,5.7,14.6
39.9,6.0,14.3
45.3,7.0,16.9
45.1,5.5,14
50.7,5.7,15.3
44.6,3.1,5.2
38.4,6.8,17.9
48.7,5.6,15.4
49.1,6.1,13.3
39.3,5.9,14.7
NE,16.8,42
36.7,5.5,14.2
50.6,4.6,10.9
52.6,5.8,12.4
54.2,5.1,10.7
1.6,33.9,70.7
1.1,34.7,75
SUPP,16.4,46.7
SUPP,10.1,34.9
SUPP,9.7,22
40.6,7.4,18.6
46.7,6.5,18.6
41.3,9.0,26.8
38.2,12.5,37
43,7.2,22.5
50,4.6,12.6
42,5.7,16.3
31.8,7.4,22.7
35.8,8.3,27.9
0.6,9.8,32.9
45.1,5.4,15.9
SUPP,7.2,22.5
SUPP,7.8,25.5
NE,6.9,19.7
0.8,7.4,22.2
NE,10.1,34.8
NE,14.4,38.5
NE,11.2,30.7
49.4,5.0,12.6
49.9,4.7,11.3
3.1,7.6,16.5
38.6,6.4,17.9
40.4,5.8,14.3
SUPP,5.0,12.5
50.3,4.5,12.9
43.7,5.3,12.9
42.2,7.1,20.3
NE,5.7,20
47.6,3.8,7.7
32.2,8.5,25.9
39.8,6.6,20.1
54.3,5.5,14.7
NE,11.6,44.1
42.9,6.2,16
44.5,4.6,10.6
45.4,5.6,15
45.1,5.0,10.5
2.9,8.0,21.9
1.3,4.4,10.2
49.8,5.5,12.4
44.6,5.6,14.9
37.9,13.0,42.2
40.2,6.5,18.4
43.2,5.5,14.6
33.1,7.9,22.9
40.3,7.3,20.3
45.8,7.2,20.6
40.8,7.1,18.9
40.6,6.9,21.3
36.9,6.2,14.8
32.3,10.4,32.4
42.9,7.5,19.5
40.4,5.2,15.3
39.1,8.8,28.8
36.7,8.0,23.3
38,6.3,16.3
45.2,4.7,12.4
35.3,7.2,22.9
33.9,7.3,24
